<?xml version='1.0' encoding='UTF-8' ?>
<svg xmlns='http://www.w3.org/2000/svg' xmlns:xlink='http://www.w3.org/1999/xlink' viewBox='0 0 1584.00 2160.00'>
<defs>
  <style type='text/css'><![CDATA[
    line, polyline, polygon, path, rect, circle {
      fill: none;
      stroke: #000000;
      stroke-linecap: round;
      stroke-linejoin: round;
      stroke-miterlimit: 10.00;
    }
  ]]></style>
</defs>
<rect width='100%' height='100%' style='stroke: none; fill: #FFFFFF;'/>
<rect x='0.00' y='0.00' width='1584.00' height='2160.00' style='stroke-width: 1.16; stroke: #FFFFFF; fill: #FFFFFF;' />
<defs>
  <clipPath id='cpNDU3LjgwfDE1NzguMDJ8MjEyNi4wMnw0Ny4xNw=='>
    <rect x='457.80' y='47.17' width='1120.22' height='2078.85' />
  </clipPath>
</defs>
<rect x='457.80' y='47.17' width='1120.22' height='2078.85' style='stroke-width: 1.16; stroke: none; fill: #FFFFFF;' clip-path='url(#cpNDU3LjgwfDE1NzguMDJ8MjEyNi4wMnw0Ny4xNw==)' />
<rect x='1031.15' y='2110.98' width='495.96' height='12.89' style='stroke-width: 1.07; stroke: #FFFFFF; stroke-linecap: square; stroke-linejoin: miter; fill: #FFE119;' clip-path='url(#cpNDU3LjgwfDE1NzguMDJ8MjEyNi4wMnw0Ny4xNw==)' />
<rect x='1031.15' y='2096.67' width='491.07' height='12.89' style='stroke-width: 1.07; stroke: #FFFFFF; stroke-linecap: square; stroke-linejoin: miter; fill: #FFE119;' clip-path='url(#cpNDU3LjgwfDE1NzguMDJ8MjEyNi4wMnw0Ny4xNw==)' />
<rect x='1031.15' y='2082.35' width='460.39' height='12.89' style='stroke-width: 1.07; stroke: #FFFFFF; stroke-linecap: square; stroke-linejoin: miter; fill: #FFE119;' clip-path='url(#cpNDU3LjgwfDE1NzguMDJ8MjEyNi4wMnw0Ny4xNw==)' />
<rect x='1031.15' y='2068.03' width='460.39' height='12.89' style='stroke-width: 1.07; stroke: #FFFFFF; stroke-linecap: square; stroke-linejoin: miter; fill: #FFE119;' clip-path='url(#cpNDU3LjgwfDE1NzguMDJ8MjEyNi4wMnw0Ny4xNw==)' />
<rect x='1031.15' y='2053.71' width='425.34' height='12.89' style='stroke-width: 1.07; stroke: #FFFFFF; stroke-linecap: square; stroke-linejoin: miter; fill: #FFE119;' clip-path='url(#cpNDU3LjgwfDE1NzguMDJ8MjEyNi4wMnw0Ny4xNw==)' />
<rect x='1031.15' y='2039.40' width='425.34' height='12.89' style='stroke-width: 1.07; stroke: #FFFFFF; stroke-linecap: square; stroke-linejoin: miter; fill: #FFE119;' clip-path='url(#cpNDU3LjgwfDE1NzguMDJ8MjEyNi4wMnw0Ny4xNw==)' />
<rect x='1031.15' y='2025.08' width='425.34' height='12.89' style='stroke-width: 1.07; stroke: #FFFFFF; stroke-linecap: square; stroke-linejoin: miter; fill: #FFE119;' clip-path='url(#cpNDU3LjgwfDE1NzguMDJ8MjEyNi4wMnw0Ny4xNw==)' />
<rect x='1031.15' y='2010.76' width='408.76' height='12.89' style='stroke-width: 1.07; stroke: #FFFFFF; stroke-linecap: square; stroke-linejoin: miter; fill: #FFE119;' clip-path='url(#cpNDU3LjgwfDE1NzguMDJ8MjEyNi4wMnw0Ny4xNw==)' />
<rect x='1031.15' y='1996.45' width='408.76' height='12.89' style='stroke-width: 1.07; stroke: #FFFFFF; stroke-linecap: square; stroke-linejoin: miter; fill: #FFE119;' clip-path='url(#cpNDU3LjgwfDE1NzguMDJ8MjEyNi4wMnw0Ny4xNw==)' />
<rect x='1031.15' y='1982.13' width='408.48' height='12.89' style='stroke-width: 1.07; stroke: #FFFFFF; stroke-linecap: square; stroke-linejoin: miter; fill: #FFE119;' clip-path='url(#cpNDU3LjgwfDE1NzguMDJ8MjEyNi4wMnw0Ny4xNw==)' />
<rect x='1031.15' y='1967.81' width='402.43' height='12.89' style='stroke-width: 1.07; stroke: #FFFFFF; stroke-linecap: square; stroke-linejoin: miter; fill: #FFE119;' clip-path='url(#cpNDU3LjgwfDE1NzguMDJ8MjEyNi4wMnw0Ny4xNw==)' />
<rect x='1031.15' y='1953.49' width='401.95' height='12.89' style='stroke-width: 1.07; stroke: #FFFFFF; stroke-linecap: square; stroke-linejoin: miter; fill: #FFE119;' clip-path='url(#cpNDU3LjgwfDE1NzguMDJ8MjEyNi4wMnw0Ny4xNw==)' />
<rect x='1031.15' y='1939.18' width='391.74' height='12.89' style='stroke-width: 1.07; stroke: #FFFFFF; stroke-linecap: square; stroke-linejoin: miter; fill: #FFE119;' clip-path='url(#cpNDU3LjgwfDE1NzguMDJ8MjEyNi4wMnw0Ny4xNw==)' />
<rect x='1031.15' y='1924.86' width='386.08' height='12.89' style='stroke-width: 1.07; stroke: #FFFFFF; stroke-linecap: square; stroke-linejoin: miter; fill: #FFE119;' clip-path='url(#cpNDU3LjgwfDE1NzguMDJ8MjEyNi4wMnw0Ny4xNw==)' />
<rect x='1031.15' y='1910.54' width='386.08' height='12.89' style='stroke-width: 1.07; stroke: #FFFFFF; stroke-linecap: square; stroke-linejoin: miter; fill: #FFE119;' clip-path='url(#cpNDU3LjgwfDE1NzguMDJ8MjEyNi4wMnw0Ny4xNw==)' />
<rect x='1031.15' y='1896.23' width='380.96' height='12.89' style='stroke-width: 1.07; stroke: #FFFFFF; stroke-linecap: square; stroke-linejoin: miter; fill: #FFE119;' clip-path='url(#cpNDU3LjgwfDE1NzguMDJ8MjEyNi4wMnw0Ny4xNw==)' />
<rect x='1031.15' y='1881.91' width='380.34' height='12.89' style='stroke-width: 1.07; stroke: #FFFFFF; stroke-linecap: square; stroke-linejoin: miter; fill: #FFE119;' clip-path='url(#cpNDU3LjgwfDE1NzguMDJ8MjEyNi4wMnw0Ny4xNw==)' />
<rect x='1031.15' y='1867.59' width='371.83' height='12.89' style='stroke-width: 1.07; stroke: #FFFFFF; stroke-linecap: square; stroke-linejoin: miter; fill: #FFE119;' clip-path='url(#cpNDU3LjgwfDE1NzguMDJ8MjEyNi4wMnw0Ny4xNw==)' />
<rect x='1031.15' y='1853.27' width='365.01' height='12.89' style='stroke-width: 1.07; stroke: #FFFFFF; stroke-linecap: square; stroke-linejoin: miter; fill: #FFE119;' clip-path='url(#cpNDU3LjgwfDE1NzguMDJ8MjEyNi4wMnw0Ny4xNw==)' />
<rect x='1031.15' y='1838.96' width='348.76' height='12.89' style='stroke-width: 1.07; stroke: #FFFFFF; stroke-linecap: square; stroke-linejoin: miter; fill: #FFE119;' clip-path='url(#cpNDU3LjgwfDE1NzguMDJ8MjEyNi4wMnw0Ny4xNw==)' />
<rect x='1031.15' y='1824.64' width='347.19' height='12.89' style='stroke-width: 1.07; stroke: #FFFFFF; stroke-linecap: square; stroke-linejoin: miter; fill: #FFE119;' clip-path='url(#cpNDU3LjgwfDE1NzguMDJ8MjEyNi4wMnw0Ny4xNw==)' />
<rect x='1031.15' y='1810.32' width='346.77' height='12.89' style='stroke-width: 1.07; stroke: #FFFFFF; stroke-linecap: square; stroke-linejoin: miter; fill: #FFE119;' clip-path='url(#cpNDU3LjgwfDE1NzguMDJ8MjEyNi4wMnw0Ny4xNw==)' />
<rect x='1031.15' y='1796.01' width='346.49' height='12.89' style='stroke-width: 1.07; stroke: #FFFFFF; stroke-linecap: square; stroke-linejoin: miter; fill: #FFE119;' clip-path='url(#cpNDU3LjgwfDE1NzguMDJ8MjEyNi4wMnw0Ny4xNw==)' />
<rect x='1031.15' y='1781.69' width='346.05' height='12.89' style='stroke-width: 1.07; stroke: #FFFFFF; stroke-linecap: square; stroke-linejoin: miter; fill: #FFE119;' clip-path='url(#cpNDU3LjgwfDE1NzguMDJ8MjEyNi4wMnw0Ny4xNw==)' />
<rect x='1031.15' y='1767.37' width='344.41' height='12.89' style='stroke-width: 1.07; stroke: #FFFFFF; stroke-linecap: square; stroke-linejoin: miter; fill: #FFE119;' clip-path='url(#cpNDU3LjgwfDE1NzguMDJ8MjEyNi4wMnw0Ny4xNw==)' />
<rect x='1031.15' y='1753.05' width='339.20' height='12.89' style='stroke-width: 1.07; stroke: #FFFFFF; stroke-linecap: square; stroke-linejoin: miter; fill: #FFE119;' clip-path='url(#cpNDU3LjgwfDE1NzguMDJ8MjEyNi4wMnw0Ny4xNw==)' />
<rect x='1031.15' y='1738.74' width='339.10' height='12.89' style='stroke-width: 1.07; stroke: #FFFFFF; stroke-linecap: square; stroke-linejoin: miter; fill: #FFE119;' clip-path='url(#cpNDU3LjgwfDE1NzguMDJ8MjEyNi4wMnw0Ny4xNw==)' />
<rect x='1031.15' y='1724.42' width='338.75' height='12.89' style='stroke-width: 1.07; stroke: #FFFFFF; stroke-linecap: square; stroke-linejoin: miter; fill: #FFE119;' clip-path='url(#cpNDU3LjgwfDE1NzguMDJ8MjEyNi4wMnw0Ny4xNw==)' />
<rect x='1031.15' y='1710.10' width='338.31' height='12.89' style='stroke-width: 1.07; stroke: #FFFFFF; stroke-linecap: square; stroke-linejoin: miter; fill: #FFE119;' clip-path='url(#cpNDU3LjgwfDE1NzguMDJ8MjEyNi4wMnw0Ny4xNw==)' />
<rect x='1031.15' y='1695.79' width='333.35' height='12.89' style='stroke-width: 1.07; stroke: #FFFFFF; stroke-linecap: square; stroke-linejoin: miter; fill: #FFE119;' clip-path='url(#cpNDU3LjgwfDE1NzguMDJ8MjEyNi4wMnw0Ny4xNw==)' />
<rect x='1031.15' y='1681.47' width='331.30' height='12.89' style='stroke-width: 1.07; stroke: #FFFFFF; stroke-linecap: square; stroke-linejoin: miter; fill: #FFE119;' clip-path='url(#cpNDU3LjgwfDE1NzguMDJ8MjEyNi4wMnw0Ny4xNw==)' />
<rect x='1031.15' y='1667.15' width='330.25' height='12.89' style='stroke-width: 1.07; stroke: #FFFFFF; stroke-linecap: square; stroke-linejoin: miter; fill: #FFE119;' clip-path='url(#cpNDU3LjgwfDE1NzguMDJ8MjEyNi4wMnw0Ny4xNw==)' />
<rect x='1031.15' y='1652.83' width='324.17' height='12.89' style='stroke-width: 1.07; stroke: #FFFFFF; stroke-linecap: square; stroke-linejoin: miter; fill: #FFE119;' clip-path='url(#cpNDU3LjgwfDE1NzguMDJ8MjEyNi4wMnw0Ny4xNw==)' />
<rect x='1031.15' y='1638.52' width='323.57' height='12.89' style='stroke-width: 1.07; stroke: #FFFFFF; stroke-linecap: square; stroke-linejoin: miter; fill: #FFE119;' clip-path='url(#cpNDU3LjgwfDE1NzguMDJ8MjEyNi4wMnw0Ny4xNw==)' />
<rect x='1031.15' y='1624.20' width='322.68' height='12.89' style='stroke-width: 1.07; stroke: #FFFFFF; stroke-linecap: square; stroke-linejoin: miter; fill: #FFE119;' clip-path='url(#cpNDU3LjgwfDE1NzguMDJ8MjEyNi4wMnw0Ny4xNw==)' />
<rect x='1031.15' y='1609.88' width='319.94' height='12.89' style='stroke-width: 1.07; stroke: #FFFFFF; stroke-linecap: square; stroke-linejoin: miter; fill: #FFE119;' clip-path='url(#cpNDU3LjgwfDE1NzguMDJ8MjEyNi4wMnw0Ny4xNw==)' />
<rect x='1031.15' y='1595.57' width='319.31' height='12.89' style='stroke-width: 1.07; stroke: #FFFFFF; stroke-linecap: square; stroke-linejoin: miter; fill: #FFE119;' clip-path='url(#cpNDU3LjgwfDE1NzguMDJ8MjEyNi4wMnw0Ny4xNw==)' />
<rect x='1031.15' y='1581.25' width='316.47' height='12.89' style='stroke-width: 1.07; stroke: #FFFFFF; stroke-linecap: square; stroke-linejoin: miter; fill: #FFE119;' clip-path='url(#cpNDU3LjgwfDE1NzguMDJ8MjEyNi4wMnw0Ny4xNw==)' />
<rect x='1031.15' y='1566.93' width='315.98' height='12.89' style='stroke-width: 1.07; stroke: #FFFFFF; stroke-linecap: square; stroke-linejoin: miter; fill: #FFE119;' clip-path='url(#cpNDU3LjgwfDE1NzguMDJ8MjEyNi4wMnw0Ny4xNw==)' />
<rect x='1031.15' y='1552.61' width='315.37' height='12.89' style='stroke-width: 1.07; stroke: #FFFFFF; stroke-linecap: square; stroke-linejoin: miter; fill: #FFE119;' clip-path='url(#cpNDU3LjgwfDE1NzguMDJ8MjEyNi4wMnw0Ny4xNw==)' />
<rect x='1031.15' y='1538.30' width='314.65' height='12.89' style='stroke-width: 1.07; stroke: #FFFFFF; stroke-linecap: square; stroke-linejoin: miter; fill: #FFE119;' clip-path='url(#cpNDU3LjgwfDE1NzguMDJ8MjEyNi4wMnw0Ny4xNw==)' />
<rect x='1031.15' y='1523.98' width='313.80' height='12.89' style='stroke-width: 1.07; stroke: #FFFFFF; stroke-linecap: square; stroke-linejoin: miter; fill: #FFE119;' clip-path='url(#cpNDU3LjgwfDE1NzguMDJ8MjEyNi4wMnw0Ny4xNw==)' />
<rect x='1031.15' y='1509.66' width='313.80' height='12.89' style='stroke-width: 1.07; stroke: #FFFFFF; stroke-linecap: square; stroke-linejoin: miter; fill: #FFE119;' clip-path='url(#cpNDU3LjgwfDE1NzguMDJ8MjEyNi4wMnw0Ny4xNw==)' />
<rect x='1031.15' y='1495.35' width='313.80' height='12.89' style='stroke-width: 1.07; stroke: #FFFFFF; stroke-linecap: square; stroke-linejoin: miter; fill: #FFE119;' clip-path='url(#cpNDU3LjgwfDE1NzguMDJ8MjEyNi4wMnw0Ny4xNw==)' />
<rect x='1031.15' y='1481.03' width='313.80' height='12.89' style='stroke-width: 1.07; stroke: #FFFFFF; stroke-linecap: square; stroke-linejoin: miter; fill: #FFE119;' clip-path='url(#cpNDU3LjgwfDE1NzguMDJ8MjEyNi4wMnw0Ny4xNw==)' />
<rect x='1031.15' y='1466.71' width='313.80' height='12.89' style='stroke-width: 1.07; stroke: #FFFFFF; stroke-linecap: square; stroke-linejoin: miter; fill: #FFE119;' clip-path='url(#cpNDU3LjgwfDE1NzguMDJ8MjEyNi4wMnw0Ny4xNw==)' />
<rect x='1031.15' y='1452.39' width='309.64' height='12.89' style='stroke-width: 1.07; stroke: #FFFFFF; stroke-linecap: square; stroke-linejoin: miter; fill: #FFE119;' clip-path='url(#cpNDU3LjgwfDE1NzguMDJ8MjEyNi4wMnw0Ny4xNw==)' />
<rect x='1031.15' y='1438.08' width='306.71' height='12.89' style='stroke-width: 1.07; stroke: #FFFFFF; stroke-linecap: square; stroke-linejoin: miter; fill: #FFE119;' clip-path='url(#cpNDU3LjgwfDE1NzguMDJ8MjEyNi4wMnw0Ny4xNw==)' />
<rect x='1031.15' y='1423.76' width='303.98' height='12.89' style='stroke-width: 1.07; stroke: #FFFFFF; stroke-linecap: square; stroke-linejoin: miter; fill: #FFE119;' clip-path='url(#cpNDU3LjgwfDE1NzguMDJ8MjEyNi4wMnw0Ny4xNw==)' />
<rect x='1031.15' y='1409.44' width='303.88' height='12.89' style='stroke-width: 1.07; stroke: #FFFFFF; stroke-linecap: square; stroke-linejoin: miter; fill: #FFE119;' clip-path='url(#cpNDU3LjgwfDE1NzguMDJ8MjEyNi4wMnw0Ny4xNw==)' />
<rect x='1031.15' y='1395.13' width='302.56' height='12.89' style='stroke-width: 1.07; stroke: #FFFFFF; stroke-linecap: square; stroke-linejoin: miter; fill: #FFE119;' clip-path='url(#cpNDU3LjgwfDE1NzguMDJ8MjEyNi4wMnw0Ny4xNw==)' />
<rect x='1031.15' y='1380.81' width='301.61' height='12.89' style='stroke-width: 1.07; stroke: #FFFFFF; stroke-linecap: square; stroke-linejoin: miter; fill: #FFE119;' clip-path='url(#cpNDU3LjgwfDE1NzguMDJ8MjEyNi4wMnw0Ny4xNw==)' />
<rect x='1031.15' y='1366.49' width='301.55' height='12.89' style='stroke-width: 1.07; stroke: #FFFFFF; stroke-linecap: square; stroke-linejoin: miter; fill: #FFE119;' clip-path='url(#cpNDU3LjgwfDE1NzguMDJ8MjEyNi4wMnw0Ny4xNw==)' />
<rect x='1031.15' y='1352.17' width='300.66' height='12.89' style='stroke-width: 1.07; stroke: #FFFFFF; stroke-linecap: square; stroke-linejoin: miter; fill: #FFE119;' clip-path='url(#cpNDU3LjgwfDE1NzguMDJ8MjEyNi4wMnw0Ny4xNw==)' />
<rect x='1031.15' y='1337.86' width='300.66' height='12.89' style='stroke-width: 1.07; stroke: #FFFFFF; stroke-linecap: square; stroke-linejoin: miter; fill: #FFE119;' clip-path='url(#cpNDU3LjgwfDE1NzguMDJ8MjEyNi4wMnw0Ny4xNw==)' />
<rect x='1031.15' y='1323.54' width='299.12' height='12.89' style='stroke-width: 1.07; stroke: #FFFFFF; stroke-linecap: square; stroke-linejoin: miter; fill: #FFE119;' clip-path='url(#cpNDU3LjgwfDE1NzguMDJ8MjEyNi4wMnw0Ny4xNw==)' />
<rect x='1031.15' y='1309.22' width='298.12' height='12.89' style='stroke-width: 1.07; stroke: #FFFFFF; stroke-linecap: square; stroke-linejoin: miter; fill: #FFE119;' clip-path='url(#cpNDU3LjgwfDE1NzguMDJ8MjEyNi4wMnw0Ny4xNw==)' />
<rect x='1031.15' y='1294.91' width='298.12' height='12.89' style='stroke-width: 1.07; stroke: #FFFFFF; stroke-linecap: square; stroke-linejoin: miter; fill: #FFE119;' clip-path='url(#cpNDU3LjgwfDE1NzguMDJ8MjEyNi4wMnw0Ny4xNw==)' />
<rect x='1031.15' y='1280.59' width='298.12' height='12.89' style='stroke-width: 1.07; stroke: #FFFFFF; stroke-linecap: square; stroke-linejoin: miter; fill: #FFE119;' clip-path='url(#cpNDU3LjgwfDE1NzguMDJ8MjEyNi4wMnw0Ny4xNw==)' />
<rect x='1031.15' y='1266.27' width='296.57' height='12.89' style='stroke-width: 1.07; stroke: #FFFFFF; stroke-linecap: square; stroke-linejoin: miter; fill: #FFE119;' clip-path='url(#cpNDU3LjgwfDE1NzguMDJ8MjEyNi4wMnw0Ny4xNw==)' />
<rect x='1031.15' y='1251.95' width='294.70' height='12.89' style='stroke-width: 1.07; stroke: #FFFFFF; stroke-linecap: square; stroke-linejoin: miter; fill: #FFE119;' clip-path='url(#cpNDU3LjgwfDE1NzguMDJ8MjEyNi4wMnw0Ny4xNw==)' />
<rect x='1031.15' y='1237.64' width='292.33' height='12.89' style='stroke-width: 1.07; stroke: #FFFFFF; stroke-linecap: square; stroke-linejoin: miter; fill: #FFE119;' clip-path='url(#cpNDU3LjgwfDE1NzguMDJ8MjEyNi4wMnw0Ny4xNw==)' />
<rect x='1031.15' y='1223.32' width='292.25' height='12.89' style='stroke-width: 1.07; stroke: #FFFFFF; stroke-linecap: square; stroke-linejoin: miter; fill: #FFE119;' clip-path='url(#cpNDU3LjgwfDE1NzguMDJ8MjEyNi4wMnw0Ny4xNw==)' />
<rect x='1031.15' y='1209.00' width='292.25' height='12.89' style='stroke-width: 1.07; stroke: #FFFFFF; stroke-linecap: square; stroke-linejoin: miter; fill: #FFE119;' clip-path='url(#cpNDU3LjgwfDE1NzguMDJ8MjEyNi4wMnw0Ny4xNw==)' />
<rect x='1031.15' y='1194.69' width='289.22' height='12.89' style='stroke-width: 1.07; stroke: #FFFFFF; stroke-linecap: square; stroke-linejoin: miter; fill: #FFE119;' clip-path='url(#cpNDU3LjgwfDE1NzguMDJ8MjEyNi4wMnw0Ny4xNw==)' />
<rect x='1031.15' y='1180.37' width='288.35' height='12.89' style='stroke-width: 1.07; stroke: #FFFFFF; stroke-linecap: square; stroke-linejoin: miter; fill: #FFE119;' clip-path='url(#cpNDU3LjgwfDE1NzguMDJ8MjEyNi4wMnw0Ny4xNw==)' />
<rect x='1031.15' y='1166.05' width='286.45' height='12.89' style='stroke-width: 1.07; stroke: #FFFFFF; stroke-linecap: square; stroke-linejoin: miter; fill: #FFE119;' clip-path='url(#cpNDU3LjgwfDE1NzguMDJ8MjEyNi4wMnw0Ny4xNw==)' />
<rect x='1031.15' y='1151.73' width='285.55' height='12.89' style='stroke-width: 1.07; stroke: #FFFFFF; stroke-linecap: square; stroke-linejoin: miter; fill: #FFE119;' clip-path='url(#cpNDU3LjgwfDE1NzguMDJ8MjEyNi4wMnw0Ny4xNw==)' />
<rect x='1031.15' y='1137.42' width='284.68' height='12.89' style='stroke-width: 1.07; stroke: #FFFFFF; stroke-linecap: square; stroke-linejoin: miter; fill: #FFE119;' clip-path='url(#cpNDU3LjgwfDE1NzguMDJ8MjEyNi4wMnw0Ny4xNw==)' />
<rect x='1031.15' y='1123.10' width='281.58' height='12.89' style='stroke-width: 1.07; stroke: #FFFFFF; stroke-linecap: square; stroke-linejoin: miter; fill: #FFE119;' clip-path='url(#cpNDU3LjgwfDE1NzguMDJ8MjEyNi4wMnw0Ny4xNw==)' />
<rect x='1031.15' y='1108.78' width='276.60' height='12.89' style='stroke-width: 1.07; stroke: #FFFFFF; stroke-linecap: square; stroke-linejoin: miter; fill: #FFE119;' clip-path='url(#cpNDU3LjgwfDE1NzguMDJ8MjEyNi4wMnw0Ny4xNw==)' />
<rect x='1031.15' y='1094.47' width='276.60' height='12.89' style='stroke-width: 1.07; stroke: #FFFFFF; stroke-linecap: square; stroke-linejoin: miter; fill: #FFE119;' clip-path='url(#cpNDU3LjgwfDE1NzguMDJ8MjEyNi4wMnw0Ny4xNw==)' />
<rect x='1031.15' y='1080.15' width='273.13' height='12.89' style='stroke-width: 1.07; stroke: #FFFFFF; stroke-linecap: square; stroke-linejoin: miter; fill: #FFE119;' clip-path='url(#cpNDU3LjgwfDE1NzguMDJ8MjEyNi4wMnw0Ny4xNw==)' />
<rect x='1031.15' y='1065.83' width='272.75' height='12.89' style='stroke-width: 1.07; stroke: #FFFFFF; stroke-linecap: square; stroke-linejoin: miter; fill: #FFE119;' clip-path='url(#cpNDU3LjgwfDE1NzguMDJ8MjEyNi4wMnw0Ny4xNw==)' />
<rect x='1031.15' y='1051.52' width='268.31' height='12.89' style='stroke-width: 1.07; stroke: #FFFFFF; stroke-linecap: square; stroke-linejoin: miter; fill: #FFE119;' clip-path='url(#cpNDU3LjgwfDE1NzguMDJ8MjEyNi4wMnw0Ny4xNw==)' />
<rect x='1031.15' y='1037.20' width='261.80' height='12.89' style='stroke-width: 1.07; stroke: #FFFFFF; stroke-linecap: square; stroke-linejoin: miter; fill: #FFE119;' clip-path='url(#cpNDU3LjgwfDE1NzguMDJ8MjEyNi4wMnw0Ny4xNw==)' />
<rect x='1031.15' y='1022.88' width='261.80' height='12.89' style='stroke-width: 1.07; stroke: #FFFFFF; stroke-linecap: square; stroke-linejoin: miter; fill: #FFE119;' clip-path='url(#cpNDU3LjgwfDE1NzguMDJ8MjEyNi4wMnw0Ny4xNw==)' />
<rect x='1031.15' y='1008.56' width='261.02' height='12.89' style='stroke-width: 1.07; stroke: #FFFFFF; stroke-linecap: square; stroke-linejoin: miter; fill: #FFE119;' clip-path='url(#cpNDU3LjgwfDE1NzguMDJ8MjEyNi4wMnw0Ny4xNw==)' />
<rect x='1031.15' y='994.25' width='260.86' height='12.89' style='stroke-width: 1.07; stroke: #FFFFFF; stroke-linecap: square; stroke-linejoin: miter; fill: #FFE119;' clip-path='url(#cpNDU3LjgwfDE1NzguMDJ8MjEyNi4wMnw0Ny4xNw==)' />
<rect x='1031.15' y='979.93' width='258.36' height='12.89' style='stroke-width: 1.07; stroke: #FFFFFF; stroke-linecap: square; stroke-linejoin: miter; fill: #FFE119;' clip-path='url(#cpNDU3LjgwfDE1NzguMDJ8MjEyNi4wMnw0Ny4xNw==)' />
<rect x='1031.15' y='965.61' width='258.36' height='12.89' style='stroke-width: 1.07; stroke: #FFFFFF; stroke-linecap: square; stroke-linejoin: miter; fill: #FFE119;' clip-path='url(#cpNDU3LjgwfDE1NzguMDJ8MjEyNi4wMnw0Ny4xNw==)' />
<rect x='1031.15' y='951.30' width='257.51' height='12.89' style='stroke-width: 1.07; stroke: #FFFFFF; stroke-linecap: square; stroke-linejoin: miter; fill: #FFE119;' clip-path='url(#cpNDU3LjgwfDE1NzguMDJ8MjEyNi4wMnw0Ny4xNw==)' />
<rect x='1031.15' y='936.98' width='256.70' height='12.89' style='stroke-width: 1.07; stroke: #FFFFFF; stroke-linecap: square; stroke-linejoin: miter; fill: #FFE119;' clip-path='url(#cpNDU3LjgwfDE1NzguMDJ8MjEyNi4wMnw0Ny4xNw==)' />
<rect x='1031.15' y='922.66' width='256.68' height='12.89' style='stroke-width: 1.07; stroke: #FFFFFF; stroke-linecap: square; stroke-linejoin: miter; fill: #FFE119;' clip-path='url(#cpNDU3LjgwfDE1NzguMDJ8MjEyNi4wMnw0Ny4xNw==)' />
<rect x='1031.15' y='908.34' width='247.99' height='12.89' style='stroke-width: 1.07; stroke: #FFFFFF; stroke-linecap: square; stroke-linejoin: miter; fill: #FFE119;' clip-path='url(#cpNDU3LjgwfDE1NzguMDJ8MjEyNi4wMnw0Ny4xNw==)' />
<rect x='1031.15' y='894.03' width='247.99' height='12.89' style='stroke-width: 1.07; stroke: #FFFFFF; stroke-linecap: square; stroke-linejoin: miter; fill: #FFE119;' clip-path='url(#cpNDU3LjgwfDE1NzguMDJ8MjEyNi4wMnw0Ny4xNw==)' />
<rect x='1031.15' y='879.71' width='231.14' height='12.89' style='stroke-width: 1.07; stroke: #FFFFFF; stroke-linecap: square; stroke-linejoin: miter; fill: #FFE119;' clip-path='url(#cpNDU3LjgwfDE1NzguMDJ8MjEyNi4wMnw0Ny4xNw==)' />
<rect x='1031.15' y='865.39' width='227.55' height='12.89' style='stroke-width: 1.07; stroke: #FFFFFF; stroke-linecap: square; stroke-linejoin: miter; fill: #FFE119;' clip-path='url(#cpNDU3LjgwfDE1NzguMDJ8MjEyNi4wMnw0Ny4xNw==)' />
<rect x='1031.15' y='851.08' width='227.55' height='12.89' style='stroke-width: 1.07; stroke: #FFFFFF; stroke-linecap: square; stroke-linejoin: miter; fill: #FFE119;' clip-path='url(#cpNDU3LjgwfDE1NzguMDJ8MjEyNi4wMnw0Ny4xNw==)' />
<rect x='1031.15' y='836.76' width='226.74' height='12.89' style='stroke-width: 1.07; stroke: #FFFFFF; stroke-linecap: square; stroke-linejoin: miter; fill: #FFE119;' clip-path='url(#cpNDU3LjgwfDE1NzguMDJ8MjEyNi4wMnw0Ny4xNw==)' />
<rect x='1031.15' y='822.44' width='210.23' height='12.89' style='stroke-width: 1.07; stroke: #FFFFFF; stroke-linecap: square; stroke-linejoin: miter; fill: #FFE119;' clip-path='url(#cpNDU3LjgwfDE1NzguMDJ8MjEyNi4wMnw0Ny4xNw==)' />
<rect x='1031.15' y='808.12' width='210.23' height='12.89' style='stroke-width: 1.07; stroke: #FFFFFF; stroke-linecap: square; stroke-linejoin: miter; fill: #FFE119;' clip-path='url(#cpNDU3LjgwfDE1NzguMDJ8MjEyNi4wMnw0Ny4xNw==)' />
<rect x='805.07' y='793.81' width='226.08' height='12.89' style='stroke-width: 1.07; stroke: #FFFFFF; stroke-linecap: square; stroke-linejoin: miter; fill: #3CB44B;' clip-path='url(#cpNDU3LjgwfDE1NzguMDJ8MjEyNi4wMnw0Ny4xNw==)' />
<rect x='805.07' y='779.49' width='226.08' height='12.89' style='stroke-width: 1.07; stroke: #FFFFFF; stroke-linecap: square; stroke-linejoin: miter; fill: #3CB44B;' clip-path='url(#cpNDU3LjgwfDE1NzguMDJ8MjEyNi4wMnw0Ny4xNw==)' />
<rect x='792.81' y='765.17' width='238.34' height='12.89' style='stroke-width: 1.07; stroke: #FFFFFF; stroke-linecap: square; stroke-linejoin: miter; fill: #3CB44B;' clip-path='url(#cpNDU3LjgwfDE1NzguMDJ8MjEyNi4wMnw0Ny4xNw==)' />
<rect x='791.36' y='750.86' width='239.78' height='12.89' style='stroke-width: 1.07; stroke: #FFFFFF; stroke-linecap: square; stroke-linejoin: miter; fill: #3CB44B;' clip-path='url(#cpNDU3LjgwfDE1NzguMDJ8MjEyNi4wMnw0Ny4xNw==)' />
<rect x='787.93' y='736.54' width='243.22' height='12.89' style='stroke-width: 1.07; stroke: #FFFFFF; stroke-linecap: square; stroke-linejoin: miter; fill: #3CB44B;' clip-path='url(#cpNDU3LjgwfDE1NzguMDJ8MjEyNi4wMnw0Ny4xNw==)' />
<rect x='787.93' y='722.22' width='243.22' height='12.89' style='stroke-width: 1.07; stroke: #FFFFFF; stroke-linecap: square; stroke-linejoin: miter; fill: #3CB44B;' clip-path='url(#cpNDU3LjgwfDE1NzguMDJ8MjEyNi4wMnw0Ny4xNw==)' />
<rect x='787.93' y='707.90' width='243.22' height='12.89' style='stroke-width: 1.07; stroke: #FFFFFF; stroke-linecap: square; stroke-linejoin: miter; fill: #3CB44B;' clip-path='url(#cpNDU3LjgwfDE1NzguMDJ8MjEyNi4wMnw0Ny4xNw==)' />
<rect x='787.93' y='693.59' width='243.22' height='12.89' style='stroke-width: 1.07; stroke: #FFFFFF; stroke-linecap: square; stroke-linejoin: miter; fill: #3CB44B;' clip-path='url(#cpNDU3LjgwfDE1NzguMDJ8MjEyNi4wMnw0Ny4xNw==)' />
<rect x='786.68' y='679.27' width='244.47' height='12.89' style='stroke-width: 1.07; stroke: #FFFFFF; stroke-linecap: square; stroke-linejoin: miter; fill: #3CB44B;' clip-path='url(#cpNDU3LjgwfDE1NzguMDJ8MjEyNi4wMnw0Ny4xNw==)' />
<rect x='770.22' y='664.95' width='260.93' height='12.89' style='stroke-width: 1.07; stroke: #FFFFFF; stroke-linecap: square; stroke-linejoin: miter; fill: #3CB44B;' clip-path='url(#cpNDU3LjgwfDE1NzguMDJ8MjEyNi4wMnw0Ny4xNw==)' />
<rect x='770.22' y='650.64' width='260.93' height='12.89' style='stroke-width: 1.07; stroke: #FFFFFF; stroke-linecap: square; stroke-linejoin: miter; fill: #3CB44B;' clip-path='url(#cpNDU3LjgwfDE1NzguMDJ8MjEyNi4wMnw0Ny4xNw==)' />
<rect x='757.34' y='636.32' width='273.81' height='12.89' style='stroke-width: 1.07; stroke: #FFFFFF; stroke-linecap: square; stroke-linejoin: miter; fill: #3CB44B;' clip-path='url(#cpNDU3LjgwfDE1NzguMDJ8MjEyNi4wMnw0Ny4xNw==)' />
<rect x='757.34' y='622.00' width='273.81' height='12.89' style='stroke-width: 1.07; stroke: #FFFFFF; stroke-linecap: square; stroke-linejoin: miter; fill: #3CB44B;' clip-path='url(#cpNDU3LjgwfDE1NzguMDJ8MjEyNi4wMnw0Ny4xNw==)' />
<rect x='741.06' y='607.68' width='290.09' height='12.89' style='stroke-width: 1.07; stroke: #FFFFFF; stroke-linecap: square; stroke-linejoin: miter; fill: #3CB44B;' clip-path='url(#cpNDU3LjgwfDE1NzguMDJ8MjEyNi4wMnw0Ny4xNw==)' />
<rect x='738.80' y='593.37' width='292.35' height='12.89' style='stroke-width: 1.07; stroke: #FFFFFF; stroke-linecap: square; stroke-linejoin: miter; fill: #3CB44B;' clip-path='url(#cpNDU3LjgwfDE1NzguMDJ8MjEyNi4wMnw0Ny4xNw==)' />
<rect x='719.07' y='579.05' width='312.08' height='12.89' style='stroke-width: 1.07; stroke: #FFFFFF; stroke-linecap: square; stroke-linejoin: miter; fill: #3CB44B;' clip-path='url(#cpNDU3LjgwfDE1NzguMDJ8MjEyNi4wMnw0Ny4xNw==)' />
<rect x='716.68' y='564.73' width='314.47' height='12.89' style='stroke-width: 1.07; stroke: #FFFFFF; stroke-linecap: square; stroke-linejoin: miter; fill: #3CB44B;' clip-path='url(#cpNDU3LjgwfDE1NzguMDJ8MjEyNi4wMnw0Ny4xNw==)' />
<rect x='709.79' y='550.42' width='321.36' height='12.89' style='stroke-width: 1.07; stroke: #FFFFFF; stroke-linecap: square; stroke-linejoin: miter; fill: #3CB44B;' clip-path='url(#cpNDU3LjgwfDE1NzguMDJ8MjEyNi4wMnw0Ny4xNw==)' />
<rect x='698.19' y='536.10' width='332.96' height='12.89' style='stroke-width: 1.07; stroke: #FFFFFF; stroke-linecap: square; stroke-linejoin: miter; fill: #3CB44B;' clip-path='url(#cpNDU3LjgwfDE1NzguMDJ8MjEyNi4wMnw0Ny4xNw==)' />
<rect x='696.35' y='521.78' width='334.80' height='12.89' style='stroke-width: 1.07; stroke: #FFFFFF; stroke-linecap: square; stroke-linejoin: miter; fill: #3CB44B;' clip-path='url(#cpNDU3LjgwfDE1NzguMDJ8MjEyNi4wMnw0Ny4xNw==)' />
<rect x='695.62' y='507.46' width='335.53' height='12.89' style='stroke-width: 1.07; stroke: #FFFFFF; stroke-linecap: square; stroke-linejoin: miter; fill: #3CB44B;' clip-path='url(#cpNDU3LjgwfDE1NzguMDJ8MjEyNi4wMnw0Ny4xNw==)' />
<rect x='687.25' y='493.15' width='343.90' height='12.89' style='stroke-width: 1.07; stroke: #FFFFFF; stroke-linecap: square; stroke-linejoin: miter; fill: #3CB44B;' clip-path='url(#cpNDU3LjgwfDE1NzguMDJ8MjEyNi4wMnw0Ny4xNw==)' />
<rect x='685.68' y='478.83' width='345.47' height='12.89' style='stroke-width: 1.07; stroke: #FFFFFF; stroke-linecap: square; stroke-linejoin: miter; fill: #3CB44B;' clip-path='url(#cpNDU3LjgwfDE1NzguMDJ8MjEyNi4wMnw0Ny4xNw==)' />
<rect x='683.07' y='464.51' width='348.08' height='12.89' style='stroke-width: 1.07; stroke: #FFFFFF; stroke-linecap: square; stroke-linejoin: miter; fill: #3CB44B;' clip-path='url(#cpNDU3LjgwfDE1NzguMDJ8MjEyNi4wMnw0Ny4xNw==)' />
<rect x='683.07' y='450.20' width='348.08' height='12.89' style='stroke-width: 1.07; stroke: #FFFFFF; stroke-linecap: square; stroke-linejoin: miter; fill: #3CB44B;' clip-path='url(#cpNDU3LjgwfDE1NzguMDJ8MjEyNi4wMnw0Ny4xNw==)' />
<rect x='683.07' y='435.88' width='348.08' height='12.89' style='stroke-width: 1.07; stroke: #FFFFFF; stroke-linecap: square; stroke-linejoin: miter; fill: #3CB44B;' clip-path='url(#cpNDU3LjgwfDE1NzguMDJ8MjEyNi4wMnw0Ny4xNw==)' />
<rect x='682.63' y='421.56' width='348.52' height='12.89' style='stroke-width: 1.07; stroke: #FFFFFF; stroke-linecap: square; stroke-linejoin: miter; fill: #3CB44B;' clip-path='url(#cpNDU3LjgwfDE1NzguMDJ8MjEyNi4wMnw0Ny4xNw==)' />
<rect x='679.36' y='407.24' width='351.78' height='12.89' style='stroke-width: 1.07; stroke: #FFFFFF; stroke-linecap: square; stroke-linejoin: miter; fill: #3CB44B;' clip-path='url(#cpNDU3LjgwfDE1NzguMDJ8MjEyNi4wMnw0Ny4xNw==)' />
<rect x='667.96' y='392.93' width='363.19' height='12.89' style='stroke-width: 1.07; stroke: #FFFFFF; stroke-linecap: square; stroke-linejoin: miter; fill: #3CB44B;' clip-path='url(#cpNDU3LjgwfDE1NzguMDJ8MjEyNi4wMnw0Ny4xNw==)' />
<rect x='664.82' y='378.61' width='366.33' height='12.89' style='stroke-width: 1.07; stroke: #FFFFFF; stroke-linecap: square; stroke-linejoin: miter; fill: #3CB44B;' clip-path='url(#cpNDU3LjgwfDE1NzguMDJ8MjEyNi4wMnw0Ny4xNw==)' />
<rect x='664.82' y='364.29' width='366.33' height='12.89' style='stroke-width: 1.07; stroke: #FFFFFF; stroke-linecap: square; stroke-linejoin: miter; fill: #3CB44B;' clip-path='url(#cpNDU3LjgwfDE1NzguMDJ8MjEyNi4wMnw0Ny4xNw==)' />
<rect x='662.23' y='349.98' width='368.91' height='12.89' style='stroke-width: 1.07; stroke: #FFFFFF; stroke-linecap: square; stroke-linejoin: miter; fill: #3CB44B;' clip-path='url(#cpNDU3LjgwfDE1NzguMDJ8MjEyNi4wMnw0Ny4xNw==)' />
<rect x='654.35' y='335.66' width='376.80' height='12.89' style='stroke-width: 1.07; stroke: #FFFFFF; stroke-linecap: square; stroke-linejoin: miter; fill: #3CB44B;' clip-path='url(#cpNDU3LjgwfDE1NzguMDJ8MjEyNi4wMnw0Ny4xNw==)' />
<rect x='654.35' y='321.34' width='376.80' height='12.89' style='stroke-width: 1.07; stroke: #FFFFFF; stroke-linecap: square; stroke-linejoin: miter; fill: #3CB44B;' clip-path='url(#cpNDU3LjgwfDE1NzguMDJ8MjEyNi4wMnw0Ny4xNw==)' />
<rect x='654.35' y='307.02' width='376.80' height='12.89' style='stroke-width: 1.07; stroke: #FFFFFF; stroke-linecap: square; stroke-linejoin: miter; fill: #3CB44B;' clip-path='url(#cpNDU3LjgwfDE1NzguMDJ8MjEyNi4wMnw0Ny4xNw==)' />
<rect x='654.35' y='292.71' width='376.80' height='12.89' style='stroke-width: 1.07; stroke: #FFFFFF; stroke-linecap: square; stroke-linejoin: miter; fill: #3CB44B;' clip-path='url(#cpNDU3LjgwfDE1NzguMDJ8MjEyNi4wMnw0Ny4xNw==)' />
<rect x='654.23' y='278.39' width='376.91' height='12.89' style='stroke-width: 1.07; stroke: #FFFFFF; stroke-linecap: square; stroke-linejoin: miter; fill: #3CB44B;' clip-path='url(#cpNDU3LjgwfDE1NzguMDJ8MjEyNi4wMnw0Ny4xNw==)' />
<rect x='650.15' y='264.07' width='381.00' height='12.89' style='stroke-width: 1.07; stroke: #FFFFFF; stroke-linecap: square; stroke-linejoin: miter; fill: #3CB44B;' clip-path='url(#cpNDU3LjgwfDE1NzguMDJ8MjEyNi4wMnw0Ny4xNw==)' />
<rect x='647.09' y='249.76' width='384.06' height='12.89' style='stroke-width: 1.07; stroke: #FFFFFF; stroke-linecap: square; stroke-linejoin: miter; fill: #3CB44B;' clip-path='url(#cpNDU3LjgwfDE1NzguMDJ8MjEyNi4wMnw0Ny4xNw==)' />
<rect x='638.39' y='235.44' width='392.76' height='12.89' style='stroke-width: 1.07; stroke: #FFFFFF; stroke-linecap: square; stroke-linejoin: miter; fill: #3CB44B;' clip-path='url(#cpNDU3LjgwfDE1NzguMDJ8MjEyNi4wMnw0Ny4xNw==)' />
<rect x='636.29' y='221.12' width='394.85' height='12.89' style='stroke-width: 1.07; stroke: #FFFFFF; stroke-linecap: square; stroke-linejoin: miter; fill: #3CB44B;' clip-path='url(#cpNDU3LjgwfDE1NzguMDJ8MjEyNi4wMnw0Ny4xNw==)' />
<rect x='636.29' y='206.80' width='394.85' height='12.89' style='stroke-width: 1.07; stroke: #FFFFFF; stroke-linecap: square; stroke-linejoin: miter; fill: #3CB44B;' clip-path='url(#cpNDU3LjgwfDE1NzguMDJ8MjEyNi4wMnw0Ny4xNw==)' />
<rect x='636.29' y='192.49' width='394.85' height='12.89' style='stroke-width: 1.07; stroke: #FFFFFF; stroke-linecap: square; stroke-linejoin: miter; fill: #3CB44B;' clip-path='url(#cpNDU3LjgwfDE1NzguMDJ8MjEyNi4wMnw0Ny4xNw==)' />
<rect x='629.49' y='178.17' width='401.66' height='12.89' style='stroke-width: 1.07; stroke: #FFFFFF; stroke-linecap: square; stroke-linejoin: miter; fill: #3CB44B;' clip-path='url(#cpNDU3LjgwfDE1NzguMDJ8MjEyNi4wMnw0Ny4xNw==)' />
<rect x='622.88' y='163.85' width='408.27' height='12.89' style='stroke-width: 1.07; stroke: #FFFFFF; stroke-linecap: square; stroke-linejoin: miter; fill: #3CB44B;' clip-path='url(#cpNDU3LjgwfDE1NzguMDJ8MjEyNi4wMnw0Ny4xNw==)' />
<rect x='622.18' y='149.54' width='408.97' height='12.89' style='stroke-width: 1.07; stroke: #FFFFFF; stroke-linecap: square; stroke-linejoin: miter; fill: #3CB44B;' clip-path='url(#cpNDU3LjgwfDE1NzguMDJ8MjEyNi4wMnw0Ny4xNw==)' />
<rect x='575.82' y='135.22' width='455.33' height='12.89' style='stroke-width: 1.07; stroke: #FFFFFF; stroke-linecap: square; stroke-linejoin: miter; fill: #3CB44B;' clip-path='url(#cpNDU3LjgwfDE1NzguMDJ8MjEyNi4wMnw0Ny4xNw==)' />
<rect x='526.73' y='120.90' width='504.42' height='12.89' style='stroke-width: 1.07; stroke: #FFFFFF; stroke-linecap: square; stroke-linejoin: miter; fill: #3CB44B;' clip-path='url(#cpNDU3LjgwfDE1NzguMDJ8MjEyNi4wMnw0Ny4xNw==)' />
<rect x='513.62' y='106.58' width='517.53' height='12.89' style='stroke-width: 1.07; stroke: #FFFFFF; stroke-linecap: square; stroke-linejoin: miter; fill: #3CB44B;' clip-path='url(#cpNDU3LjgwfDE1NzguMDJ8MjEyNi4wMnw0Ny4xNw==)' />
<rect x='512.01' y='92.27' width='519.14' height='12.89' style='stroke-width: 1.07; stroke: #FFFFFF; stroke-linecap: square; stroke-linejoin: miter; fill: #3CB44B;' clip-path='url(#cpNDU3LjgwfDE1NzguMDJ8MjEyNi4wMnw0Ny4xNw==)' />
<rect x='508.72' y='77.95' width='522.43' height='12.89' style='stroke-width: 1.07; stroke: #FFFFFF; stroke-linecap: square; stroke-linejoin: miter; fill: #3CB44B;' clip-path='url(#cpNDU3LjgwfDE1NzguMDJ8MjEyNi4wMnw0Ny4xNw==)' />
<rect x='508.72' y='63.63' width='522.43' height='12.89' style='stroke-width: 1.07; stroke: #FFFFFF; stroke-linecap: square; stroke-linejoin: miter; fill: #3CB44B;' clip-path='url(#cpNDU3LjgwfDE1NzguMDJ8MjEyNi4wMnw0Ny4xNw==)' />
<rect x='508.72' y='49.32' width='522.43' height='12.89' style='stroke-width: 1.07; stroke: #FFFFFF; stroke-linecap: square; stroke-linejoin: miter; fill: #3CB44B;' clip-path='url(#cpNDU3LjgwfDE1NzguMDJ8MjEyNi4wMnw0Ny4xNw==)' />
<defs>
  <clipPath id='cpMC4wMHwxNTg0LjAwfDIxNjAuMDB8MC4wMA=='>
    <rect x='0.00' y='0.00' width='1584.00' height='2160.00' />
  </clipPath>
</defs>
<polyline points='457.80,2126.02 457.80,47.17 ' style='stroke-width: 1.07; stroke-linecap: butt;' clip-path='url(#cpMC4wMHwxNTg0LjAwfDIxNjAuMDB8MC4wMA==)' />
<g clip-path='url(#cpMC4wMHwxNTg0LjAwfDIxNjAuMDB8MC4wMA==)'><text x='406.31' y='2120.87' style='font-size: 10.00px; font-family: Arimo;' textLength='46.11px' lengthAdjust='spacingAndGlyphs'>Firmicutes</text></g>
<g clip-path='url(#cpMC4wMHwxNTg0LjAwfDIxNjAuMDB8MC4wMA==)'><text x='329.22' y='2106.55' style='font-size: 10.00px; font-family: Arimo;' textLength='123.20px' lengthAdjust='spacingAndGlyphs'>p__Firmicutes|c__Clostridia</text></g>
<g clip-path='url(#cpMC4wMHwxNTg0LjAwfDIxNjAuMDB8MC4wMA==)'><text x='215.41' y='2092.23' style='font-size: 10.00px; font-family: Arimo;' textLength='237.02px' lengthAdjust='spacingAndGlyphs'>c__Clostridia|o__Lachnospirales|f__Lachnospiraceae</text></g>
<g clip-path='url(#cpMC4wMHwxNTg0LjAwfDIxNjAuMDB8MC4wMA==)'><text x='242.68' y='2077.91' style='font-size: 10.00px; font-family: Arimo;' textLength='209.75px' lengthAdjust='spacingAndGlyphs'>p__Firmicutes|c__Clostridia|o__Lachnospirales</text></g>
<g clip-path='url(#cpMC4wMHwxNTg0LjAwfDIxNjAuMDB8MC4wMA==)'><text x='105.34' y='2063.60' style='font-size: 10.00px; font-family: Arimo;' textLength='347.08px' lengthAdjust='spacingAndGlyphs'>c__Clostridia|o__Clostridia_vadinBB60_group|f__Clostridia_vadinBB60_group</text></g>
<g clip-path='url(#cpMC4wMHwxNTg0LjAwfDIxNjAuMDB8MC4wMA==)'><text x='19.71' y='2049.28' style='font-size: 10.00px; font-family: Arimo;' textLength='432.71px' lengthAdjust='spacingAndGlyphs'>o__Clostridia_vadinBB60_group|f__Clostridia_vadinBB60_group|g__Clostridia_vadinBB60_group</text></g>
<g clip-path='url(#cpMC4wMHwxNTg0LjAwfDIxNjAuMDB8MC4wMA==)'><text x='183.19' y='2034.96' style='font-size: 10.00px; font-family: Arimo;' textLength='269.23px' lengthAdjust='spacingAndGlyphs'>p__Firmicutes|c__Clostridia|o__Clostridia_vadinBB60_group</text></g>
<g clip-path='url(#cpMC4wMHwxNTg0LjAwfDIxNjAuMDB8MC4wMA==)'><text x='208.17' y='2020.65' style='font-size: 10.00px; font-family: Arimo;' textLength='244.25px' lengthAdjust='spacingAndGlyphs'>f__Muribaculaceae|g__Muribaculaceae|s__unidentified</text></g>
<g clip-path='url(#cpMC4wMHwxNTg0LjAwfDIxNjAuMDB8MC4wMA==)'><text x='255.98' y='2006.33' style='font-size: 10.00px; font-family: Arimo;' textLength='196.45px' lengthAdjust='spacingAndGlyphs'>g__Muribaculaceae|s__unidentified|ASV463</text></g>
<g clip-path='url(#cpMC4wMHwxNTg0LjAwfDIxNjAuMDB8MC4wMA==)'><text x='244.32' y='1992.01' style='font-size: 10.00px; font-family: Arimo;' textLength='208.10px' lengthAdjust='spacingAndGlyphs'>g__Alistipes|s__uncultured_bacterium|ASV164</text></g>
<g clip-path='url(#cpMC4wMHwxNTg0LjAwfDIxNjAuMDB8MC4wMA==)'><text x='168.68' y='1977.69' style='font-size: 10.00px; font-family: Arimo;' textLength='283.75px' lengthAdjust='spacingAndGlyphs'>f__Lachnospiraceae|g__Lachnospiraceae_NK4A136_group|s__</text></g>
<g clip-path='url(#cpMC4wMHwxNTg0LjAwfDIxNjAuMDB8MC4wMA==)'><text x='50.86' y='1963.38' style='font-size: 10.00px; font-family: Arimo;' textLength='401.57px' lengthAdjust='spacingAndGlyphs'>f__Clostridia_vadinBB60_group|g__Clostridia_vadinBB60_group|s__uncultured_bacterium</text></g>
<g clip-path='url(#cpMC4wMHwxNTg0LjAwfDIxNjAuMDB8MC4wMA==)'><text x='212.11' y='1949.06' style='font-size: 10.00px; font-family: Arimo;' textLength='240.31px' lengthAdjust='spacingAndGlyphs'>c__Clostridia|o__Oscillospirales|f__Ruminococcaceae</text></g>
<g clip-path='url(#cpMC4wMHwxNTg0LjAwfDIxNjAuMDB8MC4wMA==)'><text x='324.35' y='1934.74' style='font-size: 10.00px; font-family: Arimo;' textLength='128.07px' lengthAdjust='spacingAndGlyphs'>f__Lachnospiraceae|g__|s__</text></g>
<g clip-path='url(#cpMC4wMHwxNTg0LjAwfDIxNjAuMDB8MC4wMA==)'><text x='256.52' y='1920.43' style='font-size: 10.00px; font-family: Arimo;' textLength='195.90px' lengthAdjust='spacingAndGlyphs'>o__Lachnospirales|f__Lachnospiraceae|g__</text></g>
<g clip-path='url(#cpMC4wMHwxNTg0LjAwfDIxNjAuMDB8MC4wMA==)'><text x='184.29' y='1906.11' style='font-size: 10.00px; font-family: Arimo;' textLength='268.13px' lengthAdjust='spacingAndGlyphs'>f__Oscillospiraceae|g__uncultured|s__uncultured_bacterium</text></g>
<g clip-path='url(#cpMC4wMHwxNTg0LjAwfDIxNjAuMDB8MC4wMA==)'><text x='209.82' y='1891.79' style='font-size: 10.00px; font-family: Arimo;' textLength='242.60px' lengthAdjust='spacingAndGlyphs'>o__Lachnospirales|f__Lachnospiraceae|g__uncultured</text></g>
<g clip-path='url(#cpMC4wMHwxNTg0LjAwfDIxNjAuMDB8MC4wMA==)'><text x='175.39' y='1877.47' style='font-size: 10.00px; font-family: Arimo;' textLength='277.04px' lengthAdjust='spacingAndGlyphs'>f__Ruminococcaceae|g__uncultured|s__uncultured_bacterium</text></g>
<g clip-path='url(#cpMC4wMHwxNTg0LjAwfDIxNjAuMDB8MC4wMA==)'><text x='207.67' y='1863.16' style='font-size: 10.00px; font-family: Arimo;' textLength='244.75px' lengthAdjust='spacingAndGlyphs'>o__Oscillospirales|f__Oscillospiraceae|g__Oscillibacter</text></g>
<g clip-path='url(#cpMC4wMHwxNTg0LjAwfDIxNjAuMDB8MC4wMA==)'><text x='181.48' y='1848.84' style='font-size: 10.00px; font-family: Arimo;' textLength='270.94px' lengthAdjust='spacingAndGlyphs'>f__Lachnospiraceae|g__uncultured|s__uncultured_bacterium</text></g>
<g clip-path='url(#cpMC4wMHwxNTg0LjAwfDIxNjAuMDB8MC4wMA==)'><text x='229.30' y='1834.52' style='font-size: 10.00px; font-family: Arimo;' textLength='223.12px' lengthAdjust='spacingAndGlyphs'>f__Oscillospiraceae|g__uncultured|s__unidentified</text></g>
<g clip-path='url(#cpMC4wMHwxNTg0LjAwfDIxNjAuMDB8MC4wMA==)'><text x='210.96' y='1820.21' style='font-size: 10.00px; font-family: Arimo;' textLength='241.46px' lengthAdjust='spacingAndGlyphs'>g__Muribaculaceae|s__uncultured_bacterium|ASV832</text></g>
<g clip-path='url(#cpMC4wMHwxNTg0LjAwfDIxNjAuMDB8MC4wMA==)'><text x='154.81' y='1805.89' style='font-size: 10.00px; font-family: Arimo;' textLength='297.61px' lengthAdjust='spacingAndGlyphs'>g__Clostridia_vadinBB60_group|s__uncultured_bacterium|ASV982</text></g>
<g clip-path='url(#cpMC4wMHwxNTg0LjAwfDIxNjAuMDB8MC4wMA==)'><text x='176.53' y='1791.57' style='font-size: 10.00px; font-family: Arimo;' textLength='275.89px' lengthAdjust='spacingAndGlyphs'>f__Oscillospiraceae|g__Oscillibacter|s__uncultured_bacterium</text></g>
<g clip-path='url(#cpMC4wMHwxNTg0LjAwfDIxNjAuMDB8MC4wMA==)'><text x='279.87' y='1777.25' style='font-size: 10.00px; font-family: Arimo;' textLength='172.55px' lengthAdjust='spacingAndGlyphs'>g__uncultured|s__unidentified|ASV856</text></g>
<g clip-path='url(#cpMC4wMHwxNTg0LjAwfDIxNjAuMDB8MC4wMA==)'><text x='210.96' y='1762.94' style='font-size: 10.00px; font-family: Arimo;' textLength='241.46px' lengthAdjust='spacingAndGlyphs'>g__Muribaculaceae|s__uncultured_bacterium|ASV559</text></g>
<g clip-path='url(#cpMC4wMHwxNTg0LjAwfDIxNjAuMDB8MC4wMA==)'><text x='194.28' y='1748.62' style='font-size: 10.00px; font-family: Arimo;' textLength='258.14px' lengthAdjust='spacingAndGlyphs'>g__Muribaculaceae|s__uncultured_Bacteroidales|ASV201</text></g>
<g clip-path='url(#cpMC4wMHwxNTg0LjAwfDIxNjAuMDB8MC4wMA==)'><text x='377.73' y='1734.30' style='font-size: 10.00px; font-family: Arimo;' textLength='74.70px' lengthAdjust='spacingAndGlyphs'>g__|s__|ASV882</text></g>
<g clip-path='url(#cpMC4wMHwxNTg0LjAwfDIxNjAuMDB8MC4wMA==)'><text x='199.82' y='1719.99' style='font-size: 10.00px; font-family: Arimo;' textLength='252.60px' lengthAdjust='spacingAndGlyphs'>g__Clostridia_vadinBB60_group|s__unidentified|ASV809</text></g>
<g clip-path='url(#cpMC4wMHwxNTg0LjAwfDIxNjAuMDB8MC4wMA==)'><text x='222.05' y='1705.67' style='font-size: 10.00px; font-family: Arimo;' textLength='230.37px' lengthAdjust='spacingAndGlyphs'>g__Lachnospiraceae_NK4A136_group|s__|ASV183</text></g>
<g clip-path='url(#cpMC4wMHwxNTg0LjAwfDIxNjAuMDB8MC4wMA==)'><text x='210.96' y='1691.35' style='font-size: 10.00px; font-family: Arimo;' textLength='241.46px' lengthAdjust='spacingAndGlyphs'>g__Muribaculaceae|s__uncultured_bacterium|ASV517</text></g>
<g clip-path='url(#cpMC4wMHwxNTg0LjAwfDIxNjAuMDB8MC4wMA==)'><text x='277.65' y='1677.03' style='font-size: 10.00px; font-family: Arimo;' textLength='174.77px' lengthAdjust='spacingAndGlyphs'>f__Lachnospiraceae|g__uncultured|s__</text></g>
<g clip-path='url(#cpMC4wMHwxNTg0LjAwfDIxNjAuMDB8MC4wMA==)'><text x='331.03' y='1662.72' style='font-size: 10.00px; font-family: Arimo;' textLength='121.40px' lengthAdjust='spacingAndGlyphs'>g__uncultured|s__|ASV275</text></g>
<g clip-path='url(#cpMC4wMHwxNTg0LjAwfDIxNjAuMDB8MC4wMA==)'><text x='225.95' y='1648.40' style='font-size: 10.00px; font-family: Arimo;' textLength='226.47px' lengthAdjust='spacingAndGlyphs'>o__Lachnospirales|f__Lachnospiraceae|g__Blautia</text></g>
<g clip-path='url(#cpMC4wMHwxNTg0LjAwfDIxNjAuMDB8MC4wMA==)'><text x='227.10' y='1634.08' style='font-size: 10.00px; font-family: Arimo;' textLength='225.32px' lengthAdjust='spacingAndGlyphs'>g__Oscillibacter|s__uncultured_bacterium|ASV547</text></g>
<g clip-path='url(#cpMC4wMHwxNTg0LjAwfDIxNjAuMDB8MC4wMA==)'><text x='234.86' y='1619.77' style='font-size: 10.00px; font-family: Arimo;' textLength='217.56px' lengthAdjust='spacingAndGlyphs'>g__uncultured|s__uncultured_bacterium|ASV667</text></g>
<g clip-path='url(#cpMC4wMHwxNTg0LjAwfDIxNjAuMDB8MC4wMA==)'><text x='125.88' y='1605.45' style='font-size: 10.00px; font-family: Arimo;' textLength='326.54px' lengthAdjust='spacingAndGlyphs'>g__Lachnospiraceae_NK4A136_group|s__uncultured_bacterium|ASV784</text></g>
<g clip-path='url(#cpMC4wMHwxNTg0LjAwfDIxNjAuMDB8MC4wMA==)'><text x='216.52' y='1591.13' style='font-size: 10.00px; font-family: Arimo;' textLength='235.90px' lengthAdjust='spacingAndGlyphs'>g__Muribaculaceae|s__uncultured_bacterium|ASV76</text></g>
<g clip-path='url(#cpMC4wMHwxNTg0LjAwfDIxNjAuMDB8MC4wMA==)'><text x='210.96' y='1576.81' style='font-size: 10.00px; font-family: Arimo;' textLength='241.46px' lengthAdjust='spacingAndGlyphs'>g__Muribaculaceae|s__uncultured_bacterium|ASV768</text></g>
<g clip-path='url(#cpMC4wMHwxNTg0LjAwfDIxNjAuMDB8MC4wMA==)'><text x='308.25' y='1562.50' style='font-size: 10.00px; font-family: Arimo;' textLength='144.17px' lengthAdjust='spacingAndGlyphs'>g__Colidextribacter|s__|ASV709</text></g>
<g clip-path='url(#cpMC4wMHwxNTg0LjAwfDIxNjAuMDB8MC4wMA==)'><text x='217.65' y='1548.18' style='font-size: 10.00px; font-family: Arimo;' textLength='234.78px' lengthAdjust='spacingAndGlyphs'>g__Colidextribacter|s__uncultured_bacterium|ASV67</text></g>
<g clip-path='url(#cpMC4wMHwxNTg0LjAwfDIxNjAuMDB8MC4wMA==)'><text x='257.11' y='1533.86' style='font-size: 10.00px; font-family: Arimo;' textLength='195.32px' lengthAdjust='spacingAndGlyphs'>g__RF39|s__uncultured_bacterium|ASV645</text></g>
<g clip-path='url(#cpMC4wMHwxNTg0LjAwfDIxNjAuMDB8MC4wMA==)'><text x='255.44' y='1519.55' style='font-size: 10.00px; font-family: Arimo;' textLength='196.98px' lengthAdjust='spacingAndGlyphs'>f__RF39|g__RF39|s__uncultured_bacterium</text></g>
<g clip-path='url(#cpMC4wMHwxNTg0LjAwfDIxNjAuMDB8MC4wMA==)'><text x='301.05' y='1505.23' style='font-size: 10.00px; font-family: Arimo;' textLength='151.37px' lengthAdjust='spacingAndGlyphs'>p__Firmicutes|c__Bacilli|o__RF39</text></g>
<g clip-path='url(#cpMC4wMHwxNTg0LjAwfDIxNjAuMDB8MC4wMA==)'><text x='326.60' y='1490.91' style='font-size: 10.00px; font-family: Arimo;' textLength='125.83px' lengthAdjust='spacingAndGlyphs'>o__RF39|f__RF39|g__RF39</text></g>
<g clip-path='url(#cpMC4wMHwxNTg0LjAwfDIxNjAuMDB8MC4wMA==)'><text x='325.49' y='1476.59' style='font-size: 10.00px; font-family: Arimo;' textLength='126.93px' lengthAdjust='spacingAndGlyphs'>c__Bacilli|o__RF39|f__RF39</text></g>
<g clip-path='url(#cpMC4wMHwxNTg0LjAwfDIxNjAuMDB8MC4wMA==)'><text x='210.96' y='1462.28' style='font-size: 10.00px; font-family: Arimo;' textLength='241.46px' lengthAdjust='spacingAndGlyphs'>g__Muribaculaceae|s__uncultured_bacterium|ASV406</text></g>
<g clip-path='url(#cpMC4wMHwxNTg0LjAwfDIxNjAuMDB8MC4wMA==)'><text x='194.28' y='1447.96' style='font-size: 10.00px; font-family: Arimo;' textLength='258.14px' lengthAdjust='spacingAndGlyphs'>g__Muribaculaceae|s__uncultured_Bacteroidales|ASV416</text></g>
<g clip-path='url(#cpMC4wMHwxNTg0LjAwfDIxNjAuMDB8MC4wMA==)'><text x='240.42' y='1433.64' style='font-size: 10.00px; font-family: Arimo;' textLength='212.00px' lengthAdjust='spacingAndGlyphs'>g__uncultured|s__uncultured_bacterium|ASV54</text></g>
<g clip-path='url(#cpMC4wMHwxNTg0LjAwfDIxNjAuMDB8MC4wMA==)'><text x='125.88' y='1419.33' style='font-size: 10.00px; font-family: Arimo;' textLength='326.54px' lengthAdjust='spacingAndGlyphs'>g__Lachnospiraceae_NK4A136_group|s__uncultured_bacterium|ASV631</text></g>
<g clip-path='url(#cpMC4wMHwxNTg0LjAwfDIxNjAuMDB8MC4wMA==)'><text x='308.25' y='1405.01' style='font-size: 10.00px; font-family: Arimo;' textLength='144.17px' lengthAdjust='spacingAndGlyphs'>g__Colidextribacter|s__|ASV468</text></g>
<g clip-path='url(#cpMC4wMHwxNTg0LjAwfDIxNjAuMDB8MC4wMA==)'><text x='377.73' y='1390.69' style='font-size: 10.00px; font-family: Arimo;' textLength='74.70px' lengthAdjust='spacingAndGlyphs'>g__|s__|ASV328</text></g>
<g clip-path='url(#cpMC4wMHwxNTg0LjAwfDIxNjAuMDB8MC4wMA==)'><text x='194.28' y='1376.37' style='font-size: 10.00px; font-family: Arimo;' textLength='258.14px' lengthAdjust='spacingAndGlyphs'>g__Muribaculaceae|s__uncultured_Bacteroidales|ASV663</text></g>
<g clip-path='url(#cpMC4wMHwxNTg0LjAwfDIxNjAuMDB8MC4wMA==)'><text x='168.14' y='1362.06' style='font-size: 10.00px; font-family: Arimo;' textLength='284.28px' lengthAdjust='spacingAndGlyphs'>f__Lachnospiraceae|g__Blautia|s__Lachnospiraceae_bacterium</text></g>
<g clip-path='url(#cpMC4wMHwxNTg0LjAwfDIxNjAuMDB8MC4wMA==)'><text x='221.51' y='1347.74' style='font-size: 10.00px; font-family: Arimo;' textLength='230.91px' lengthAdjust='spacingAndGlyphs'>g__Blautia|s__Lachnospiraceae_bacterium|ASV260</text></g>
<g clip-path='url(#cpMC4wMHwxNTg0LjAwfDIxNjAuMDB8MC4wMA==)'><text x='221.54' y='1333.42' style='font-size: 10.00px; font-family: Arimo;' textLength='230.88px' lengthAdjust='spacingAndGlyphs'>g__Oscillibacter|s__uncultured_bacterium|ASV1094</text></g>
<g clip-path='url(#cpMC4wMHwxNTg0LjAwfDIxNjAuMDB8MC4wMA==)'><text x='235.99' y='1319.11' style='font-size: 10.00px; font-family: Arimo;' textLength='216.44px' lengthAdjust='spacingAndGlyphs'>f__Ruminococcaceae|g__Ruminococcaceae|s__</text></g>
<g clip-path='url(#cpMC4wMHwxNTg0LjAwfDIxNjAuMDB8MC4wMA==)'><text x='295.46' y='1304.79' style='font-size: 10.00px; font-family: Arimo;' textLength='156.96px' lengthAdjust='spacingAndGlyphs'>g__Ruminococcaceae|s__|ASV948</text></g>
<g clip-path='url(#cpMC4wMHwxNTg0LjAwfDIxNjAuMDB8MC4wMA==)'><text x='170.96' y='1290.47' style='font-size: 10.00px; font-family: Arimo;' textLength='281.46px' lengthAdjust='spacingAndGlyphs'>o__Oscillospirales|f__Ruminococcaceae|g__Ruminococcaceae</text></g>
<g clip-path='url(#cpMC4wMHwxNTg0LjAwfDIxNjAuMDB8MC4wMA==)'><text x='216.52' y='1276.15' style='font-size: 10.00px; font-family: Arimo;' textLength='235.90px' lengthAdjust='spacingAndGlyphs'>g__Muribaculaceae|s__uncultured_bacterium|ASV14</text></g>
<g clip-path='url(#cpMC4wMHwxNTg0LjAwfDIxNjAuMDB8MC4wMA==)'><text x='194.26' y='1261.84' style='font-size: 10.00px; font-family: Arimo;' textLength='258.16px' lengthAdjust='spacingAndGlyphs'>g__Clostridia_vadinBB60_group|s__unidentified|ASV1092</text></g>
<g clip-path='url(#cpMC4wMHwxNTg0LjAwfDIxNjAuMDB8MC4wMA==)'><text x='186.52' y='1247.52' style='font-size: 10.00px; font-family: Arimo;' textLength='265.90px' lengthAdjust='spacingAndGlyphs'>o__Oscillospirales|f__Ruminococcaceae|g__Incertae_Sedis</text></g>
<g clip-path='url(#cpMC4wMHwxNTg0LjAwfDIxNjAuMDB8MC4wMA==)'><text x='296.00' y='1233.20' style='font-size: 10.00px; font-family: Arimo;' textLength='156.43px' lengthAdjust='spacingAndGlyphs'>g__Blautia|s__unidentified|ASV329</text></g>
<g clip-path='url(#cpMC4wMHwxNTg0LjAwfDIxNjAuMDB8MC4wMA==)'><text x='242.62' y='1218.89' style='font-size: 10.00px; font-family: Arimo;' textLength='209.80px' lengthAdjust='spacingAndGlyphs'>f__Lachnospiraceae|g__Blautia|s__unidentified</text></g>
<g clip-path='url(#cpMC4wMHwxNTg0LjAwfDIxNjAuMDB8MC4wMA==)'><text x='234.86' y='1204.57' style='font-size: 10.00px; font-family: Arimo;' textLength='217.56px' lengthAdjust='spacingAndGlyphs'>g__uncultured|s__uncultured_bacterium|ASV983</text></g>
<g clip-path='url(#cpMC4wMHwxNTg0LjAwfDIxNjAuMDB8MC4wMA==)'><text x='125.88' y='1190.25' style='font-size: 10.00px; font-family: Arimo;' textLength='326.54px' lengthAdjust='spacingAndGlyphs'>g__Lachnospiraceae_NK4A136_group|s__uncultured_bacterium|ASV769</text></g>
<g clip-path='url(#cpMC4wMHwxNTg0LjAwfDIxNjAuMDB8MC4wMA==)'><text x='377.73' y='1175.93' style='font-size: 10.00px; font-family: Arimo;' textLength='74.70px' lengthAdjust='spacingAndGlyphs'>g__|s__|ASV893</text></g>
<g clip-path='url(#cpMC4wMHwxNTg0LjAwfDIxNjAuMDB8MC4wMA==)'><text x='377.73' y='1161.62' style='font-size: 10.00px; font-family: Arimo;' textLength='74.70px' lengthAdjust='spacingAndGlyphs'>g__|s__|ASV104</text></g>
<g clip-path='url(#cpMC4wMHwxNTg0LjAwfDIxNjAuMDB8MC4wMA==)'><text x='210.96' y='1147.30' style='font-size: 10.00px; font-family: Arimo;' textLength='241.46px' lengthAdjust='spacingAndGlyphs'>g__Muribaculaceae|s__uncultured_bacterium|ASV934</text></g>
<g clip-path='url(#cpMC4wMHwxNTg0LjAwfDIxNjAuMDB8MC4wMA==)'><text x='269.33' y='1132.98' style='font-size: 10.00px; font-family: Arimo;' textLength='183.10px' lengthAdjust='spacingAndGlyphs'>g__A2|s__uncultured_bacterium|ASV483</text></g>
<g clip-path='url(#cpMC4wMHwxNTg0LjAwfDIxNjAuMDB8MC4wMA==)'><text x='123.68' y='1118.67' style='font-size: 10.00px; font-family: Arimo;' textLength='328.74px' lengthAdjust='spacingAndGlyphs'>g__Lachnospiraceae_NK4A136_group|s__Clostridiales_bacterium|ASV37</text></g>
<g clip-path='url(#cpMC4wMHwxNTg0LjAwfDIxNjAuMDB8MC4wMA==)'><text x='64.75' y='1104.35' style='font-size: 10.00px; font-family: Arimo;' textLength='387.68px' lengthAdjust='spacingAndGlyphs'>f__Lachnospiraceae|g__Lachnospiraceae_NK4A136_group|s__Clostridiales_bacterium</text></g>
<g clip-path='url(#cpMC4wMHwxNTg0LjAwfDIxNjAuMDB8MC4wMA==)'><text x='156.48' y='1090.03' style='font-size: 10.00px; font-family: Arimo;' textLength='295.94px' lengthAdjust='spacingAndGlyphs'>g__Candidatus_Saccharimonas|s__uncultured_bacterium|ASV946</text></g>
<g clip-path='url(#cpMC4wMHwxNTg0LjAwfDIxNjAuMDB8MC4wMA==)'><text x='216.52' y='1075.71' style='font-size: 10.00px; font-family: Arimo;' textLength='235.90px' lengthAdjust='spacingAndGlyphs'>g__Muribaculaceae|s__uncultured_bacterium|ASV60</text></g>
<g clip-path='url(#cpMC4wMHwxNTg0LjAwfDIxNjAuMDB8MC4wMA==)'><text x='199.82' y='1061.40' style='font-size: 10.00px; font-family: Arimo;' textLength='252.60px' lengthAdjust='spacingAndGlyphs'>g__Clostridia_vadinBB60_group|s__unidentified|ASV513</text></g>
<g clip-path='url(#cpMC4wMHwxNTg0LjAwfDIxNjAuMDB8MC4wMA==)'><text x='311.02' y='1047.08' style='font-size: 10.00px; font-family: Arimo;' textLength='141.41px' lengthAdjust='spacingAndGlyphs'>g__Incertae_Sedis|s__|ASV714</text></g>
<g clip-path='url(#cpMC4wMHwxNTg0LjAwfDIxNjAuMDB8MC4wMA==)'><text x='251.54' y='1032.76' style='font-size: 10.00px; font-family: Arimo;' textLength='200.88px' lengthAdjust='spacingAndGlyphs'>f__Ruminococcaceae|g__Incertae_Sedis|s__</text></g>
<g clip-path='url(#cpMC4wMHwxNTg0LjAwfDIxNjAuMDB8MC4wMA==)'><text x='154.81' y='1018.45' style='font-size: 10.00px; font-family: Arimo;' textLength='297.61px' lengthAdjust='spacingAndGlyphs'>g__Clostridia_vadinBB60_group|s__uncultured_bacterium|ASV572</text></g>
<g clip-path='url(#cpMC4wMHwxNTg0LjAwfDIxNjAuMDB8MC4wMA==)'><text x='229.30' y='1004.13' style='font-size: 10.00px; font-family: Arimo;' textLength='223.12px' lengthAdjust='spacingAndGlyphs'>g__uncultured|s__uncultured_bacterium|ASV1012</text></g>
<g clip-path='url(#cpMC4wMHwxNTg0LjAwfDIxNjAuMDB8MC4wMA==)'><text x='328.83' y='989.81' style='font-size: 10.00px; font-family: Arimo;' textLength='123.59px' lengthAdjust='spacingAndGlyphs'>g__Oscillibacter|s__|ASV55</text></g>
<g clip-path='url(#cpMC4wMHwxNTg0LjAwfDIxNjAuMDB8MC4wMA==)'><text x='272.70' y='975.49' style='font-size: 10.00px; font-family: Arimo;' textLength='179.73px' lengthAdjust='spacingAndGlyphs'>f__Oscillospiraceae|g__Oscillibacter|s__</text></g>
<g clip-path='url(#cpMC4wMHwxNTg0LjAwfDIxNjAuMDB8MC4wMA==)'><text x='157.04' y='961.18' style='font-size: 10.00px; font-family: Arimo;' textLength='295.39px' lengthAdjust='spacingAndGlyphs'>g__Clostridia_vadinBB60_group|s__uncultured_Clostridia|ASV342</text></g>
<g clip-path='url(#cpMC4wMHwxNTg0LjAwfDIxNjAuMDB8MC4wMA==)'><text x='247.10' y='946.86' style='font-size: 10.00px; font-family: Arimo;' textLength='205.32px' lengthAdjust='spacingAndGlyphs'>g__Roseburia|s__uncultured_bacterium|ASV7</text></g>
<g clip-path='url(#cpMC4wMHwxNTg0LjAwfDIxNjAuMDB8MC4wMA==)'><text x='383.29' y='932.54' style='font-size: 10.00px; font-family: Arimo;' textLength='69.14px' lengthAdjust='spacingAndGlyphs'>g__|s__|ASV57</text></g>
<g clip-path='url(#cpMC4wMHwxNTg0LjAwfDIxNjAuMDB8MC4wMA==)'><text x='106.97' y='918.23' style='font-size: 10.00px; font-family: Arimo;' textLength='345.45px' lengthAdjust='spacingAndGlyphs'>o__Lachnospirales|f__Lachnospiraceae|g__Lachnospiraceae_FCS020_group</text></g>
<g clip-path='url(#cpMC4wMHwxNTg0LjAwfDIxNjAuMDB8MC4wMA==)'><text x='174.80' y='903.91' style='font-size: 10.00px; font-family: Arimo;' textLength='277.62px' lengthAdjust='spacingAndGlyphs'>f__Lachnospiraceae|g__Lachnospiraceae_FCS020_group|s__</text></g>
<g clip-path='url(#cpMC4wMHwxNTg0LjAwfDIxNjAuMDB8MC4wMA==)'><text x='234.86' y='889.59' style='font-size: 10.00px; font-family: Arimo;' textLength='217.56px' lengthAdjust='spacingAndGlyphs'>g__uncultured|s__uncultured_bacterium|ASV423</text></g>
<g clip-path='url(#cpMC4wMHwxNTg0LjAwfDIxNjAuMDB8MC4wMA==)'><text x='183.71' y='875.27' style='font-size: 10.00px; font-family: Arimo;' textLength='268.71px' lengthAdjust='spacingAndGlyphs'>f__Peptococcaceae|g__uncultured|s__uncultured_bacterium</text></g>
<g clip-path='url(#cpMC4wMHwxNTg0LjAwfDIxNjAuMDB8MC4wMA==)'><text x='234.86' y='860.96' style='font-size: 10.00px; font-family: Arimo;' textLength='217.56px' lengthAdjust='spacingAndGlyphs'>g__uncultured|s__uncultured_bacterium|ASV455</text></g>
<g clip-path='url(#cpMC4wMHwxNTg0LjAwfDIxNjAuMDB8MC4wMA==)'><text x='165.93' y='846.64' style='font-size: 10.00px; font-family: Arimo;' textLength='286.49px' lengthAdjust='spacingAndGlyphs'>g__Clostridia_vadinBB60_group|s__uncultured_bacterium|ASV8</text></g>
<g clip-path='url(#cpMC4wMHwxNTg0LjAwfDIxNjAuMDB8MC4wMA==)'><text x='144.82' y='832.32' style='font-size: 10.00px; font-family: Arimo;' textLength='307.60px' lengthAdjust='spacingAndGlyphs'>f__Ruminococcaceae|g__Incertae_Sedis|s__uncultured_Clostridiales</text></g>
<g clip-path='url(#cpMC4wMHwxNTg0LjAwfDIxNjAuMDB8MC4wMA==)'><text x='204.29' y='818.01' style='font-size: 10.00px; font-family: Arimo;' textLength='248.13px' lengthAdjust='spacingAndGlyphs'>g__Incertae_Sedis|s__uncultured_Clostridiales|ASV348</text></g>
<g clip-path='url(#cpMC4wMHwxNTg0LjAwfDIxNjAuMDB8MC4wMA==)'><text x='141.50' y='803.69' style='font-size: 10.00px; font-family: Arimo;' textLength='310.92px' lengthAdjust='spacingAndGlyphs'>f__Erysipelatoclostridiaceae|g__Erysipelatoclostridium|s__unidentified</text></g>
<g clip-path='url(#cpMC4wMHwxNTg0LjAwfDIxNjAuMDB8MC4wMA==)'><text x='229.32' y='789.37' style='font-size: 10.00px; font-family: Arimo;' textLength='223.11px' lengthAdjust='spacingAndGlyphs'>g__Erysipelatoclostridium|s__unidentified|ASV959</text></g>
<g clip-path='url(#cpMC4wMHwxNTg0LjAwfDIxNjAuMDB8MC4wMA==)'><text x='234.86' y='775.05' style='font-size: 10.00px; font-family: Arimo;' textLength='217.56px' lengthAdjust='spacingAndGlyphs'>g__Clostridia_UCG_014|s__unidentified|ASV246</text></g>
<g clip-path='url(#cpMC4wMHwxNTg0LjAwfDIxNjAuMDB8MC4wMA==)'><text x='234.86' y='760.74' style='font-size: 10.00px; font-family: Arimo;' textLength='217.56px' lengthAdjust='spacingAndGlyphs'>g__uncultured|s__uncultured_bacterium|ASV438</text></g>
<g clip-path='url(#cpMC4wMHwxNTg0LjAwfDIxNjAuMDB8MC4wMA==)'><text x='150.37' y='746.42' style='font-size: 10.00px; font-family: Arimo;' textLength='302.05px' lengthAdjust='spacingAndGlyphs'>g__Coriobacteriaceae_UCG_002|s__uncultured_bacterium|ASV704</text></g>
<g clip-path='url(#cpMC4wMHwxNTg0LjAwfDIxNjAuMDB8MC4wMA==)'><text x='112.00' y='732.10' style='font-size: 10.00px; font-family: Arimo;' textLength='340.42px' lengthAdjust='spacingAndGlyphs'>f__Atopobiaceae|g__Coriobacteriaceae_UCG_002|s__uncultured_bacterium</text></g>
<g clip-path='url(#cpMC4wMHwxNTg0LjAwfDIxNjAuMDB8MC4wMA==)'><text x='135.35' y='717.79' style='font-size: 10.00px; font-family: Arimo;' textLength='317.07px' lengthAdjust='spacingAndGlyphs'>o__Coriobacteriales|f__Atopobiaceae|g__Coriobacteriaceae_UCG_002</text></g>
<g clip-path='url(#cpMC4wMHwxNTg0LjAwfDIxNjAuMDB8MC4wMA==)'><text x='205.41' y='703.47' style='font-size: 10.00px; font-family: Arimo;' textLength='247.02px' lengthAdjust='spacingAndGlyphs'>c__Coriobacteriia|o__Coriobacteriales|f__Atopobiaceae</text></g>
<g clip-path='url(#cpMC4wMHwxNTg0LjAwfDIxNjAuMDB8MC4wMA==)'><text x='212.09' y='689.15' style='font-size: 10.00px; font-family: Arimo;' textLength='240.34px' lengthAdjust='spacingAndGlyphs'>g__Colidextribacter|s__uncultured_bacterium|ASV227</text></g>
<g clip-path='url(#cpMC4wMHwxNTg0LjAwfDIxNjAuMDB8MC4wMA==)'><text x='312.12' y='674.84' style='font-size: 10.00px; font-family: Arimo;' textLength='140.30px' lengthAdjust='spacingAndGlyphs'>g__Enterorhabdus|s__|ASV512</text></g>
<g clip-path='url(#cpMC4wMHwxNTg0LjAwfDIxNjAuMDB8MC4wMA==)'><text x='262.64' y='660.52' style='font-size: 10.00px; font-family: Arimo;' textLength='189.78px' lengthAdjust='spacingAndGlyphs'>f__Eggerthellaceae|g__Enterorhabdus|s__</text></g>
<g clip-path='url(#cpMC4wMHwxNTg0LjAwfDIxNjAuMDB8MC4wMA==)'><text x='109.23' y='646.20' style='font-size: 10.00px; font-family: Arimo;' textLength='343.19px' lengthAdjust='spacingAndGlyphs'>f__Bifidobacteriaceae|g__Bifidobacterium|s__Bifidobacterium_pseudolongum</text></g>
<g clip-path='url(#cpMC4wMHwxNTg0LjAwfDIxNjAuMDB8MC4wMA==)'><text x='168.72' y='631.88' style='font-size: 10.00px; font-family: Arimo;' textLength='283.71px' lengthAdjust='spacingAndGlyphs'>g__Bifidobacterium|s__Bifidobacterium_pseudolongum|ASV949</text></g>
<g clip-path='url(#cpMC4wMHwxNTg0LjAwfDIxNjAuMDB8MC4wMA==)'><text x='307.13' y='617.57' style='font-size: 10.00px; font-family: Arimo;' textLength='145.29px' lengthAdjust='spacingAndGlyphs'>g__Muribaculaceae|s__|ASV930</text></g>
<g clip-path='url(#cpMC4wMHwxNTg0LjAwfDIxNjAuMDB8MC4wMA==)'><text x='197.63' y='603.25' style='font-size: 10.00px; font-family: Arimo;' textLength='254.79px' lengthAdjust='spacingAndGlyphs'>g__Parasutterella|s__Burkholderiales_bacterium|ASV747</text></g>
<g clip-path='url(#cpMC4wMHwxNTg0LjAwfDIxNjAuMDB8MC4wMA==)'><text x='194.28' y='588.93' style='font-size: 10.00px; font-family: Arimo;' textLength='258.14px' lengthAdjust='spacingAndGlyphs'>g__Muribaculaceae|s__uncultured_Bacteroidales|ASV655</text></g>
<g clip-path='url(#cpMC4wMHwxNTg0LjAwfDIxNjAuMDB8MC4wMA==)'><text x='194.28' y='574.62' style='font-size: 10.00px; font-family: Arimo;' textLength='258.14px' lengthAdjust='spacingAndGlyphs'>g__Muribaculaceae|s__uncultured_Bacteroidales|ASV356</text></g>
<g clip-path='url(#cpMC4wMHwxNTg0LjAwfDIxNjAuMDB8MC4wMA==)'><text x='380.71' y='560.30' style='font-size: 10.00px; font-family: Arimo;' textLength='71.71px' lengthAdjust='spacingAndGlyphs'>Actinobacteriota</text></g>
<g clip-path='url(#cpMC4wMHwxNTg0LjAwfDIxNjAuMDB8MC4wMA==)'><text x='210.96' y='545.98' style='font-size: 10.00px; font-family: Arimo;' textLength='241.46px' lengthAdjust='spacingAndGlyphs'>g__Muribaculaceae|s__uncultured_bacterium|ASV419</text></g>
<g clip-path='url(#cpMC4wMHwxNTg0LjAwfDIxNjAuMDB8MC4wMA==)'><text x='194.28' y='531.66' style='font-size: 10.00px; font-family: Arimo;' textLength='258.14px' lengthAdjust='spacingAndGlyphs'>g__Muribaculaceae|s__uncultured_Bacteroidales|ASV536</text></g>
<g clip-path='url(#cpMC4wMHwxNTg0LjAwfDIxNjAuMDB8MC4wMA==)'><text x='194.28' y='517.35' style='font-size: 10.00px; font-family: Arimo;' textLength='258.14px' lengthAdjust='spacingAndGlyphs'>g__Muribaculaceae|s__uncultured_Bacteroidales|ASV580</text></g>
<g clip-path='url(#cpMC4wMHwxNTg0LjAwfDIxNjAuMDB8MC4wMA==)'><text x='312.69' y='503.03' style='font-size: 10.00px; font-family: Arimo;' textLength='139.73px' lengthAdjust='spacingAndGlyphs'>g__Muribaculaceae|s__|ASV28</text></g>
<g clip-path='url(#cpMC4wMHwxNTg0LjAwfDIxNjAuMDB8MC4wMA==)'><text x='244.32' y='488.71' style='font-size: 10.00px; font-family: Arimo;' textLength='208.10px' lengthAdjust='spacingAndGlyphs'>g__Alistipes|s__uncultured_bacterium|ASV310</text></g>
<g clip-path='url(#cpMC4wMHwxNTg0LjAwfDIxNjAuMDB8MC4wMA==)'><text x='325.49' y='474.40' style='font-size: 10.00px; font-family: Arimo;' textLength='126.93px' lengthAdjust='spacingAndGlyphs'>g__Turicibacter|s__|ASV376</text></g>
<g clip-path='url(#cpMC4wMHwxNTg0LjAwfDIxNjAuMDB8MC4wMA==)'><text x='182.09' y='460.08' style='font-size: 10.00px; font-family: Arimo;' textLength='270.33px' lengthAdjust='spacingAndGlyphs'>o__Erysipelotrichales|f__Erysipelotrichaceae|g__Turicibacter</text></g>
<g clip-path='url(#cpMC4wMHwxNTg0LjAwfDIxNjAuMDB8MC4wMA==)'><text x='261.02' y='445.76' style='font-size: 10.00px; font-family: Arimo;' textLength='191.41px' lengthAdjust='spacingAndGlyphs'>f__Erysipelotrichaceae|g__Turicibacter|s__</text></g>
<g clip-path='url(#cpMC4wMHwxNTg0LjAwfDIxNjAuMDB8MC4wMA==)'><text x='197.63' y='431.44' style='font-size: 10.00px; font-family: Arimo;' textLength='254.79px' lengthAdjust='spacingAndGlyphs'>g__Parasutterella|s__Burkholderiales_bacterium|ASV334</text></g>
<g clip-path='url(#cpMC4wMHwxNTg0LjAwfDIxNjAuMDB8MC4wMA==)'><text x='244.32' y='417.13' style='font-size: 10.00px; font-family: Arimo;' textLength='208.10px' lengthAdjust='spacingAndGlyphs'>g__Alistipes|s__uncultured_bacterium|ASV586</text></g>
<g clip-path='url(#cpMC4wMHwxNTg0LjAwfDIxNjAuMDB8MC4wMA==)'><text x='313.81' y='402.81' style='font-size: 10.00px; font-family: Arimo;' textLength='138.61px' lengthAdjust='spacingAndGlyphs'>g__Colidextribacter|s__|ASV21</text></g>
<g clip-path='url(#cpMC4wMHwxNTg0LjAwfDIxNjAuMDB8MC4wMA==)'><text x='233.76' y='388.49' style='font-size: 10.00px; font-family: Arimo;' textLength='218.66px' lengthAdjust='spacingAndGlyphs'>f__Rikenellaceae|g__Alistipes|s__Alistipes_inops</text></g>
<g clip-path='url(#cpMC4wMHwxNTg0LjAwfDIxNjAuMDB8MC4wMA==)'><text x='273.78' y='374.18' style='font-size: 10.00px; font-family: Arimo;' textLength='178.64px' lengthAdjust='spacingAndGlyphs'>g__Alistipes|s__Alistipes_inops|ASV751</text></g>
<g clip-path='url(#cpMC4wMHwxNTg0LjAwfDIxNjAuMDB8MC4wMA==)'><text x='238.76' y='359.86' style='font-size: 10.00px; font-family: Arimo;' textLength='213.66px' lengthAdjust='spacingAndGlyphs'>g__Alistipes|s__uncultured_bacterium|ASV1043</text></g>
<g clip-path='url(#cpMC4wMHwxNTg0LjAwfDIxNjAuMDB8MC4wMA==)'><text x='164.28' y='345.54' style='font-size: 10.00px; font-family: Arimo;' textLength='288.14px' lengthAdjust='spacingAndGlyphs'>p__Proteobacteria|c__Gammaproteobacteria|o__Burkholderiales</text></g>
<g clip-path='url(#cpMC4wMHwxNTg0LjAwfDIxNjAuMDB8MC4wMA==)'><text x='156.49' y='331.22' style='font-size: 10.00px; font-family: Arimo;' textLength='295.93px' lengthAdjust='spacingAndGlyphs'>f__Sutterellaceae|g__Parasutterella|s__Burkholderiales_bacterium</text></g>
<g clip-path='url(#cpMC4wMHwxNTg0LjAwfDIxNjAuMDB8MC4wMA==)'><text x='205.40' y='316.91' style='font-size: 10.00px; font-family: Arimo;' textLength='247.02px' lengthAdjust='spacingAndGlyphs'>o__Burkholderiales|f__Sutterellaceae|g__Parasutterella</text></g>
<g clip-path='url(#cpMC4wMHwxNTg0LjAwfDIxNjAuMDB8MC4wMA==)'><text x='168.17' y='302.59' style='font-size: 10.00px; font-family: Arimo;' textLength='284.25px' lengthAdjust='spacingAndGlyphs'>c__Gammaproteobacteria|o__Burkholderiales|f__Sutterellaceae</text></g>
<g clip-path='url(#cpMC4wMHwxNTg0LjAwfDIxNjAuMDB8MC4wMA==)'><text x='252.49' y='288.27' style='font-size: 10.00px; font-family: Arimo;' textLength='199.94px' lengthAdjust='spacingAndGlyphs'>p__Proteobacteria|c__Gammaproteobacteria</text></g>
<g clip-path='url(#cpMC4wMHwxNTg0LjAwfDIxNjAuMDB8MC4wMA==)'><text x='387.38' y='273.96' style='font-size: 10.00px; font-family: Arimo;' textLength='65.04px' lengthAdjust='spacingAndGlyphs'>Proteobacteria</text></g>
<g clip-path='url(#cpMC4wMHwxNTg0LjAwfDIxNjAuMDB8MC4wMA==)'><text x='205.40' y='259.64' style='font-size: 10.00px; font-family: Arimo;' textLength='247.02px' lengthAdjust='spacingAndGlyphs'>g__Muribaculaceae|s__uncultured_bacterium|ASV1079</text></g>
<g clip-path='url(#cpMC4wMHwxNTg0LjAwfDIxNjAuMDB8MC4wMA==)'><text x='216.52' y='245.32' style='font-size: 10.00px; font-family: Arimo;' textLength='235.90px' lengthAdjust='spacingAndGlyphs'>g__Muribaculaceae|s__uncultured_bacterium|ASV69</text></g>
<g clip-path='url(#cpMC4wMHwxNTg0LjAwfDIxNjAuMDB8MC4wMA==)'><text x='211.53' y='231.00' style='font-size: 10.00px; font-family: Arimo;' textLength='240.89px' lengthAdjust='spacingAndGlyphs'>o__Bacteroidales|f__Muribaculaceae|g__Muribaculum</text></g>
<g clip-path='url(#cpMC4wMHwxNTg0LjAwfDIxNjAuMDB8MC4wMA==)'><text x='320.48' y='216.69' style='font-size: 10.00px; font-family: Arimo;' textLength='131.94px' lengthAdjust='spacingAndGlyphs'>g__Muribaculum|s__|ASV278</text></g>
<g clip-path='url(#cpMC4wMHwxNTg0LjAwfDIxNjAuMDB8MC4wMA==)'><text x='272.68' y='202.37' style='font-size: 10.00px; font-family: Arimo;' textLength='179.74px' lengthAdjust='spacingAndGlyphs'>f__Muribaculaceae|g__Muribaculum|s__</text></g>
<g clip-path='url(#cpMC4wMHwxNTg0LjAwfDIxNjAuMDB8MC4wMA==)'><text x='205.40' y='188.05' style='font-size: 10.00px; font-family: Arimo;' textLength='247.02px' lengthAdjust='spacingAndGlyphs'>g__Muribaculaceae|s__uncultured_bacterium|ASV1038</text></g>
<g clip-path='url(#cpMC4wMHwxNTg0LjAwfDIxNjAuMDB8MC4wMA==)'><text x='208.77' y='173.74' style='font-size: 10.00px; font-family: Arimo;' textLength='243.65px' lengthAdjust='spacingAndGlyphs'>c__Bacilli|o__Erysipelotrichales|f__Erysipelotrichaceae</text></g>
<g clip-path='url(#cpMC4wMHwxNTg0LjAwfDIxNjAuMDB8MC4wMA==)'><text x='247.14' y='159.42' style='font-size: 10.00px; font-family: Arimo;' textLength='205.28px' lengthAdjust='spacingAndGlyphs'>p__Firmicutes|c__Bacilli|o__Erysipelotrichales</text></g>
<g clip-path='url(#cpMC4wMHwxNTg0LjAwfDIxNjAuMDB8MC4wMA==)'><text x='210.96' y='145.10' style='font-size: 10.00px; font-family: Arimo;' textLength='241.46px' lengthAdjust='spacingAndGlyphs'>g__Muribaculaceae|s__uncultured_bacterium|ASV327</text></g>
<g clip-path='url(#cpMC4wMHwxNTg0LjAwfDIxNjAuMDB8MC4wMA==)'><text x='163.16' y='130.78' style='font-size: 10.00px; font-family: Arimo;' textLength='289.26px' lengthAdjust='spacingAndGlyphs'>f__Muribaculaceae|g__Muribaculaceae|s__uncultured_bacterium</text></g>
<g clip-path='url(#cpMC4wMHwxNTg0LjAwfDIxNjAuMDB8MC4wMA==)'><text x='198.17' y='116.47' style='font-size: 10.00px; font-family: Arimo;' textLength='254.25px' lengthAdjust='spacingAndGlyphs'>o__Bacteroidales|f__Muribaculaceae|g__Muribaculaceae</text></g>
<g clip-path='url(#cpMC4wMHwxNTg0LjAwfDIxNjAuMDB8MC4wMA==)'><text x='219.30' y='102.15' style='font-size: 10.00px; font-family: Arimo;' textLength='233.12px' lengthAdjust='spacingAndGlyphs'>c__Bacteroidia|o__Bacteroidales|f__Muribaculaceae</text></g>
<g clip-path='url(#cpMC4wMHwxNTg0LjAwfDIxNjAuMDB8MC4wMA==)'><text x='230.97' y='87.83' style='font-size: 10.00px; font-family: Arimo;' textLength='221.46px' lengthAdjust='spacingAndGlyphs'>p__Bacteroidota|c__Bacteroidia|o__Bacteroidales</text></g>
<g clip-path='url(#cpMC4wMHwxNTg0LjAwfDIxNjAuMDB8MC4wMA==)'><text x='396.27' y='73.52' style='font-size: 10.00px; font-family: Arimo;' textLength='56.15px' lengthAdjust='spacingAndGlyphs'>Bacteroidota</text></g>
<g clip-path='url(#cpMC4wMHwxNTg0LjAwfDIxNjAuMDB8MC4wMA==)'><text x='310.84' y='59.20' style='font-size: 10.00px; font-family: Arimo;' textLength='141.58px' lengthAdjust='spacingAndGlyphs'>p__Bacteroidota|c__Bacteroidia</text></g>
<polyline points='454.81,2117.43 457.80,2117.43 ' style='stroke-width: 1.16; stroke-linecap: butt;' clip-path='url(#cpMC4wMHwxNTg0LjAwfDIxNjAuMDB8MC4wMA==)' />
<polyline points='454.81,2103.11 457.80,2103.11 ' style='stroke-width: 1.16; stroke-linecap: butt;' clip-path='url(#cpMC4wMHwxNTg0LjAwfDIxNjAuMDB8MC4wMA==)' />
<polyline points='454.81,2088.79 457.80,2088.79 ' style='stroke-width: 1.16; stroke-linecap: butt;' clip-path='url(#cpMC4wMHwxNTg0LjAwfDIxNjAuMDB8MC4wMA==)' />
<polyline points='454.81,2074.47 457.80,2074.47 ' style='stroke-width: 1.16; stroke-linecap: butt;' clip-path='url(#cpMC4wMHwxNTg0LjAwfDIxNjAuMDB8MC4wMA==)' />
<polyline points='454.81,2060.16 457.80,2060.16 ' style='stroke-width: 1.16; stroke-linecap: butt;' clip-path='url(#cpMC4wMHwxNTg0LjAwfDIxNjAuMDB8MC4wMA==)' />
<polyline points='454.81,2045.84 457.80,2045.84 ' style='stroke-width: 1.16; stroke-linecap: butt;' clip-path='url(#cpMC4wMHwxNTg0LjAwfDIxNjAuMDB8MC4wMA==)' />
<polyline points='454.81,2031.52 457.80,2031.52 ' style='stroke-width: 1.16; stroke-linecap: butt;' clip-path='url(#cpMC4wMHwxNTg0LjAwfDIxNjAuMDB8MC4wMA==)' />
<polyline points='454.81,2017.21 457.80,2017.21 ' style='stroke-width: 1.16; stroke-linecap: butt;' clip-path='url(#cpMC4wMHwxNTg0LjAwfDIxNjAuMDB8MC4wMA==)' />
<polyline points='454.81,2002.89 457.80,2002.89 ' style='stroke-width: 1.16; stroke-linecap: butt;' clip-path='url(#cpMC4wMHwxNTg0LjAwfDIxNjAuMDB8MC4wMA==)' />
<polyline points='454.81,1988.57 457.80,1988.57 ' style='stroke-width: 1.16; stroke-linecap: butt;' clip-path='url(#cpMC4wMHwxNTg0LjAwfDIxNjAuMDB8MC4wMA==)' />
<polyline points='454.81,1974.25 457.80,1974.25 ' style='stroke-width: 1.16; stroke-linecap: butt;' clip-path='url(#cpMC4wMHwxNTg0LjAwfDIxNjAuMDB8MC4wMA==)' />
<polyline points='454.81,1959.94 457.80,1959.94 ' style='stroke-width: 1.16; stroke-linecap: butt;' clip-path='url(#cpMC4wMHwxNTg0LjAwfDIxNjAuMDB8MC4wMA==)' />
<polyline points='454.81,1945.62 457.80,1945.62 ' style='stroke-width: 1.16; stroke-linecap: butt;' clip-path='url(#cpMC4wMHwxNTg0LjAwfDIxNjAuMDB8MC4wMA==)' />
<polyline points='454.81,1931.30 457.80,1931.30 ' style='stroke-width: 1.16; stroke-linecap: butt;' clip-path='url(#cpMC4wMHwxNTg0LjAwfDIxNjAuMDB8MC4wMA==)' />
<polyline points='454.81,1916.99 457.80,1916.99 ' style='stroke-width: 1.16; stroke-linecap: butt;' clip-path='url(#cpMC4wMHwxNTg0LjAwfDIxNjAuMDB8MC4wMA==)' />
<polyline points='454.81,1902.67 457.80,1902.67 ' style='stroke-width: 1.16; stroke-linecap: butt;' clip-path='url(#cpMC4wMHwxNTg0LjAwfDIxNjAuMDB8MC4wMA==)' />
<polyline points='454.81,1888.35 457.80,1888.35 ' style='stroke-width: 1.16; stroke-linecap: butt;' clip-path='url(#cpMC4wMHwxNTg0LjAwfDIxNjAuMDB8MC4wMA==)' />
<polyline points='454.81,1874.03 457.80,1874.03 ' style='stroke-width: 1.16; stroke-linecap: butt;' clip-path='url(#cpMC4wMHwxNTg0LjAwfDIxNjAuMDB8MC4wMA==)' />
<polyline points='454.81,1859.72 457.80,1859.72 ' style='stroke-width: 1.16; stroke-linecap: butt;' clip-path='url(#cpMC4wMHwxNTg0LjAwfDIxNjAuMDB8MC4wMA==)' />
<polyline points='454.81,1845.40 457.80,1845.40 ' style='stroke-width: 1.16; stroke-linecap: butt;' clip-path='url(#cpMC4wMHwxNTg0LjAwfDIxNjAuMDB8MC4wMA==)' />
<polyline points='454.81,1831.08 457.80,1831.08 ' style='stroke-width: 1.16; stroke-linecap: butt;' clip-path='url(#cpMC4wMHwxNTg0LjAwfDIxNjAuMDB8MC4wMA==)' />
<polyline points='454.81,1816.77 457.80,1816.77 ' style='stroke-width: 1.16; stroke-linecap: butt;' clip-path='url(#cpMC4wMHwxNTg0LjAwfDIxNjAuMDB8MC4wMA==)' />
<polyline points='454.81,1802.45 457.80,1802.45 ' style='stroke-width: 1.16; stroke-linecap: butt;' clip-path='url(#cpMC4wMHwxNTg0LjAwfDIxNjAuMDB8MC4wMA==)' />
<polyline points='454.81,1788.13 457.80,1788.13 ' style='stroke-width: 1.16; stroke-linecap: butt;' clip-path='url(#cpMC4wMHwxNTg0LjAwfDIxNjAuMDB8MC4wMA==)' />
<polyline points='454.81,1773.81 457.80,1773.81 ' style='stroke-width: 1.16; stroke-linecap: butt;' clip-path='url(#cpMC4wMHwxNTg0LjAwfDIxNjAuMDB8MC4wMA==)' />
<polyline points='454.81,1759.50 457.80,1759.50 ' style='stroke-width: 1.16; stroke-linecap: butt;' clip-path='url(#cpMC4wMHwxNTg0LjAwfDIxNjAuMDB8MC4wMA==)' />
<polyline points='454.81,1745.18 457.80,1745.18 ' style='stroke-width: 1.16; stroke-linecap: butt;' clip-path='url(#cpMC4wMHwxNTg0LjAwfDIxNjAuMDB8MC4wMA==)' />
<polyline points='454.81,1730.86 457.80,1730.86 ' style='stroke-width: 1.16; stroke-linecap: butt;' clip-path='url(#cpMC4wMHwxNTg0LjAwfDIxNjAuMDB8MC4wMA==)' />
<polyline points='454.81,1716.55 457.80,1716.55 ' style='stroke-width: 1.16; stroke-linecap: butt;' clip-path='url(#cpMC4wMHwxNTg0LjAwfDIxNjAuMDB8MC4wMA==)' />
<polyline points='454.81,1702.23 457.80,1702.23 ' style='stroke-width: 1.16; stroke-linecap: butt;' clip-path='url(#cpMC4wMHwxNTg0LjAwfDIxNjAuMDB8MC4wMA==)' />
<polyline points='454.81,1687.91 457.80,1687.91 ' style='stroke-width: 1.16; stroke-linecap: butt;' clip-path='url(#cpMC4wMHwxNTg0LjAwfDIxNjAuMDB8MC4wMA==)' />
<polyline points='454.81,1673.59 457.80,1673.59 ' style='stroke-width: 1.16; stroke-linecap: butt;' clip-path='url(#cpMC4wMHwxNTg0LjAwfDIxNjAuMDB8MC4wMA==)' />
<polyline points='454.81,1659.28 457.80,1659.28 ' style='stroke-width: 1.16; stroke-linecap: butt;' clip-path='url(#cpMC4wMHwxNTg0LjAwfDIxNjAuMDB8MC4wMA==)' />
<polyline points='454.81,1644.96 457.80,1644.96 ' style='stroke-width: 1.16; stroke-linecap: butt;' clip-path='url(#cpMC4wMHwxNTg0LjAwfDIxNjAuMDB8MC4wMA==)' />
<polyline points='454.81,1630.64 457.80,1630.64 ' style='stroke-width: 1.16; stroke-linecap: butt;' clip-path='url(#cpMC4wMHwxNTg0LjAwfDIxNjAuMDB8MC4wMA==)' />
<polyline points='454.81,1616.33 457.80,1616.33 ' style='stroke-width: 1.16; stroke-linecap: butt;' clip-path='url(#cpMC4wMHwxNTg0LjAwfDIxNjAuMDB8MC4wMA==)' />
<polyline points='454.81,1602.01 457.80,1602.01 ' style='stroke-width: 1.16; stroke-linecap: butt;' clip-path='url(#cpMC4wMHwxNTg0LjAwfDIxNjAuMDB8MC4wMA==)' />
<polyline points='454.81,1587.69 457.80,1587.69 ' style='stroke-width: 1.16; stroke-linecap: butt;' clip-path='url(#cpMC4wMHwxNTg0LjAwfDIxNjAuMDB8MC4wMA==)' />
<polyline points='454.81,1573.37 457.80,1573.37 ' style='stroke-width: 1.16; stroke-linecap: butt;' clip-path='url(#cpMC4wMHwxNTg0LjAwfDIxNjAuMDB8MC4wMA==)' />
<polyline points='454.81,1559.06 457.80,1559.06 ' style='stroke-width: 1.16; stroke-linecap: butt;' clip-path='url(#cpMC4wMHwxNTg0LjAwfDIxNjAuMDB8MC4wMA==)' />
<polyline points='454.81,1544.74 457.80,1544.74 ' style='stroke-width: 1.16; stroke-linecap: butt;' clip-path='url(#cpMC4wMHwxNTg0LjAwfDIxNjAuMDB8MC4wMA==)' />
<polyline points='454.81,1530.42 457.80,1530.42 ' style='stroke-width: 1.16; stroke-linecap: butt;' clip-path='url(#cpMC4wMHwxNTg0LjAwfDIxNjAuMDB8MC4wMA==)' />
<polyline points='454.81,1516.11 457.80,1516.11 ' style='stroke-width: 1.16; stroke-linecap: butt;' clip-path='url(#cpMC4wMHwxNTg0LjAwfDIxNjAuMDB8MC4wMA==)' />
<polyline points='454.81,1501.79 457.80,1501.79 ' style='stroke-width: 1.16; stroke-linecap: butt;' clip-path='url(#cpMC4wMHwxNTg0LjAwfDIxNjAuMDB8MC4wMA==)' />
<polyline points='454.81,1487.47 457.80,1487.47 ' style='stroke-width: 1.16; stroke-linecap: butt;' clip-path='url(#cpMC4wMHwxNTg0LjAwfDIxNjAuMDB8MC4wMA==)' />
<polyline points='454.81,1473.15 457.80,1473.15 ' style='stroke-width: 1.16; stroke-linecap: butt;' clip-path='url(#cpMC4wMHwxNTg0LjAwfDIxNjAuMDB8MC4wMA==)' />
<polyline points='454.81,1458.84 457.80,1458.84 ' style='stroke-width: 1.16; stroke-linecap: butt;' clip-path='url(#cpMC4wMHwxNTg0LjAwfDIxNjAuMDB8MC4wMA==)' />
<polyline points='454.81,1444.52 457.80,1444.52 ' style='stroke-width: 1.16; stroke-linecap: butt;' clip-path='url(#cpMC4wMHwxNTg0LjAwfDIxNjAuMDB8MC4wMA==)' />
<polyline points='454.81,1430.20 457.80,1430.20 ' style='stroke-width: 1.16; stroke-linecap: butt;' clip-path='url(#cpMC4wMHwxNTg0LjAwfDIxNjAuMDB8MC4wMA==)' />
<polyline points='454.81,1415.89 457.80,1415.89 ' style='stroke-width: 1.16; stroke-linecap: butt;' clip-path='url(#cpMC4wMHwxNTg0LjAwfDIxNjAuMDB8MC4wMA==)' />
<polyline points='454.81,1401.57 457.80,1401.57 ' style='stroke-width: 1.16; stroke-linecap: butt;' clip-path='url(#cpMC4wMHwxNTg0LjAwfDIxNjAuMDB8MC4wMA==)' />
<polyline points='454.81,1387.25 457.80,1387.25 ' style='stroke-width: 1.16; stroke-linecap: butt;' clip-path='url(#cpMC4wMHwxNTg0LjAwfDIxNjAuMDB8MC4wMA==)' />
<polyline points='454.81,1372.93 457.80,1372.93 ' style='stroke-width: 1.16; stroke-linecap: butt;' clip-path='url(#cpMC4wMHwxNTg0LjAwfDIxNjAuMDB8MC4wMA==)' />
<polyline points='454.81,1358.62 457.80,1358.62 ' style='stroke-width: 1.16; stroke-linecap: butt;' clip-path='url(#cpMC4wMHwxNTg0LjAwfDIxNjAuMDB8MC4wMA==)' />
<polyline points='454.81,1344.30 457.80,1344.30 ' style='stroke-width: 1.16; stroke-linecap: butt;' clip-path='url(#cpMC4wMHwxNTg0LjAwfDIxNjAuMDB8MC4wMA==)' />
<polyline points='454.81,1329.98 457.80,1329.98 ' style='stroke-width: 1.16; stroke-linecap: butt;' clip-path='url(#cpMC4wMHwxNTg0LjAwfDIxNjAuMDB8MC4wMA==)' />
<polyline points='454.81,1315.67 457.80,1315.67 ' style='stroke-width: 1.16; stroke-linecap: butt;' clip-path='url(#cpMC4wMHwxNTg0LjAwfDIxNjAuMDB8MC4wMA==)' />
<polyline points='454.81,1301.35 457.80,1301.35 ' style='stroke-width: 1.16; stroke-linecap: butt;' clip-path='url(#cpMC4wMHwxNTg0LjAwfDIxNjAuMDB8MC4wMA==)' />
<polyline points='454.81,1287.03 457.80,1287.03 ' style='stroke-width: 1.16; stroke-linecap: butt;' clip-path='url(#cpMC4wMHwxNTg0LjAwfDIxNjAuMDB8MC4wMA==)' />
<polyline points='454.81,1272.71 457.80,1272.71 ' style='stroke-width: 1.16; stroke-linecap: butt;' clip-path='url(#cpMC4wMHwxNTg0LjAwfDIxNjAuMDB8MC4wMA==)' />
<polyline points='454.81,1258.40 457.80,1258.40 ' style='stroke-width: 1.16; stroke-linecap: butt;' clip-path='url(#cpMC4wMHwxNTg0LjAwfDIxNjAuMDB8MC4wMA==)' />
<polyline points='454.81,1244.08 457.80,1244.08 ' style='stroke-width: 1.16; stroke-linecap: butt;' clip-path='url(#cpMC4wMHwxNTg0LjAwfDIxNjAuMDB8MC4wMA==)' />
<polyline points='454.81,1229.76 457.80,1229.76 ' style='stroke-width: 1.16; stroke-linecap: butt;' clip-path='url(#cpMC4wMHwxNTg0LjAwfDIxNjAuMDB8MC4wMA==)' />
<polyline points='454.81,1215.45 457.80,1215.45 ' style='stroke-width: 1.16; stroke-linecap: butt;' clip-path='url(#cpMC4wMHwxNTg0LjAwfDIxNjAuMDB8MC4wMA==)' />
<polyline points='454.81,1201.13 457.80,1201.13 ' style='stroke-width: 1.16; stroke-linecap: butt;' clip-path='url(#cpMC4wMHwxNTg0LjAwfDIxNjAuMDB8MC4wMA==)' />
<polyline points='454.81,1186.81 457.80,1186.81 ' style='stroke-width: 1.16; stroke-linecap: butt;' clip-path='url(#cpMC4wMHwxNTg0LjAwfDIxNjAuMDB8MC4wMA==)' />
<polyline points='454.81,1172.49 457.80,1172.49 ' style='stroke-width: 1.16; stroke-linecap: butt;' clip-path='url(#cpMC4wMHwxNTg0LjAwfDIxNjAuMDB8MC4wMA==)' />
<polyline points='454.81,1158.18 457.80,1158.18 ' style='stroke-width: 1.16; stroke-linecap: butt;' clip-path='url(#cpMC4wMHwxNTg0LjAwfDIxNjAuMDB8MC4wMA==)' />
<polyline points='454.81,1143.86 457.80,1143.86 ' style='stroke-width: 1.16; stroke-linecap: butt;' clip-path='url(#cpMC4wMHwxNTg0LjAwfDIxNjAuMDB8MC4wMA==)' />
<polyline points='454.81,1129.54 457.80,1129.54 ' style='stroke-width: 1.16; stroke-linecap: butt;' clip-path='url(#cpMC4wMHwxNTg0LjAwfDIxNjAuMDB8MC4wMA==)' />
<polyline points='454.81,1115.23 457.80,1115.23 ' style='stroke-width: 1.16; stroke-linecap: butt;' clip-path='url(#cpMC4wMHwxNTg0LjAwfDIxNjAuMDB8MC4wMA==)' />
<polyline points='454.81,1100.91 457.80,1100.91 ' style='stroke-width: 1.16; stroke-linecap: butt;' clip-path='url(#cpMC4wMHwxNTg0LjAwfDIxNjAuMDB8MC4wMA==)' />
<polyline points='454.81,1086.59 457.80,1086.59 ' style='stroke-width: 1.16; stroke-linecap: butt;' clip-path='url(#cpMC4wMHwxNTg0LjAwfDIxNjAuMDB8MC4wMA==)' />
<polyline points='454.81,1072.27 457.80,1072.27 ' style='stroke-width: 1.16; stroke-linecap: butt;' clip-path='url(#cpMC4wMHwxNTg0LjAwfDIxNjAuMDB8MC4wMA==)' />
<polyline points='454.81,1057.96 457.80,1057.96 ' style='stroke-width: 1.16; stroke-linecap: butt;' clip-path='url(#cpMC4wMHwxNTg0LjAwfDIxNjAuMDB8MC4wMA==)' />
<polyline points='454.81,1043.64 457.80,1043.64 ' style='stroke-width: 1.16; stroke-linecap: butt;' clip-path='url(#cpMC4wMHwxNTg0LjAwfDIxNjAuMDB8MC4wMA==)' />
<polyline points='454.81,1029.32 457.80,1029.32 ' style='stroke-width: 1.16; stroke-linecap: butt;' clip-path='url(#cpMC4wMHwxNTg0LjAwfDIxNjAuMDB8MC4wMA==)' />
<polyline points='454.81,1015.01 457.80,1015.01 ' style='stroke-width: 1.16; stroke-linecap: butt;' clip-path='url(#cpMC4wMHwxNTg0LjAwfDIxNjAuMDB8MC4wMA==)' />
<polyline points='454.81,1000.69 457.80,1000.69 ' style='stroke-width: 1.16; stroke-linecap: butt;' clip-path='url(#cpMC4wMHwxNTg0LjAwfDIxNjAuMDB8MC4wMA==)' />
<polyline points='454.81,986.37 457.80,986.37 ' style='stroke-width: 1.16; stroke-linecap: butt;' clip-path='url(#cpMC4wMHwxNTg0LjAwfDIxNjAuMDB8MC4wMA==)' />
<polyline points='454.81,972.05 457.80,972.05 ' style='stroke-width: 1.16; stroke-linecap: butt;' clip-path='url(#cpMC4wMHwxNTg0LjAwfDIxNjAuMDB8MC4wMA==)' />
<polyline points='454.81,957.74 457.80,957.74 ' style='stroke-width: 1.16; stroke-linecap: butt;' clip-path='url(#cpMC4wMHwxNTg0LjAwfDIxNjAuMDB8MC4wMA==)' />
<polyline points='454.81,943.42 457.80,943.42 ' style='stroke-width: 1.16; stroke-linecap: butt;' clip-path='url(#cpMC4wMHwxNTg0LjAwfDIxNjAuMDB8MC4wMA==)' />
<polyline points='454.81,929.10 457.80,929.10 ' style='stroke-width: 1.16; stroke-linecap: butt;' clip-path='url(#cpMC4wMHwxNTg0LjAwfDIxNjAuMDB8MC4wMA==)' />
<polyline points='454.81,914.79 457.80,914.79 ' style='stroke-width: 1.16; stroke-linecap: butt;' clip-path='url(#cpMC4wMHwxNTg0LjAwfDIxNjAuMDB8MC4wMA==)' />
<polyline points='454.81,900.47 457.80,900.47 ' style='stroke-width: 1.16; stroke-linecap: butt;' clip-path='url(#cpMC4wMHwxNTg0LjAwfDIxNjAuMDB8MC4wMA==)' />
<polyline points='454.81,886.15 457.80,886.15 ' style='stroke-width: 1.16; stroke-linecap: butt;' clip-path='url(#cpMC4wMHwxNTg0LjAwfDIxNjAuMDB8MC4wMA==)' />
<polyline points='454.81,871.83 457.80,871.83 ' style='stroke-width: 1.16; stroke-linecap: butt;' clip-path='url(#cpMC4wMHwxNTg0LjAwfDIxNjAuMDB8MC4wMA==)' />
<polyline points='454.81,857.52 457.80,857.52 ' style='stroke-width: 1.16; stroke-linecap: butt;' clip-path='url(#cpMC4wMHwxNTg0LjAwfDIxNjAuMDB8MC4wMA==)' />
<polyline points='454.81,843.20 457.80,843.20 ' style='stroke-width: 1.16; stroke-linecap: butt;' clip-path='url(#cpMC4wMHwxNTg0LjAwfDIxNjAuMDB8MC4wMA==)' />
<polyline points='454.81,828.88 457.80,828.88 ' style='stroke-width: 1.16; stroke-linecap: butt;' clip-path='url(#cpMC4wMHwxNTg0LjAwfDIxNjAuMDB8MC4wMA==)' />
<polyline points='454.81,814.57 457.80,814.57 ' style='stroke-width: 1.16; stroke-linecap: butt;' clip-path='url(#cpMC4wMHwxNTg0LjAwfDIxNjAuMDB8MC4wMA==)' />
<polyline points='454.81,800.25 457.80,800.25 ' style='stroke-width: 1.16; stroke-linecap: butt;' clip-path='url(#cpMC4wMHwxNTg0LjAwfDIxNjAuMDB8MC4wMA==)' />
<polyline points='454.81,785.93 457.80,785.93 ' style='stroke-width: 1.16; stroke-linecap: butt;' clip-path='url(#cpMC4wMHwxNTg0LjAwfDIxNjAuMDB8MC4wMA==)' />
<polyline points='454.81,771.62 457.80,771.62 ' style='stroke-width: 1.16; stroke-linecap: butt;' clip-path='url(#cpMC4wMHwxNTg0LjAwfDIxNjAuMDB8MC4wMA==)' />
<polyline points='454.81,757.30 457.80,757.30 ' style='stroke-width: 1.16; stroke-linecap: butt;' clip-path='url(#cpMC4wMHwxNTg0LjAwfDIxNjAuMDB8MC4wMA==)' />
<polyline points='454.81,742.98 457.80,742.98 ' style='stroke-width: 1.16; stroke-linecap: butt;' clip-path='url(#cpMC4wMHwxNTg0LjAwfDIxNjAuMDB8MC4wMA==)' />
<polyline points='454.81,728.66 457.80,728.66 ' style='stroke-width: 1.16; stroke-linecap: butt;' clip-path='url(#cpMC4wMHwxNTg0LjAwfDIxNjAuMDB8MC4wMA==)' />
<polyline points='454.81,714.35 457.80,714.35 ' style='stroke-width: 1.16; stroke-linecap: butt;' clip-path='url(#cpMC4wMHwxNTg0LjAwfDIxNjAuMDB8MC4wMA==)' />
<polyline points='454.81,700.03 457.80,700.03 ' style='stroke-width: 1.16; stroke-linecap: butt;' clip-path='url(#cpMC4wMHwxNTg0LjAwfDIxNjAuMDB8MC4wMA==)' />
<polyline points='454.81,685.71 457.80,685.71 ' style='stroke-width: 1.16; stroke-linecap: butt;' clip-path='url(#cpMC4wMHwxNTg0LjAwfDIxNjAuMDB8MC4wMA==)' />
<polyline points='454.81,671.40 457.80,671.40 ' style='stroke-width: 1.16; stroke-linecap: butt;' clip-path='url(#cpMC4wMHwxNTg0LjAwfDIxNjAuMDB8MC4wMA==)' />
<polyline points='454.81,657.08 457.80,657.08 ' style='stroke-width: 1.16; stroke-linecap: butt;' clip-path='url(#cpMC4wMHwxNTg0LjAwfDIxNjAuMDB8MC4wMA==)' />
<polyline points='454.81,642.76 457.80,642.76 ' style='stroke-width: 1.16; stroke-linecap: butt;' clip-path='url(#cpMC4wMHwxNTg0LjAwfDIxNjAuMDB8MC4wMA==)' />
<polyline points='454.81,628.44 457.80,628.44 ' style='stroke-width: 1.16; stroke-linecap: butt;' clip-path='url(#cpMC4wMHwxNTg0LjAwfDIxNjAuMDB8MC4wMA==)' />
<polyline points='454.81,614.13 457.80,614.13 ' style='stroke-width: 1.16; stroke-linecap: butt;' clip-path='url(#cpMC4wMHwxNTg0LjAwfDIxNjAuMDB8MC4wMA==)' />
<polyline points='454.81,599.81 457.80,599.81 ' style='stroke-width: 1.16; stroke-linecap: butt;' clip-path='url(#cpMC4wMHwxNTg0LjAwfDIxNjAuMDB8MC4wMA==)' />
<polyline points='454.81,585.49 457.80,585.49 ' style='stroke-width: 1.16; stroke-linecap: butt;' clip-path='url(#cpMC4wMHwxNTg0LjAwfDIxNjAuMDB8MC4wMA==)' />
<polyline points='454.81,571.18 457.80,571.18 ' style='stroke-width: 1.16; stroke-linecap: butt;' clip-path='url(#cpMC4wMHwxNTg0LjAwfDIxNjAuMDB8MC4wMA==)' />
<polyline points='454.81,556.86 457.80,556.86 ' style='stroke-width: 1.16; stroke-linecap: butt;' clip-path='url(#cpMC4wMHwxNTg0LjAwfDIxNjAuMDB8MC4wMA==)' />
<polyline points='454.81,542.54 457.80,542.54 ' style='stroke-width: 1.16; stroke-linecap: butt;' clip-path='url(#cpMC4wMHwxNTg0LjAwfDIxNjAuMDB8MC4wMA==)' />
<polyline points='454.81,528.22 457.80,528.22 ' style='stroke-width: 1.16; stroke-linecap: butt;' clip-path='url(#cpMC4wMHwxNTg0LjAwfDIxNjAuMDB8MC4wMA==)' />
<polyline points='454.81,513.91 457.80,513.91 ' style='stroke-width: 1.16; stroke-linecap: butt;' clip-path='url(#cpMC4wMHwxNTg0LjAwfDIxNjAuMDB8MC4wMA==)' />
<polyline points='454.81,499.59 457.80,499.59 ' style='stroke-width: 1.16; stroke-linecap: butt;' clip-path='url(#cpMC4wMHwxNTg0LjAwfDIxNjAuMDB8MC4wMA==)' />
<polyline points='454.81,485.27 457.80,485.27 ' style='stroke-width: 1.16; stroke-linecap: butt;' clip-path='url(#cpMC4wMHwxNTg0LjAwfDIxNjAuMDB8MC4wMA==)' />
<polyline points='454.81,470.96 457.80,470.96 ' style='stroke-width: 1.16; stroke-linecap: butt;' clip-path='url(#cpMC4wMHwxNTg0LjAwfDIxNjAuMDB8MC4wMA==)' />
<polyline points='454.81,456.64 457.80,456.64 ' style='stroke-width: 1.16; stroke-linecap: butt;' clip-path='url(#cpMC4wMHwxNTg0LjAwfDIxNjAuMDB8MC4wMA==)' />
<polyline points='454.81,442.32 457.80,442.32 ' style='stroke-width: 1.16; stroke-linecap: butt;' clip-path='url(#cpMC4wMHwxNTg0LjAwfDIxNjAuMDB8MC4wMA==)' />
<polyline points='454.81,428.00 457.80,428.00 ' style='stroke-width: 1.16; stroke-linecap: butt;' clip-path='url(#cpMC4wMHwxNTg0LjAwfDIxNjAuMDB8MC4wMA==)' />
<polyline points='454.81,413.69 457.80,413.69 ' style='stroke-width: 1.16; stroke-linecap: butt;' clip-path='url(#cpMC4wMHwxNTg0LjAwfDIxNjAuMDB8MC4wMA==)' />
<polyline points='454.81,399.37 457.80,399.37 ' style='stroke-width: 1.16; stroke-linecap: butt;' clip-path='url(#cpMC4wMHwxNTg0LjAwfDIxNjAuMDB8MC4wMA==)' />
<polyline points='454.81,385.05 457.80,385.05 ' style='stroke-width: 1.16; stroke-linecap: butt;' clip-path='url(#cpMC4wMHwxNTg0LjAwfDIxNjAuMDB8MC4wMA==)' />
<polyline points='454.81,370.74 457.80,370.74 ' style='stroke-width: 1.16; stroke-linecap: butt;' clip-path='url(#cpMC4wMHwxNTg0LjAwfDIxNjAuMDB8MC4wMA==)' />
<polyline points='454.81,356.42 457.80,356.42 ' style='stroke-width: 1.16; stroke-linecap: butt;' clip-path='url(#cpMC4wMHwxNTg0LjAwfDIxNjAuMDB8MC4wMA==)' />
<polyline points='454.81,342.10 457.80,342.10 ' style='stroke-width: 1.16; stroke-linecap: butt;' clip-path='url(#cpMC4wMHwxNTg0LjAwfDIxNjAuMDB8MC4wMA==)' />
<polyline points='454.81,327.78 457.80,327.78 ' style='stroke-width: 1.16; stroke-linecap: butt;' clip-path='url(#cpMC4wMHwxNTg0LjAwfDIxNjAuMDB8MC4wMA==)' />
<polyline points='454.81,313.47 457.80,313.47 ' style='stroke-width: 1.16; stroke-linecap: butt;' clip-path='url(#cpMC4wMHwxNTg0LjAwfDIxNjAuMDB8MC4wMA==)' />
<polyline points='454.81,299.15 457.80,299.15 ' style='stroke-width: 1.16; stroke-linecap: butt;' clip-path='url(#cpMC4wMHwxNTg0LjAwfDIxNjAuMDB8MC4wMA==)' />
<polyline points='454.81,284.83 457.80,284.83 ' style='stroke-width: 1.16; stroke-linecap: butt;' clip-path='url(#cpMC4wMHwxNTg0LjAwfDIxNjAuMDB8MC4wMA==)' />
<polyline points='454.81,270.52 457.80,270.52 ' style='stroke-width: 1.16; stroke-linecap: butt;' clip-path='url(#cpMC4wMHwxNTg0LjAwfDIxNjAuMDB8MC4wMA==)' />
<polyline points='454.81,256.20 457.80,256.20 ' style='stroke-width: 1.16; stroke-linecap: butt;' clip-path='url(#cpMC4wMHwxNTg0LjAwfDIxNjAuMDB8MC4wMA==)' />
<polyline points='454.81,241.88 457.80,241.88 ' style='stroke-width: 1.16; stroke-linecap: butt;' clip-path='url(#cpMC4wMHwxNTg0LjAwfDIxNjAuMDB8MC4wMA==)' />
<polyline points='454.81,227.56 457.80,227.56 ' style='stroke-width: 1.16; stroke-linecap: butt;' clip-path='url(#cpMC4wMHwxNTg0LjAwfDIxNjAuMDB8MC4wMA==)' />
<polyline points='454.81,213.25 457.80,213.25 ' style='stroke-width: 1.16; stroke-linecap: butt;' clip-path='url(#cpMC4wMHwxNTg0LjAwfDIxNjAuMDB8MC4wMA==)' />
<polyline points='454.81,198.93 457.80,198.93 ' style='stroke-width: 1.16; stroke-linecap: butt;' clip-path='url(#cpMC4wMHwxNTg0LjAwfDIxNjAuMDB8MC4wMA==)' />
<polyline points='454.81,184.61 457.80,184.61 ' style='stroke-width: 1.16; stroke-linecap: butt;' clip-path='url(#cpMC4wMHwxNTg0LjAwfDIxNjAuMDB8MC4wMA==)' />
<polyline points='454.81,170.30 457.80,170.30 ' style='stroke-width: 1.16; stroke-linecap: butt;' clip-path='url(#cpMC4wMHwxNTg0LjAwfDIxNjAuMDB8MC4wMA==)' />
<polyline points='454.81,155.98 457.80,155.98 ' style='stroke-width: 1.16; stroke-linecap: butt;' clip-path='url(#cpMC4wMHwxNTg0LjAwfDIxNjAuMDB8MC4wMA==)' />
<polyline points='454.81,141.66 457.80,141.66 ' style='stroke-width: 1.16; stroke-linecap: butt;' clip-path='url(#cpMC4wMHwxNTg0LjAwfDIxNjAuMDB8MC4wMA==)' />
<polyline points='454.81,127.34 457.80,127.34 ' style='stroke-width: 1.16; stroke-linecap: butt;' clip-path='url(#cpMC4wMHwxNTg0LjAwfDIxNjAuMDB8MC4wMA==)' />
<polyline points='454.81,113.03 457.80,113.03 ' style='stroke-width: 1.16; stroke-linecap: butt;' clip-path='url(#cpMC4wMHwxNTg0LjAwfDIxNjAuMDB8MC4wMA==)' />
<polyline points='454.81,98.71 457.80,98.71 ' style='stroke-width: 1.16; stroke-linecap: butt;' clip-path='url(#cpMC4wMHwxNTg0LjAwfDIxNjAuMDB8MC4wMA==)' />
<polyline points='454.81,84.39 457.80,84.39 ' style='stroke-width: 1.16; stroke-linecap: butt;' clip-path='url(#cpMC4wMHwxNTg0LjAwfDIxNjAuMDB8MC4wMA==)' />
<polyline points='454.81,70.08 457.80,70.08 ' style='stroke-width: 1.16; stroke-linecap: butt;' clip-path='url(#cpMC4wMHwxNTg0LjAwfDIxNjAuMDB8MC4wMA==)' />
<polyline points='454.81,55.76 457.80,55.76 ' style='stroke-width: 1.16; stroke-linecap: butt;' clip-path='url(#cpMC4wMHwxNTg0LjAwfDIxNjAuMDB8MC4wMA==)' />
<polyline points='457.80,2126.02 1578.02,2126.02 ' style='stroke-width: 1.07; stroke-linecap: butt;' clip-path='url(#cpMC4wMHwxNTg0LjAwfDIxNjAuMDB8MC4wMA==)' />
<polyline points='495.21,2129.00 495.21,2126.02 ' style='stroke-width: 1.16; stroke-linecap: butt;' clip-path='url(#cpMC4wMHwxNTg0LjAwfDIxNjAuMDB8MC4wMA==)' />
<polyline points='763.18,2129.00 763.18,2126.02 ' style='stroke-width: 1.16; stroke-linecap: butt;' clip-path='url(#cpMC4wMHwxNTg0LjAwfDIxNjAuMDB8MC4wMA==)' />
<polyline points='1031.15,2129.00 1031.15,2126.02 ' style='stroke-width: 1.16; stroke-linecap: butt;' clip-path='url(#cpMC4wMHwxNTg0LjAwfDIxNjAuMDB8MC4wMA==)' />
<polyline points='1299.12,2129.00 1299.12,2126.02 ' style='stroke-width: 1.16; stroke-linecap: butt;' clip-path='url(#cpMC4wMHwxNTg0LjAwfDIxNjAuMDB8MC4wMA==)' />
<polyline points='1567.09,2129.00 1567.09,2126.02 ' style='stroke-width: 1.16; stroke-linecap: butt;' clip-path='url(#cpMC4wMHwxNTg0LjAwfDIxNjAuMDB8MC4wMA==)' />
<g clip-path='url(#cpMC4wMHwxNTg0LjAwfDIxNjAuMDB8MC4wMA==)'><text transform='translate(502.09,2140.29) rotate(-90)' style='font-size: 10.00px; font-family: Arimo;' textLength='8.89px' lengthAdjust='spacingAndGlyphs'>-6</text></g>
<g clip-path='url(#cpMC4wMHwxNTg0LjAwfDIxNjAuMDB8MC4wMA==)'><text transform='translate(770.06,2140.29) rotate(-90)' style='font-size: 10.00px; font-family: Arimo;' textLength='8.89px' lengthAdjust='spacingAndGlyphs'>-3</text></g>
<g clip-path='url(#cpMC4wMHwxNTg0LjAwfDIxNjAuMDB8MC4wMA==)'><text transform='translate(1038.03,2136.96) rotate(-90)' style='font-size: 10.00px; font-family: Arimo;' textLength='5.56px' lengthAdjust='spacingAndGlyphs'>0</text></g>
<g clip-path='url(#cpMC4wMHwxNTg0LjAwfDIxNjAuMDB8MC4wMA==)'><text transform='translate(1306.00,2136.96) rotate(-90)' style='font-size: 10.00px; font-family: Arimo;' textLength='5.56px' lengthAdjust='spacingAndGlyphs'>3</text></g>
<g clip-path='url(#cpMC4wMHwxNTg0LjAwfDIxNjAuMDB8MC4wMA==)'><text transform='translate(1573.97,2136.96) rotate(-90)' style='font-size: 10.00px; font-family: Arimo;' textLength='5.56px' lengthAdjust='spacingAndGlyphs'>6</text></g>
<g clip-path='url(#cpMC4wMHwxNTg0LjAwfDIxNjAuMDB8MC4wMA==)'><text x='969.56' y='2151.53' style='font-size: 12.00px; font-family: Arimo;' textLength='96.71px' lengthAdjust='spacingAndGlyphs'>LDA score (log10)</text></g>
<g clip-path='url(#cpMC4wMHwxNTg0LjAwfDIxNjAuMDB8MC4wMA==)'><text transform='translate(14.23,1101.60) rotate(-90)' style='font-size: 12.00px; font-family: Arimo;' textLength='30.02px' lengthAdjust='spacingAndGlyphs'>name</text></g>
<rect x='899.79' y='5.98' width='236.25' height='29.24' style='stroke-width: 1.16; stroke: none; fill: #FFFFFF;' clip-path='url(#cpMC4wMHwxNTg0LjAwfDIxNjAuMDB8MC4wMA==)' />
<g clip-path='url(#cpMC4wMHwxNTg0LjAwfDIxNjAuMDB8MC4wMA==)'><text x='905.76' y='24.72' style='font-size: 12.00px; font-family: Arimo;' textLength='30.69px' lengthAdjust='spacingAndGlyphs'>group</text></g>
<rect x='943.14' y='12.66' width='15.86' height='15.86' style='stroke-width: 1.07; stroke: #FFFFFF; stroke-linecap: square; stroke-linejoin: miter; fill: #3CB44B;' clip-path='url(#cpMC4wMHwxNTg0LjAwfDIxNjAuMDB8MC4wMA==)' />
<rect x='1047.03' y='12.66' width='15.86' height='15.86' style='stroke-width: 1.07; stroke: #FFFFFF; stroke-linecap: square; stroke-linejoin: miter; fill: #FFE119;' clip-path='url(#cpMC4wMHwxNTg0LjAwfDIxNjAuMDB8MC4wMA==)' />
<g clip-path='url(#cpMC4wMHwxNTg0LjAwfDIxNjAuMDB8MC4wMA==)'><text x='965.69' y='26.44' style='font-size: 17.00px; font-family: Arimo;' textLength='74.66px' lengthAdjust='spacingAndGlyphs'>31.25mpk</text></g>
<g clip-path='url(#cpMC4wMHwxNTg0LjAwfDIxNjAuMDB8MC4wMA==)'><text x='1069.58' y='26.44' style='font-size: 17.00px; font-family: Arimo;' textLength='60.48px' lengthAdjust='spacingAndGlyphs'>500mpk</text></g>
</svg>
