"#NAME","establishment","Project","Model","Group_Drug","Dosage","age","X_number"
"E2028","GV","ONC-2020-013","Hepa1_6_4_2","Vehicle","01_0mpk","4",2
"E2035","GV","ONC-2020-013","Hepa1_6_4_2","Vehicle","01_0mpk","4",1
"E2036","GV","ONC-2020-013","Hepa1_6_4_2","Vehicle","01_0mpk","4",1
"E2038","GV","ONC-2020-013","Hepa1_6_4_2","Vehicle","01_0mpk","4",1
"E2047","GV","ONC-2020-013","Hepa1_6_4_2","Vehicle","01_0mpk","4",2
"E2048","GV","ONC-2020-013","Hepa1_6_4_2","Vehicle","01_0mpk","4",2
"E2049","GV","ONC-2020-013","Hepa1_6_4_2","Vehicle","01_0mpk","4",2
"E2031","GV","ONC-2020-013","Hepa1_6_4_2","GV009","02_31.25mpk","4",3
"E2033","GV","ONC-2020-013","Hepa1_6_4_2","GV009","02_31.25mpk","4",3
"E2034","GV","ONC-2020-013","Hepa1_6_4_2","GV009","02_31.25mpk","4",3
"E2043","GV","ONC-2020-013","Hepa1_6_4_2","GV009","02_31.25mpk","4",4
"E2044","GV","ONC-2020-013","Hepa1_6_4_2","GV009","02_31.25mpk","4",4
"E2045","GV","ONC-2020-013","Hepa1_6_4_2","GV009","02_31.25mpk","4",4
"E2046","GV","ONC-2020-013","Hepa1_6_4_2","GV009","02_31.25mpk","4",4
"E2030","GV","ONC-2020-013","Hepa1_6_4_2","GV009","03_125mpk","4",5
"E2051","GV","ONC-2020-013","Hepa1_6_4_2","GV009","03_125mpk","4",5
"E2052","GV","ONC-2020-013","Hepa1_6_4_2","GV009","03_125mpk","4",5
"E2053","GV","ONC-2020-013","Hepa1_6_4_2","GV009","03_125mpk","4",5
"E2054","GV","ONC-2020-013","Hepa1_6_4_2","GV009","03_125mpk","4",5
"E2055","GV","ONC-2020-013","Hepa1_6_4_2","GV009","03_125mpk","4",6
"E2056","GV","ONC-2020-013","Hepa1_6_4_2","GV009","03_125mpk","4",6
"E2057","GV","ONC-2020-013","Hepa1_6_4_2","GV009","03_125mpk","4",6
"E2058","GV","ONC-2020-013","Hepa1_6_4_2","GV009","03_125mpk","4",6
"E2027","GV","ONC-2020-013","Hepa1_6_4_2","GV009","04_500mpk","4",8
"E2029","GV","ONC-2020-013","Hepa1_6_4_2","GV009","04_500mpk","4",7
"E2039","GV","ONC-2020-013","Hepa1_6_4_2","GV009","04_500mpk","4",7
"E2041","GV","ONC-2020-013","Hepa1_6_4_2","GV009","04_500mpk","4",7
"E2042","GV","ONC-2020-013","Hepa1_6_4_2","GV009","04_500mpk","4",7
"E2059","GV","ONC-2020-013","Hepa1_6_4_2","GV009","04_500mpk","4",8
"E2061","GV","ONC-2020-013","Hepa1_6_4_2","GV009","04_500mpk","4",8
"E2062","GV","ONC-2020-013","Hepa1_6_4_2","GV009","04_500mpk","4",8
