<?xml version='1.0' encoding='UTF-8' ?>
<svg xmlns='http://www.w3.org/2000/svg' xmlns:xlink='http://www.w3.org/1999/xlink' viewBox='0 0 432.00 576.00'>
<defs>
  <style type='text/css'><![CDATA[
    line, polyline, polygon, path, rect, circle {
      fill: none;
      stroke: #000000;
      stroke-linecap: round;
      stroke-linejoin: round;
      stroke-miterlimit: 10.00;
    }
  ]]></style>
</defs>
<rect width='100%' height='100%' style='stroke: none; fill: #FFFFFF;'/>
<defs>
  <clipPath id='cpMzcuNjh8MzE3LjQzfDU0OS40Mnw1LjQ4'>
    <rect x='37.68' y='5.48' width='279.75' height='543.94' />
  </clipPath>
</defs>
<polyline points='37.68,462.88 317.43,462.88 ' style='stroke-width: 0.53; stroke: #EBEBEB; stroke-linecap: butt;' clip-path='url(#cpMzcuNjh8MzE3LjQzfDU0OS40Mnw1LjQ4)' />
<polyline points='37.68,339.26 317.43,339.26 ' style='stroke-width: 0.53; stroke: #EBEBEB; stroke-linecap: butt;' clip-path='url(#cpMzcuNjh8MzE3LjQzfDU0OS40Mnw1LjQ4)' />
<polyline points='37.68,215.64 317.43,215.64 ' style='stroke-width: 0.53; stroke: #EBEBEB; stroke-linecap: butt;' clip-path='url(#cpMzcuNjh8MzE3LjQzfDU0OS40Mnw1LjQ4)' />
<polyline points='37.68,92.01 317.43,92.01 ' style='stroke-width: 0.53; stroke: #EBEBEB; stroke-linecap: butt;' clip-path='url(#cpMzcuNjh8MzE3LjQzfDU0OS40Mnw1LjQ4)' />
<polyline points='37.68,524.69 317.43,524.69 ' style='stroke-width: 1.07; stroke: #EBEBEB; stroke-linecap: butt;' clip-path='url(#cpMzcuNjh8MzE3LjQzfDU0OS40Mnw1LjQ4)' />
<polyline points='37.68,401.07 317.43,401.07 ' style='stroke-width: 1.07; stroke: #EBEBEB; stroke-linecap: butt;' clip-path='url(#cpMzcuNjh8MzE3LjQzfDU0OS40Mnw1LjQ4)' />
<polyline points='37.68,277.45 317.43,277.45 ' style='stroke-width: 1.07; stroke: #EBEBEB; stroke-linecap: butt;' clip-path='url(#cpMzcuNjh8MzE3LjQzfDU0OS40Mnw1LjQ4)' />
<polyline points='37.68,153.83 317.43,153.83 ' style='stroke-width: 1.07; stroke: #EBEBEB; stroke-linecap: butt;' clip-path='url(#cpMzcuNjh8MzE3LjQzfDU0OS40Mnw1LjQ4)' />
<polyline points='37.68,30.20 317.43,30.20 ' style='stroke-width: 1.07; stroke: #EBEBEB; stroke-linecap: butt;' clip-path='url(#cpMzcuNjh8MzE3LjQzfDU0OS40Mnw1LjQ4)' />
<polyline points='113.97,549.42 113.97,5.48 ' style='stroke-width: 1.07; stroke: #EBEBEB; stroke-linecap: butt;' clip-path='url(#cpMzcuNjh8MzE3LjQzfDU0OS40Mnw1LjQ4)' />
<polyline points='241.13,549.42 241.13,5.48 ' style='stroke-width: 1.07; stroke: #EBEBEB; stroke-linecap: butt;' clip-path='url(#cpMzcuNjh8MzE3LjQzfDU0OS40Mnw1LjQ4)' />
<rect x='56.75' y='30.20' width='114.44' height='3.62' style='stroke-width: 1.07; stroke-linecap: square; stroke-linejoin: miter; fill: #E6194B;' clip-path='url(#cpMzcuNjh8MzE3LjQzfDU0OS40Mnw1LjQ4)' />
<rect x='183.91' y='30.20' width='114.44' height='1.80' style='stroke-width: 1.07; stroke-linecap: square; stroke-linejoin: miter; fill: #E6194B;' clip-path='url(#cpMzcuNjh8MzE3LjQzfDU0OS40Mnw1LjQ4)' />
<rect x='183.91' y='32.01' width='114.44' height='310.36' style='stroke-width: 1.07; stroke-linecap: square; stroke-linejoin: miter; fill: #3CB44B;' clip-path='url(#cpMzcuNjh8MzE3LjQzfDU0OS40Mnw1LjQ4)' />
<rect x='56.75' y='33.82' width='114.44' height='308.80' style='stroke-width: 1.07; stroke-linecap: square; stroke-linejoin: miter; fill: #3CB44B;' clip-path='url(#cpMzcuNjh8MzE3LjQzfDU0OS40Mnw1LjQ4)' />
<rect x='56.75' y='342.62' width='114.44' height='32.41' style='stroke-width: 1.07; stroke-linecap: square; stroke-linejoin: miter; fill: #4363D8;' clip-path='url(#cpMzcuNjh8MzE3LjQzfDU0OS40Mnw1LjQ4)' />
<rect x='183.91' y='342.37' width='114.44' height='23.67' style='stroke-width: 1.07; stroke-linecap: square; stroke-linejoin: miter; fill: #4363D8;' clip-path='url(#cpMzcuNjh8MzE3LjQzfDU0OS40Mnw1LjQ4)' />
<rect x='183.91' y='366.04' width='114.44' height='2.51' style='stroke-width: 1.07; stroke-linecap: square; stroke-linejoin: miter; fill: #FFE119;' clip-path='url(#cpMzcuNjh8MzE3LjQzfDU0OS40Mnw1LjQ4)' />
<rect x='56.75' y='375.03' width='114.44' height='0.00' style='stroke-width: 1.07; stroke-linecap: square; stroke-linejoin: miter; fill: #FFE119;' clip-path='url(#cpMzcuNjh8MzE3LjQzfDU0OS40Mnw1LjQ4)' />
<rect x='183.91' y='368.55' width='114.44' height='3.32' style='stroke-width: 1.07; stroke-linecap: square; stroke-linejoin: miter; fill: #F58231;' clip-path='url(#cpMzcuNjh8MzE3LjQzfDU0OS40Mnw1LjQ4)' />
<rect x='56.75' y='375.03' width='114.44' height='0.00' style='stroke-width: 1.07; stroke-linecap: square; stroke-linejoin: miter; fill: #F58231;' clip-path='url(#cpMzcuNjh8MzE3LjQzfDU0OS40Mnw1LjQ4)' />
<rect x='56.75' y='375.03' width='114.44' height='145.79' style='stroke-width: 1.07; stroke-linecap: square; stroke-linejoin: miter; fill: #911EB4;' clip-path='url(#cpMzcuNjh8MzE3LjQzfDU0OS40Mnw1LjQ4)' />
<rect x='183.91' y='371.87' width='114.44' height='134.00' style='stroke-width: 1.07; stroke-linecap: square; stroke-linejoin: miter; fill: #911EB4;' clip-path='url(#cpMzcuNjh8MzE3LjQzfDU0OS40Mnw1LjQ4)' />
<rect x='183.91' y='505.87' width='114.44' height='0.77' style='stroke-width: 1.07; stroke-linecap: square; stroke-linejoin: miter; fill: #46F0F0;' clip-path='url(#cpMzcuNjh8MzE3LjQzfDU0OS40Mnw1LjQ4)' />
<rect x='56.75' y='520.83' width='114.44' height='0.027' style='stroke-width: 1.07; stroke-linecap: square; stroke-linejoin: miter; fill: #46F0F0;' clip-path='url(#cpMzcuNjh8MzE3LjQzfDU0OS40Mnw1LjQ4)' />
<rect x='183.91' y='506.64' width='114.44' height='2.13' style='stroke-width: 1.07; stroke-linecap: square; stroke-linejoin: miter; fill: #F032E6;' clip-path='url(#cpMzcuNjh8MzE3LjQzfDU0OS40Mnw1LjQ4)' />
<rect x='56.75' y='520.85' width='114.44' height='1.25' style='stroke-width: 1.07; stroke-linecap: square; stroke-linejoin: miter; fill: #F032E6;' clip-path='url(#cpMzcuNjh8MzE3LjQzfDU0OS40Mnw1LjQ4)' />
<rect x='56.75' y='522.11' width='114.44' height='0.17' style='stroke-width: 1.07; stroke-linecap: square; stroke-linejoin: miter; fill: #BCF60C;' clip-path='url(#cpMzcuNjh8MzE3LjQzfDU0OS40Mnw1LjQ4)' />
<rect x='183.91' y='508.77' width='114.44' height='0.047' style='stroke-width: 1.07; stroke-linecap: square; stroke-linejoin: miter; fill: #BCF60C;' clip-path='url(#cpMzcuNjh8MzE3LjQzfDU0OS40Mnw1LjQ4)' />
<rect x='183.91' y='508.82' width='114.44' height='15.88' style='stroke-width: 1.07; stroke-linecap: square; stroke-linejoin: miter; fill: #FABEBE;' clip-path='url(#cpMzcuNjh8MzE3LjQzfDU0OS40Mnw1LjQ4)' />
<rect x='56.75' y='522.27' width='114.44' height='2.42' style='stroke-width: 1.07; stroke-linecap: square; stroke-linejoin: miter; fill: #FABEBE;' clip-path='url(#cpMzcuNjh8MzE3LjQzfDU0OS40Mnw1LjQ4)' />
<defs>
  <clipPath id='cpMC4wMHw0MzIuMDB8NTc2LjAwfDAuMDA='>
    <rect x='0.00' y='0.00' width='432.00' height='576.00' />
  </clipPath>
</defs>
<g clip-path='url(#cpMC4wMHw0MzIuMDB8NTc2LjAwfDAuMDA=)'><text x='17.17' y='527.44' style='font-size: 8.00px; fill: #4D4D4D; font-family: Arimo;' textLength='15.57px' lengthAdjust='spacingAndGlyphs'>0.00</text></g>
<g clip-path='url(#cpMC4wMHw0MzIuMDB8NTc2LjAwfDAuMDA=)'><text x='17.17' y='403.82' style='font-size: 8.00px; fill: #4D4D4D; font-family: Arimo;' textLength='15.57px' lengthAdjust='spacingAndGlyphs'>0.25</text></g>
<g clip-path='url(#cpMC4wMHw0MzIuMDB8NTc2LjAwfDAuMDA=)'><text x='17.17' y='280.20' style='font-size: 8.00px; fill: #4D4D4D; font-family: Arimo;' textLength='15.57px' lengthAdjust='spacingAndGlyphs'>0.50</text></g>
<g clip-path='url(#cpMC4wMHw0MzIuMDB8NTc2LjAwfDAuMDA=)'><text x='17.17' y='156.58' style='font-size: 8.00px; fill: #4D4D4D; font-family: Arimo;' textLength='15.57px' lengthAdjust='spacingAndGlyphs'>0.75</text></g>
<g clip-path='url(#cpMC4wMHw0MzIuMDB8NTc2LjAwfDAuMDA=)'><text x='17.17' y='32.96' style='font-size: 8.00px; fill: #4D4D4D; font-family: Arimo;' textLength='15.57px' lengthAdjust='spacingAndGlyphs'>1.00</text></g>
<g clip-path='url(#cpMC4wMHw0MzIuMDB8NTc2LjAwfDAuMDA=)'><text x='107.44' y='557.79' style='font-size: 5.00px; font-weight: bold; fill: #4D4D4D; font-family: Arimo;' textLength='13.06px' lengthAdjust='spacingAndGlyphs'>0mpk</text></g>
<g clip-path='url(#cpMC4wMHw0MzIuMDB8NTc2LjAwfDAuMDA=)'><text x='229.74' y='557.79' style='font-size: 5.00px; font-weight: bold; fill: #4D4D4D; font-family: Arimo;' textLength='22.79px' lengthAdjust='spacingAndGlyphs'>31.25mpk</text></g>
<g clip-path='url(#cpMC4wMHw0MzIuMDB8NTc2LjAwfDAuMDA=)'><text transform='translate(12.36,331.37) rotate(-90)' style='font-size: 10.00px; font-family: Arimo;' textLength='107.84px' lengthAdjust='spacingAndGlyphs'>Relative Abundance (%)</text></g>
<g clip-path='url(#cpMC4wMHw0MzIuMDB8NTc2LjAwfDAuMDA=)'><text x='333.87' y='192.00' style='font-size: 10.00px; font-family: Arimo;' textLength='33.34px' lengthAdjust='spacingAndGlyphs'>Phylum</text></g>
<rect x='334.57' y='198.72' width='15.86' height='15.86' style='stroke-width: 1.07; stroke-linecap: square; stroke-linejoin: miter; fill: #E6194B;' clip-path='url(#cpMC4wMHw0MzIuMDB8NTc2LjAwfDAuMDA=)' />
<rect x='334.57' y='216.00' width='15.86' height='15.86' style='stroke-width: 1.07; stroke-linecap: square; stroke-linejoin: miter; fill: #3CB44B;' clip-path='url(#cpMC4wMHw0MzIuMDB8NTc2LjAwfDAuMDA=)' />
<rect x='334.57' y='233.28' width='15.86' height='15.86' style='stroke-width: 1.07; stroke-linecap: square; stroke-linejoin: miter; fill: #4363D8;' clip-path='url(#cpMC4wMHw0MzIuMDB8NTc2LjAwfDAuMDA=)' />
<rect x='334.57' y='250.56' width='15.86' height='15.86' style='stroke-width: 1.07; stroke-linecap: square; stroke-linejoin: miter; fill: #FFE119;' clip-path='url(#cpMC4wMHw0MzIuMDB8NTc2LjAwfDAuMDA=)' />
<rect x='334.57' y='267.84' width='15.86' height='15.86' style='stroke-width: 1.07; stroke-linecap: square; stroke-linejoin: miter; fill: #F58231;' clip-path='url(#cpMC4wMHw0MzIuMDB8NTc2LjAwfDAuMDA=)' />
<rect x='334.57' y='285.12' width='15.86' height='15.86' style='stroke-width: 1.07; stroke-linecap: square; stroke-linejoin: miter; fill: #911EB4;' clip-path='url(#cpMC4wMHw0MzIuMDB8NTc2LjAwfDAuMDA=)' />
<rect x='334.57' y='302.40' width='15.86' height='15.86' style='stroke-width: 1.07; stroke-linecap: square; stroke-linejoin: miter; fill: #46F0F0;' clip-path='url(#cpMC4wMHw0MzIuMDB8NTc2LjAwfDAuMDA=)' />
<rect x='334.57' y='319.68' width='15.86' height='15.86' style='stroke-width: 1.07; stroke-linecap: square; stroke-linejoin: miter; fill: #F032E6;' clip-path='url(#cpMC4wMHw0MzIuMDB8NTc2LjAwfDAuMDA=)' />
<rect x='334.57' y='336.96' width='15.86' height='15.86' style='stroke-width: 1.07; stroke-linecap: square; stroke-linejoin: miter; fill: #BCF60C;' clip-path='url(#cpMC4wMHw0MzIuMDB8NTc2LjAwfDAuMDA=)' />
<rect x='334.57' y='354.24' width='15.86' height='15.86' style='stroke-width: 1.07; stroke-linecap: square; stroke-linejoin: miter; fill: #FABEBE;' clip-path='url(#cpMC4wMHw0MzIuMDB8NTc2LjAwfDAuMDA=)' />
<g clip-path='url(#cpMC4wMHw0MzIuMDB8NTc2LjAwfDAuMDA=)'><text x='356.13' y='209.41' style='font-size: 8.00px; font-family: Arimo;' textLength='57.37px' lengthAdjust='spacingAndGlyphs'>Actinobacteriota</text></g>
<g clip-path='url(#cpMC4wMHw0MzIuMDB8NTc2LjAwfDAuMDA=)'><text x='356.13' y='226.69' style='font-size: 8.00px; font-family: Arimo;' textLength='44.92px' lengthAdjust='spacingAndGlyphs'>Bacteroidota</text></g>
<g clip-path='url(#cpMC4wMHw0MzIuMDB8NTc2LjAwfDAuMDA=)'><text x='356.13' y='243.97' style='font-size: 8.00px; font-family: Arimo;' textLength='62.70px' lengthAdjust='spacingAndGlyphs'>Campilobacterota</text></g>
<g clip-path='url(#cpMC4wMHw0MzIuMDB8NTc2LjAwfDAuMDA=)'><text x='356.13' y='261.25' style='font-size: 8.00px; font-family: Arimo;' textLength='57.36px' lengthAdjust='spacingAndGlyphs'>Deferribacterota</text></g>
<g clip-path='url(#cpMC4wMHw0MzIuMDB8NTc2LjAwfDAuMDA=)'><text x='356.13' y='278.53' style='font-size: 8.00px; font-family: Arimo;' textLength='60.48px' lengthAdjust='spacingAndGlyphs'>Desulfobacterota</text></g>
<g clip-path='url(#cpMC4wMHw0MzIuMDB8NTc2LjAwfDAuMDA=)'><text x='356.13' y='295.81' style='font-size: 8.00px; font-family: Arimo;' textLength='36.89px' lengthAdjust='spacingAndGlyphs'>Firmicutes</text></g>
<g clip-path='url(#cpMC4wMHw0MzIuMDB8NTc2LjAwfDAuMDA=)'><text x='356.13' y='313.09' style='font-size: 8.00px; font-family: Arimo;' textLength='54.70px' lengthAdjust='spacingAndGlyphs'>Patescibacteria</text></g>
<g clip-path='url(#cpMC4wMHw0MzIuMDB8NTc2LjAwfDAuMDA=)'><text x='356.13' y='330.37' style='font-size: 8.00px; font-family: Arimo;' textLength='52.03px' lengthAdjust='spacingAndGlyphs'>Proteobacteria</text></g>
<g clip-path='url(#cpMC4wMHw0MzIuMDB8NTc2LjAwfDAuMDA=)'><text x='356.13' y='347.65' style='font-size: 8.00px; font-family: Arimo;' textLength='33.35px' lengthAdjust='spacingAndGlyphs'>Unknown</text></g>
<g clip-path='url(#cpMC4wMHw0MzIuMDB8NTc2LjAwfDAuMDA=)'><text x='356.13' y='364.93' style='font-size: 8.00px; font-family: Arimo;' textLength='64.91px' lengthAdjust='spacingAndGlyphs'>Verrucomicrobiota</text></g>
</svg>
