<?xml version='1.0' encoding='UTF-8' ?>
<svg xmlns='http://www.w3.org/2000/svg' xmlns:xlink='http://www.w3.org/1999/xlink' viewBox='0 0 432.00 576.00'>
<defs>
  <style type='text/css'><![CDATA[
    line, polyline, polygon, path, rect, circle {
      fill: none;
      stroke: #000000;
      stroke-linecap: round;
      stroke-linejoin: round;
      stroke-miterlimit: 10.00;
    }
  ]]></style>
</defs>
<rect width='100%' height='100%' style='stroke: none; fill: #FFFFFF;'/>
<defs>
  <clipPath id='cpMzguMTJ8MjU2Ljk1fDU0OS40Mnw1LjQ4'>
    <rect x='38.12' y='5.48' width='218.84' height='543.94' />
  </clipPath>
</defs>
<polyline points='38.12,504.27 256.95,504.27 ' style='stroke-width: 0.53; stroke: #EBEBEB; stroke-linecap: butt;' clip-path='url(#cpMzguMTJ8MjU2Ljk1fDU0OS40Mnw1LjQ4)' />
<polyline points='38.12,415.25 256.95,415.25 ' style='stroke-width: 0.53; stroke: #EBEBEB; stroke-linecap: butt;' clip-path='url(#cpMzguMTJ8MjU2Ljk1fDU0OS40Mnw1LjQ4)' />
<polyline points='38.12,326.23 256.95,326.23 ' style='stroke-width: 0.53; stroke: #EBEBEB; stroke-linecap: butt;' clip-path='url(#cpMzguMTJ8MjU2Ljk1fDU0OS40Mnw1LjQ4)' />
<polyline points='38.12,237.22 256.95,237.22 ' style='stroke-width: 0.53; stroke: #EBEBEB; stroke-linecap: butt;' clip-path='url(#cpMzguMTJ8MjU2Ljk1fDU0OS40Mnw1LjQ4)' />
<polyline points='38.12,148.20 256.95,148.20 ' style='stroke-width: 0.53; stroke: #EBEBEB; stroke-linecap: butt;' clip-path='url(#cpMzguMTJ8MjU2Ljk1fDU0OS40Mnw1LjQ4)' />
<polyline points='38.12,59.18 256.95,59.18 ' style='stroke-width: 0.53; stroke: #EBEBEB; stroke-linecap: butt;' clip-path='url(#cpMzguMTJ8MjU2Ljk1fDU0OS40Mnw1LjQ4)' />
<polyline points='38.12,548.78 256.95,548.78 ' style='stroke-width: 1.07; stroke: #EBEBEB; stroke-linecap: butt;' clip-path='url(#cpMzguMTJ8MjU2Ljk1fDU0OS40Mnw1LjQ4)' />
<polyline points='38.12,459.76 256.95,459.76 ' style='stroke-width: 1.07; stroke: #EBEBEB; stroke-linecap: butt;' clip-path='url(#cpMzguMTJ8MjU2Ljk1fDU0OS40Mnw1LjQ4)' />
<polyline points='38.12,370.74 256.95,370.74 ' style='stroke-width: 1.07; stroke: #EBEBEB; stroke-linecap: butt;' clip-path='url(#cpMzguMTJ8MjU2Ljk1fDU0OS40Mnw1LjQ4)' />
<polyline points='38.12,281.73 256.95,281.73 ' style='stroke-width: 1.07; stroke: #EBEBEB; stroke-linecap: butt;' clip-path='url(#cpMzguMTJ8MjU2Ljk1fDU0OS40Mnw1LjQ4)' />
<polyline points='38.12,192.71 256.95,192.71 ' style='stroke-width: 1.07; stroke: #EBEBEB; stroke-linecap: butt;' clip-path='url(#cpMzguMTJ8MjU2Ljk1fDU0OS40Mnw1LjQ4)' />
<polyline points='38.12,103.69 256.95,103.69 ' style='stroke-width: 1.07; stroke: #EBEBEB; stroke-linecap: butt;' clip-path='url(#cpMzguMTJ8MjU2Ljk1fDU0OS40Mnw1LjQ4)' />
<polyline points='38.12,14.67 256.95,14.67 ' style='stroke-width: 1.07; stroke: #EBEBEB; stroke-linecap: butt;' clip-path='url(#cpMzguMTJ8MjU2Ljk1fDU0OS40Mnw1LjQ4)' />
<polyline points='173.59,549.42 173.59,5.48 ' style='stroke-width: 1.07; stroke: #EBEBEB; stroke-linecap: butt;' clip-path='url(#cpMzguMTJ8MjU2Ljk1fDU0OS40Mnw1LjQ4)' />
<polyline points='121.48,549.42 121.48,5.48 ' style='stroke-width: 1.07; stroke: #EBEBEB; stroke-linecap: butt;' clip-path='url(#cpMzguMTJ8MjU2Ljk1fDU0OS40Mnw1LjQ4)' />
<polyline points='225.69,549.42 225.69,5.48 ' style='stroke-width: 1.07; stroke: #EBEBEB; stroke-linecap: butt;' clip-path='url(#cpMzguMTJ8MjU2Ljk1fDU0OS40Mnw1LjQ4)' />
<polyline points='69.38,549.42 69.38,5.48 ' style='stroke-width: 1.07; stroke: #EBEBEB; stroke-linecap: butt;' clip-path='url(#cpMzguMTJ8MjU2Ljk1fDU0OS40Mnw1LjQ4)' />
<rect x='150.14' y='33.31' width='46.89' height='224.83' style='stroke-width: 1.07; stroke: none; stroke-linecap: square; stroke-linejoin: miter; fill: #E6194B;' clip-path='url(#cpMzguMTJ8MjU2Ljk1fDU0OS40Mnw1LjQ4)' />
<rect x='98.04' y='30.20' width='46.89' height='224.43' style='stroke-width: 1.07; stroke: none; stroke-linecap: square; stroke-linejoin: miter; fill: #E6194B;' clip-path='url(#cpMzguMTJ8MjU2Ljk1fDU0OS40Mnw1LjQ4)' />
<rect x='202.25' y='30.90' width='46.89' height='224.42' style='stroke-width: 1.07; stroke: none; stroke-linecap: square; stroke-linejoin: miter; fill: #E6194B;' clip-path='url(#cpMzguMTJ8MjU2Ljk1fDU0OS40Mnw1LjQ4)' />
<rect x='45.93' y='46.64' width='46.89' height='210.51' style='stroke-width: 1.07; stroke: none; stroke-linecap: square; stroke-linejoin: miter; fill: #E6194B;' clip-path='url(#cpMzguMTJ8MjU2Ljk1fDU0OS40Mnw1LjQ4)' />
<rect x='98.04' y='254.63' width='46.89' height='7.41' style='stroke-width: 1.07; stroke: none; stroke-linecap: square; stroke-linejoin: miter; fill: #3CB44B;' clip-path='url(#cpMzguMTJ8MjU2Ljk1fDU0OS40Mnw1LjQ4)' />
<rect x='202.25' y='255.32' width='46.89' height='7.33' style='stroke-width: 1.07; stroke: none; stroke-linecap: square; stroke-linejoin: miter; fill: #3CB44B;' clip-path='url(#cpMzguMTJ8MjU2Ljk1fDU0OS40Mnw1LjQ4)' />
<rect x='150.14' y='258.14' width='46.89' height='6.86' style='stroke-width: 1.07; stroke: none; stroke-linecap: square; stroke-linejoin: miter; fill: #3CB44B;' clip-path='url(#cpMzguMTJ8MjU2Ljk1fDU0OS40Mnw1LjQ4)' />
<rect x='45.93' y='257.15' width='46.89' height='6.37' style='stroke-width: 1.07; stroke: none; stroke-linecap: square; stroke-linejoin: miter; fill: #3CB44B;' clip-path='url(#cpMzguMTJ8MjU2Ljk1fDU0OS40Mnw1LjQ4)' />
<rect x='150.14' y='520.24' width='46.89' height='0.62' style='stroke-width: 1.07; stroke: none; stroke-linecap: square; stroke-linejoin: miter; fill: #4363D8;' clip-path='url(#cpMzguMTJ8MjU2Ljk1fDU0OS40Mnw1LjQ4)' />
<rect x='45.93' y='523.71' width='46.89' height='0.98' style='stroke-width: 1.07; stroke: none; stroke-linecap: square; stroke-linejoin: miter; fill: #4363D8;' clip-path='url(#cpMzguMTJ8MjU2Ljk1fDU0OS40Mnw1LjQ4)' />
<rect x='98.04' y='521.39' width='46.89' height='0.98' style='stroke-width: 1.07; stroke: none; stroke-linecap: square; stroke-linejoin: miter; fill: #4363D8;' clip-path='url(#cpMzguMTJ8MjU2Ljk1fDU0OS40Mnw1LjQ4)' />
<rect x='202.25' y='522.18' width='46.89' height='1.10' style='stroke-width: 1.07; stroke: none; stroke-linecap: square; stroke-linejoin: miter; fill: #4363D8;' clip-path='url(#cpMzguMTJ8MjU2Ljk1fDU0OS40Mnw1LjQ4)' />
<rect x='150.14' y='517.75' width='46.89' height='2.49' style='stroke-width: 1.07; stroke: none; stroke-linecap: square; stroke-linejoin: miter; fill: #FFE119;' clip-path='url(#cpMzguMTJ8MjU2Ljk1fDU0OS40Mnw1LjQ4)' />
<rect x='45.93' y='520.74' width='46.89' height='2.97' style='stroke-width: 1.07; stroke: none; stroke-linecap: square; stroke-linejoin: miter; fill: #FFE119;' clip-path='url(#cpMzguMTJ8MjU2Ljk1fDU0OS40Mnw1LjQ4)' />
<rect x='98.04' y='518.33' width='46.89' height='3.06' style='stroke-width: 1.07; stroke: none; stroke-linecap: square; stroke-linejoin: miter; fill: #FFE119;' clip-path='url(#cpMzguMTJ8MjU2Ljk1fDU0OS40Mnw1LjQ4)' />
<rect x='202.25' y='519.11' width='46.89' height='3.07' style='stroke-width: 1.07; stroke: none; stroke-linecap: square; stroke-linejoin: miter; fill: #FFE119;' clip-path='url(#cpMzguMTJ8MjU2Ljk1fDU0OS40Mnw1LjQ4)' />
<rect x='98.04' y='262.04' width='46.89' height='6.82' style='stroke-width: 1.07; stroke: none; stroke-linecap: square; stroke-linejoin: miter; fill: #F58231;' clip-path='url(#cpMzguMTJ8MjU2Ljk1fDU0OS40Mnw1LjQ4)' />
<rect x='202.25' y='262.65' width='46.89' height='6.21' style='stroke-width: 1.07; stroke: none; stroke-linecap: square; stroke-linejoin: miter; fill: #F58231;' clip-path='url(#cpMzguMTJ8MjU2Ljk1fDU0OS40Mnw1LjQ4)' />
<rect x='45.93' y='263.52' width='46.89' height='5.84' style='stroke-width: 1.07; stroke: none; stroke-linecap: square; stroke-linejoin: miter; fill: #F58231;' clip-path='url(#cpMzguMTJ8MjU2Ljk1fDU0OS40Mnw1LjQ4)' />
<rect x='150.14' y='265.00' width='46.89' height='5.05' style='stroke-width: 1.07; stroke: none; stroke-linecap: square; stroke-linejoin: miter; fill: #F58231;' clip-path='url(#cpMzguMTJ8MjU2Ljk1fDU0OS40Mnw1LjQ4)' />
<rect x='98.04' y='268.86' width='46.89' height='6.44' style='stroke-width: 1.07; stroke: none; stroke-linecap: square; stroke-linejoin: miter; fill: #911EB4;' clip-path='url(#cpMzguMTJ8MjU2Ljk1fDU0OS40Mnw1LjQ4)' />
<rect x='202.25' y='268.86' width='46.89' height='6.38' style='stroke-width: 1.07; stroke: none; stroke-linecap: square; stroke-linejoin: miter; fill: #911EB4;' clip-path='url(#cpMzguMTJ8MjU2Ljk1fDU0OS40Mnw1LjQ4)' />
<rect x='45.93' y='269.36' width='46.89' height='5.79' style='stroke-width: 1.07; stroke: none; stroke-linecap: square; stroke-linejoin: miter; fill: #911EB4;' clip-path='url(#cpMzguMTJ8MjU2Ljk1fDU0OS40Mnw1LjQ4)' />
<rect x='150.14' y='270.05' width='46.89' height='5.51' style='stroke-width: 1.07; stroke: none; stroke-linecap: square; stroke-linejoin: miter; fill: #911EB4;' clip-path='url(#cpMzguMTJ8MjU2Ljk1fDU0OS40Mnw1LjQ4)' />
<rect x='150.14' y='286.94' width='46.89' height='230.82' style='stroke-width: 1.07; stroke: none; stroke-linecap: square; stroke-linejoin: miter; fill: #46F0F0;' clip-path='url(#cpMzguMTJ8MjU2Ljk1fDU0OS40Mnw1LjQ4)' />
<rect x='98.04' y='286.83' width='46.89' height='231.50' style='stroke-width: 1.07; stroke: none; stroke-linecap: square; stroke-linejoin: miter; fill: #46F0F0;' clip-path='url(#cpMzguMTJ8MjU2Ljk1fDU0OS40Mnw1LjQ4)' />
<rect x='202.25' y='286.87' width='46.89' height='232.24' style='stroke-width: 1.07; stroke: none; stroke-linecap: square; stroke-linejoin: miter; fill: #46F0F0;' clip-path='url(#cpMzguMTJ8MjU2Ljk1fDU0OS40Mnw1LjQ4)' />
<rect x='45.93' y='286.78' width='46.89' height='233.97' style='stroke-width: 1.07; stroke: none; stroke-linecap: square; stroke-linejoin: miter; fill: #46F0F0;' clip-path='url(#cpMzguMTJ8MjU2Ljk1fDU0OS40Mnw1LjQ4)' />
<rect x='45.93' y='284.52' width='46.89' height='2.26' style='stroke-width: 1.07; stroke: none; stroke-linecap: square; stroke-linejoin: miter; fill: #F032E6;' clip-path='url(#cpMzguMTJ8MjU2Ljk1fDU0OS40Mnw1LjQ4)' />
<rect x='98.04' y='284.41' width='46.89' height='2.42' style='stroke-width: 1.07; stroke: none; stroke-linecap: square; stroke-linejoin: miter; fill: #F032E6;' clip-path='url(#cpMzguMTJ8MjU2Ljk1fDU0OS40Mnw1LjQ4)' />
<rect x='150.14' y='284.44' width='46.89' height='2.49' style='stroke-width: 1.07; stroke: none; stroke-linecap: square; stroke-linejoin: miter; fill: #F032E6;' clip-path='url(#cpMzguMTJ8MjU2Ljk1fDU0OS40Mnw1LjQ4)' />
<rect x='202.25' y='284.30' width='46.89' height='2.57' style='stroke-width: 1.07; stroke: none; stroke-linecap: square; stroke-linejoin: miter; fill: #F032E6;' clip-path='url(#cpMzguMTJ8MjU2Ljk1fDU0OS40Mnw1LjQ4)' />
<rect x='202.25' y='283.29' width='46.89' height='1.01' style='stroke-width: 1.07; stroke: none; stroke-linecap: square; stroke-linejoin: miter; fill: #BCF60C;' clip-path='url(#cpMzguMTJ8MjU2Ljk1fDU0OS40Mnw1LjQ4)' />
<rect x='150.14' y='283.30' width='46.89' height='1.14' style='stroke-width: 1.07; stroke: none; stroke-linecap: square; stroke-linejoin: miter; fill: #BCF60C;' clip-path='url(#cpMzguMTJ8MjU2Ljk1fDU0OS40Mnw1LjQ4)' />
<rect x='98.04' y='283.27' width='46.89' height='1.14' style='stroke-width: 1.07; stroke: none; stroke-linecap: square; stroke-linejoin: miter; fill: #BCF60C;' clip-path='url(#cpMzguMTJ8MjU2Ljk1fDU0OS40Mnw1LjQ4)' />
<rect x='45.93' y='283.34' width='46.89' height='1.18' style='stroke-width: 1.07; stroke: none; stroke-linecap: square; stroke-linejoin: miter; fill: #BCF60C;' clip-path='url(#cpMzguMTJ8MjU2Ljk1fDU0OS40Mnw1LjQ4)' />
<rect x='98.04' y='281.73' width='46.89' height='1.54' style='stroke-width: 1.07; stroke: none; stroke-linecap: square; stroke-linejoin: miter; fill: #FABEBE;' clip-path='url(#cpMzguMTJ8MjU2Ljk1fDU0OS40Mnw1LjQ4)' />
<rect x='202.25' y='281.73' width='46.89' height='1.56' style='stroke-width: 1.07; stroke: none; stroke-linecap: square; stroke-linejoin: miter; fill: #FABEBE;' clip-path='url(#cpMzguMTJ8MjU2Ljk1fDU0OS40Mnw1LjQ4)' />
<rect x='150.14' y='281.73' width='46.89' height='1.58' style='stroke-width: 1.07; stroke: none; stroke-linecap: square; stroke-linejoin: miter; fill: #FABEBE;' clip-path='url(#cpMzguMTJ8MjU2Ljk1fDU0OS40Mnw1LjQ4)' />
<rect x='45.93' y='281.73' width='46.89' height='1.61' style='stroke-width: 1.07; stroke: none; stroke-linecap: square; stroke-linejoin: miter; fill: #FABEBE;' clip-path='url(#cpMzguMTJ8MjU2Ljk1fDU0OS40Mnw1LjQ4)' />
<rect x='45.93' y='275.15' width='46.89' height='6.58' style='stroke-width: 1.07; stroke: none; stroke-linecap: square; stroke-linejoin: miter; fill: #008080;' clip-path='url(#cpMzguMTJ8MjU2Ljk1fDU0OS40Mnw1LjQ4)' />
<rect x='202.25' y='275.24' width='46.89' height='6.48' style='stroke-width: 1.07; stroke: none; stroke-linecap: square; stroke-linejoin: miter; fill: #008080;' clip-path='url(#cpMzguMTJ8MjU2Ljk1fDU0OS40Mnw1LjQ4)' />
<rect x='98.04' y='275.30' width='46.89' height='6.43' style='stroke-width: 1.07; stroke: none; stroke-linecap: square; stroke-linejoin: miter; fill: #008080;' clip-path='url(#cpMzguMTJ8MjU2Ljk1fDU0OS40Mnw1LjQ4)' />
<rect x='150.14' y='275.56' width='46.89' height='6.17' style='stroke-width: 1.07; stroke: none; stroke-linecap: square; stroke-linejoin: miter; fill: #008080;' clip-path='url(#cpMzguMTJ8MjU2Ljk1fDU0OS40Mnw1LjQ4)' />
<defs>
  <clipPath id='cpMC4wMHw0MzIuMDB8NTc2LjAwfDAuMDA='>
    <rect x='0.00' y='0.00' width='432.00' height='576.00' />
  </clipPath>
</defs>
<g clip-path='url(#cpMC4wMHw0MzIuMDB8NTc2LjAwfDAuMDA=)'><text x='17.17' y='551.53' style='font-size: 8.00px; fill: #4D4D4D; font-family: Arimo;' textLength='16.01px' lengthAdjust='spacingAndGlyphs'>-150</text></g>
<g clip-path='url(#cpMC4wMHw0MzIuMDB8NTc2LjAwfDAuMDA=)'><text x='17.17' y='462.51' style='font-size: 8.00px; fill: #4D4D4D; font-family: Arimo;' textLength='16.01px' lengthAdjust='spacingAndGlyphs'>-100</text></g>
<g clip-path='url(#cpMC4wMHw0MzIuMDB8NTc2LjAwfDAuMDA=)'><text x='21.62' y='373.49' style='font-size: 8.00px; fill: #4D4D4D; font-family: Arimo;' textLength='11.56px' lengthAdjust='spacingAndGlyphs'>-50</text></g>
<g clip-path='url(#cpMC4wMHw0MzIuMDB8NTc2LjAwfDAuMDA=)'><text x='28.74' y='284.48' style='font-size: 8.00px; fill: #4D4D4D; font-family: Arimo;' textLength='4.45px' lengthAdjust='spacingAndGlyphs'>0</text></g>
<g clip-path='url(#cpMC4wMHw0MzIuMDB8NTc2LjAwfDAuMDA=)'><text x='24.29' y='195.46' style='font-size: 8.00px; fill: #4D4D4D; font-family: Arimo;' textLength='8.90px' lengthAdjust='spacingAndGlyphs'>50</text></g>
<g clip-path='url(#cpMC4wMHw0MzIuMDB8NTc2LjAwfDAuMDA=)'><text x='19.84' y='106.44' style='font-size: 8.00px; fill: #4D4D4D; font-family: Arimo;' textLength='13.35px' lengthAdjust='spacingAndGlyphs'>100</text></g>
<g clip-path='url(#cpMC4wMHw0MzIuMDB8NTc2LjAwfDAuMDA=)'><text x='19.84' y='17.43' style='font-size: 8.00px; fill: #4D4D4D; font-family: Arimo;' textLength='13.35px' lengthAdjust='spacingAndGlyphs'>150</text></g>
<g clip-path='url(#cpMC4wMHw0MzIuMDB8NTc2LjAwfDAuMDA=)'><text x='164.28' y='557.79' style='font-size: 5.00px; font-weight: bold; fill: #4D4D4D; font-family: Arimo;' textLength='18.62px' lengthAdjust='spacingAndGlyphs'>125mpk</text></g>
<g clip-path='url(#cpMC4wMHw0MzIuMDB8NTc2LjAwfDAuMDA=)'><text x='110.09' y='557.79' style='font-size: 5.00px; font-weight: bold; fill: #4D4D4D; font-family: Arimo;' textLength='22.79px' lengthAdjust='spacingAndGlyphs'>31.25mpk</text></g>
<g clip-path='url(#cpMC4wMHw0MzIuMDB8NTc2LjAwfDAuMDA=)'><text x='216.38' y='557.79' style='font-size: 5.00px; font-weight: bold; fill: #4D4D4D; font-family: Arimo;' textLength='18.62px' lengthAdjust='spacingAndGlyphs'>500mpk</text></g>
<g clip-path='url(#cpMC4wMHw0MzIuMDB8NTc2LjAwfDAuMDA=)'><text x='62.85' y='557.79' style='font-size: 5.00px; font-weight: bold; fill: #4D4D4D; font-family: Arimo;' textLength='13.06px' lengthAdjust='spacingAndGlyphs'>0mpk</text></g>
<g clip-path='url(#cpMC4wMHw0MzIuMDB8NTc2LjAwfDAuMDA=)'><text transform='translate(12.36,331.37) rotate(-90)' style='font-size: 10.00px; font-family: Arimo;' textLength='107.84px' lengthAdjust='spacingAndGlyphs'>Relative Abundance (%)</text></g>
<g clip-path='url(#cpMC4wMHw0MzIuMDB8NTc2LjAwfDAuMDA=)'><text x='273.39' y='183.36' style='font-size: 10.00px; font-family: Arimo;' textLength='25.56px' lengthAdjust='spacingAndGlyphs'>Order</text></g>
<rect x='274.10' y='190.08' width='15.86' height='15.86' style='stroke-width: 1.07; stroke: none; stroke-linecap: square; stroke-linejoin: miter; fill: #E6194B;' clip-path='url(#cpMC4wMHw0MzIuMDB8NTc2LjAwfDAuMDA=)' />
<rect x='274.10' y='207.36' width='15.86' height='15.86' style='stroke-width: 1.07; stroke: none; stroke-linecap: square; stroke-linejoin: miter; fill: #3CB44B;' clip-path='url(#cpMC4wMHw0MzIuMDB8NTc2LjAwfDAuMDA=)' />
<rect x='274.10' y='224.64' width='15.86' height='15.86' style='stroke-width: 1.07; stroke: none; stroke-linecap: square; stroke-linejoin: miter; fill: #4363D8;' clip-path='url(#cpMC4wMHw0MzIuMDB8NTc2LjAwfDAuMDA=)' />
<rect x='274.10' y='241.92' width='15.86' height='15.86' style='stroke-width: 1.07; stroke: none; stroke-linecap: square; stroke-linejoin: miter; fill: #FFE119;' clip-path='url(#cpMC4wMHw0MzIuMDB8NTc2LjAwfDAuMDA=)' />
<rect x='274.10' y='259.20' width='15.86' height='15.86' style='stroke-width: 1.07; stroke: none; stroke-linecap: square; stroke-linejoin: miter; fill: #F58231;' clip-path='url(#cpMC4wMHw0MzIuMDB8NTc2LjAwfDAuMDA=)' />
<rect x='274.10' y='276.48' width='15.86' height='15.86' style='stroke-width: 1.07; stroke: none; stroke-linecap: square; stroke-linejoin: miter; fill: #911EB4;' clip-path='url(#cpMC4wMHw0MzIuMDB8NTc2LjAwfDAuMDA=)' />
<rect x='274.10' y='293.76' width='15.86' height='15.86' style='stroke-width: 1.07; stroke: none; stroke-linecap: square; stroke-linejoin: miter; fill: #46F0F0;' clip-path='url(#cpMC4wMHw0MzIuMDB8NTc2LjAwfDAuMDA=)' />
<rect x='274.10' y='311.04' width='15.86' height='15.86' style='stroke-width: 1.07; stroke: none; stroke-linecap: square; stroke-linejoin: miter; fill: #F032E6;' clip-path='url(#cpMC4wMHw0MzIuMDB8NTc2LjAwfDAuMDA=)' />
<rect x='274.10' y='328.32' width='15.86' height='15.86' style='stroke-width: 1.07; stroke: none; stroke-linecap: square; stroke-linejoin: miter; fill: #BCF60C;' clip-path='url(#cpMC4wMHw0MzIuMDB8NTc2LjAwfDAuMDA=)' />
<rect x='274.10' y='345.60' width='15.86' height='15.86' style='stroke-width: 1.07; stroke: none; stroke-linecap: square; stroke-linejoin: miter; fill: #FABEBE;' clip-path='url(#cpMC4wMHw0MzIuMDB8NTc2LjAwfDAuMDA=)' />
<rect x='274.10' y='362.88' width='15.86' height='15.86' style='stroke-width: 1.07; stroke: none; stroke-linecap: square; stroke-linejoin: miter; fill: #008080;' clip-path='url(#cpMC4wMHw0MzIuMDB8NTc2LjAwfDAuMDA=)' />
<g clip-path='url(#cpMC4wMHw0MzIuMDB8NTc2LjAwfDAuMDA=)'><text x='295.65' y='200.77' style='font-size: 8.00px; font-family: Arimo;' textLength='48.47px' lengthAdjust='spacingAndGlyphs'>Bacteroidales</text></g>
<g clip-path='url(#cpMC4wMHw0MzIuMDB8NTc2LjAwfDAuMDA=)'><text x='295.65' y='218.05' style='font-size: 8.00px; font-family: Arimo;' textLength='55.14px' lengthAdjust='spacingAndGlyphs'>Burkholderiales</text></g>
<g clip-path='url(#cpMC4wMHw0MzIuMDB8NTc2LjAwfDAuMDA=)'><text x='295.65' y='235.33' style='font-size: 8.00px; font-family: Arimo;' textLength='68.48px' lengthAdjust='spacingAndGlyphs'>Campylobacterales</text></g>
<g clip-path='url(#cpMC4wMHw0MzIuMDB8NTc2LjAwfDAuMDA=)'><text x='295.65' y='252.61' style='font-size: 8.00px; font-family: Arimo;' textLength='65.37px' lengthAdjust='spacingAndGlyphs'>Desulfovibrionales</text></g>
<g clip-path='url(#cpMC4wMHw0MzIuMDB8NTc2LjAwfDAuMDA=)'><text x='295.65' y='269.89' style='font-size: 8.00px; font-family: Arimo;' textLength='62.69px' lengthAdjust='spacingAndGlyphs'>Erysipelotrichales</text></g>
<g clip-path='url(#cpMC4wMHw0MzIuMDB8NTc2LjAwfDAuMDA=)'><text x='295.65' y='287.17' style='font-size: 8.00px; font-family: Arimo;' textLength='52.48px' lengthAdjust='spacingAndGlyphs'>Lactobacillales</text></g>
<g clip-path='url(#cpMC4wMHw0MzIuMDB8NTc2LjAwfDAuMDA=)'><text x='295.65' y='304.45' style='font-size: 8.00px; font-family: Arimo;' textLength='20.01px' lengthAdjust='spacingAndGlyphs'>Other</text></g>
<g clip-path='url(#cpMC4wMHw0MzIuMDB8NTc2LjAwfDAuMDA=)'><text x='295.65' y='321.73' style='font-size: 8.00px; font-family: Arimo;' textLength='125.39px' lengthAdjust='spacingAndGlyphs'>Peptostreptococcales-Tissierellales</text></g>
<g clip-path='url(#cpMC4wMHw0MzIuMDB8NTc2LjAwfDAuMDA=)'><text x='295.65' y='339.01' style='font-size: 8.00px; font-family: Arimo;' textLength='19.56px' lengthAdjust='spacingAndGlyphs'>RF39</text></g>
<g clip-path='url(#cpMC4wMHw0MzIuMDB8NTc2LjAwfDAuMDA=)'><text x='295.65' y='356.29' style='font-size: 8.00px; font-family: Arimo;' textLength='56.47px' lengthAdjust='spacingAndGlyphs'>Rhodospirillales</text></g>
<g clip-path='url(#cpMC4wMHw0MzIuMDB8NTc2LjAwfDAuMDA=)'><text x='295.65' y='373.57' style='font-size: 8.00px; font-family: Arimo;' textLength='68.47px' lengthAdjust='spacingAndGlyphs'>Verrucomicrobiales</text></g>
</svg>
