<?xml version='1.0' encoding='UTF-8' ?>
<svg xmlns='http://www.w3.org/2000/svg' xmlns:xlink='http://www.w3.org/1999/xlink' viewBox='0 0 432.00 576.00'>
<defs>
  <style type='text/css'><![CDATA[
    line, polyline, polygon, path, rect, circle {
      fill: none;
      stroke: #000000;
      stroke-linecap: round;
      stroke-linejoin: round;
      stroke-miterlimit: 10.00;
    }
  ]]></style>
</defs>
<rect width='100%' height='100%' style='stroke: none; fill: #FFFFFF;'/>
<defs>
  <clipPath id='cpMzcuNjh8MjgwLjk0fDU0OS40Mnw1LjQ4'>
    <rect x='37.68' y='5.48' width='243.27' height='543.94' />
  </clipPath>
</defs>
<polyline points='37.68,462.88 280.94,462.88 ' style='stroke-width: 0.53; stroke: #EBEBEB; stroke-linecap: butt;' clip-path='url(#cpMzcuNjh8MjgwLjk0fDU0OS40Mnw1LjQ4)' />
<polyline points='37.68,339.26 280.94,339.26 ' style='stroke-width: 0.53; stroke: #EBEBEB; stroke-linecap: butt;' clip-path='url(#cpMzcuNjh8MjgwLjk0fDU0OS40Mnw1LjQ4)' />
<polyline points='37.68,215.64 280.94,215.64 ' style='stroke-width: 0.53; stroke: #EBEBEB; stroke-linecap: butt;' clip-path='url(#cpMzcuNjh8MjgwLjk0fDU0OS40Mnw1LjQ4)' />
<polyline points='37.68,92.01 280.94,92.01 ' style='stroke-width: 0.53; stroke: #EBEBEB; stroke-linecap: butt;' clip-path='url(#cpMzcuNjh8MjgwLjk0fDU0OS40Mnw1LjQ4)' />
<polyline points='37.68,524.69 280.94,524.69 ' style='stroke-width: 1.07; stroke: #EBEBEB; stroke-linecap: butt;' clip-path='url(#cpMzcuNjh8MjgwLjk0fDU0OS40Mnw1LjQ4)' />
<polyline points='37.68,401.07 280.94,401.07 ' style='stroke-width: 1.07; stroke: #EBEBEB; stroke-linecap: butt;' clip-path='url(#cpMzcuNjh8MjgwLjk0fDU0OS40Mnw1LjQ4)' />
<polyline points='37.68,277.45 280.94,277.45 ' style='stroke-width: 1.07; stroke: #EBEBEB; stroke-linecap: butt;' clip-path='url(#cpMzcuNjh8MjgwLjk0fDU0OS40Mnw1LjQ4)' />
<polyline points='37.68,153.83 280.94,153.83 ' style='stroke-width: 1.07; stroke: #EBEBEB; stroke-linecap: butt;' clip-path='url(#cpMzcuNjh8MjgwLjk0fDU0OS40Mnw1LjQ4)' />
<polyline points='37.68,30.20 280.94,30.20 ' style='stroke-width: 1.07; stroke: #EBEBEB; stroke-linecap: butt;' clip-path='url(#cpMzcuNjh8MjgwLjk0fDU0OS40Mnw1LjQ4)' />
<polyline points='235.33,549.42 235.33,5.48 ' style='stroke-width: 1.07; stroke: #EBEBEB; stroke-linecap: butt;' clip-path='url(#cpMzcuNjh8MjgwLjk0fDU0OS40Mnw1LjQ4)' />
<polyline points='83.29,549.42 83.29,5.48 ' style='stroke-width: 1.07; stroke: #EBEBEB; stroke-linecap: butt;' clip-path='url(#cpMzcuNjh8MjgwLjk0fDU0OS40Mnw1LjQ4)' />
<polyline points='159.31,549.42 159.31,5.48 ' style='stroke-width: 1.07; stroke: #EBEBEB; stroke-linecap: butt;' clip-path='url(#cpMzcuNjh8MjgwLjk0fDU0OS40Mnw1LjQ4)' />
<rect x='201.12' y='30.20' width='68.42' height='14.58' style='stroke-width: 1.07; stroke-linecap: square; stroke-linejoin: miter; fill: #E6194B;' clip-path='url(#cpMzcuNjh8MjgwLjk0fDU0OS40Mnw1LjQ4)' />
<rect x='49.08' y='30.20' width='68.42' height='9.73' style='stroke-width: 1.07; stroke-linecap: square; stroke-linejoin: miter; fill: #E6194B;' clip-path='url(#cpMzcuNjh8MjgwLjk0fDU0OS40Mnw1LjQ4)' />
<rect x='125.10' y='30.20' width='68.42' height='7.73' style='stroke-width: 1.07; stroke-linecap: square; stroke-linejoin: miter; fill: #E6194B;' clip-path='url(#cpMzcuNjh8MjgwLjk0fDU0OS40Mnw1LjQ4)' />
<rect x='201.12' y='44.78' width='68.42' height='37.84' style='stroke-width: 1.07; stroke-linecap: square; stroke-linejoin: miter; fill: #3CB44B;' clip-path='url(#cpMzcuNjh8MjgwLjk0fDU0OS40Mnw1LjQ4)' />
<rect x='49.08' y='39.93' width='68.42' height='26.36' style='stroke-width: 1.07; stroke-linecap: square; stroke-linejoin: miter; fill: #3CB44B;' clip-path='url(#cpMzcuNjh8MjgwLjk0fDU0OS40Mnw1LjQ4)' />
<rect x='125.10' y='37.94' width='68.42' height='15.04' style='stroke-width: 1.07; stroke-linecap: square; stroke-linejoin: miter; fill: #3CB44B;' clip-path='url(#cpMzcuNjh8MjgwLjk0fDU0OS40Mnw1LjQ4)' />
<rect x='49.08' y='66.29' width='68.42' height='19.15' style='stroke-width: 1.07; stroke-linecap: square; stroke-linejoin: miter; fill: #4363D8;' clip-path='url(#cpMzcuNjh8MjgwLjk0fDU0OS40Mnw1LjQ4)' />
<rect x='125.10' y='52.98' width='68.42' height='11.05' style='stroke-width: 1.07; stroke-linecap: square; stroke-linejoin: miter; fill: #4363D8;' clip-path='url(#cpMzcuNjh8MjgwLjk0fDU0OS40Mnw1LjQ4)' />
<rect x='201.12' y='82.62' width='68.42' height='7.47' style='stroke-width: 1.07; stroke-linecap: square; stroke-linejoin: miter; fill: #4363D8;' clip-path='url(#cpMzcuNjh8MjgwLjk0fDU0OS40Mnw1LjQ4)' />
<rect x='49.08' y='85.44' width='68.42' height='33.92' style='stroke-width: 1.07; stroke-linecap: square; stroke-linejoin: miter; fill: #FFE119;' clip-path='url(#cpMzcuNjh8MjgwLjk0fDU0OS40Mnw1LjQ4)' />
<rect x='201.12' y='90.09' width='68.42' height='13.60' style='stroke-width: 1.07; stroke-linecap: square; stroke-linejoin: miter; fill: #FFE119;' clip-path='url(#cpMzcuNjh8MjgwLjk0fDU0OS40Mnw1LjQ4)' />
<rect x='125.10' y='64.03' width='68.42' height='1.66' style='stroke-width: 1.07; stroke-linecap: square; stroke-linejoin: miter; fill: #FFE119;' clip-path='url(#cpMzcuNjh8MjgwLjk0fDU0OS40Mnw1LjQ4)' />
<rect x='49.08' y='119.36' width='68.42' height='20.70' style='stroke-width: 1.07; stroke-linecap: square; stroke-linejoin: miter; fill: #F58231;' clip-path='url(#cpMzcuNjh8MjgwLjk0fDU0OS40Mnw1LjQ4)' />
<rect x='201.12' y='103.69' width='68.42' height='4.00' style='stroke-width: 1.07; stroke-linecap: square; stroke-linejoin: miter; fill: #F58231;' clip-path='url(#cpMzcuNjh8MjgwLjk0fDU0OS40Mnw1LjQ4)' />
<rect x='125.10' y='65.68' width='68.42' height='0.010' style='stroke-width: 1.07; stroke-linecap: square; stroke-linejoin: miter; fill: #F58231;' clip-path='url(#cpMzcuNjh8MjgwLjk0fDU0OS40Mnw1LjQ4)' />
<rect x='49.08' y='140.05' width='68.42' height='73.65' style='stroke-width: 1.07; stroke-linecap: square; stroke-linejoin: miter; fill: #911EB4;' clip-path='url(#cpMzcuNjh8MjgwLjk0fDU0OS40Mnw1LjQ4)' />
<rect x='125.10' y='65.69' width='68.42' height='48.73' style='stroke-width: 1.07; stroke-linecap: square; stroke-linejoin: miter; fill: #911EB4;' clip-path='url(#cpMzcuNjh8MjgwLjk0fDU0OS40Mnw1LjQ4)' />
<rect x='201.12' y='107.69' width='68.42' height='44.00' style='stroke-width: 1.07; stroke-linecap: square; stroke-linejoin: miter; fill: #911EB4;' clip-path='url(#cpMzcuNjh8MjgwLjk0fDU0OS40Mnw1LjQ4)' />
<rect x='125.10' y='114.42' width='68.42' height='16.88' style='stroke-width: 1.07; stroke-linecap: square; stroke-linejoin: miter; fill: #46F0F0;' clip-path='url(#cpMzcuNjh8MjgwLjk0fDU0OS40Mnw1LjQ4)' />
<rect x='49.08' y='213.70' width='68.42' height='16.61' style='stroke-width: 1.07; stroke-linecap: square; stroke-linejoin: miter; fill: #46F0F0;' clip-path='url(#cpMzcuNjh8MjgwLjk0fDU0OS40Mnw1LjQ4)' />
<rect x='201.12' y='151.69' width='68.42' height='12.69' style='stroke-width: 1.07; stroke-linecap: square; stroke-linejoin: miter; fill: #46F0F0;' clip-path='url(#cpMzcuNjh8MjgwLjk0fDU0OS40Mnw1LjQ4)' />
<rect x='125.10' y='131.30' width='68.42' height='326.58' style='stroke-width: 1.07; stroke-linecap: square; stroke-linejoin: miter; fill: #F032E6;' clip-path='url(#cpMzcuNjh8MjgwLjk0fDU0OS40Mnw1LjQ4)' />
<rect x='201.12' y='164.38' width='68.42' height='305.81' style='stroke-width: 1.07; stroke-linecap: square; stroke-linejoin: miter; fill: #F032E6;' clip-path='url(#cpMzcuNjh8MjgwLjk0fDU0OS40Mnw1LjQ4)' />
<rect x='49.08' y='230.31' width='68.42' height='221.90' style='stroke-width: 1.07; stroke-linecap: square; stroke-linejoin: miter; fill: #F032E6;' clip-path='url(#cpMzcuNjh8MjgwLjk0fDU0OS40Mnw1LjQ4)' />
<rect x='125.10' y='457.88' width='68.42' height='20.88' style='stroke-width: 1.07; stroke-linecap: square; stroke-linejoin: miter; fill: #BCF60C;' clip-path='url(#cpMzcuNjh8MjgwLjk0fDU0OS40Mnw1LjQ4)' />
<rect x='49.08' y='452.21' width='68.42' height='19.83' style='stroke-width: 1.07; stroke-linecap: square; stroke-linejoin: miter; fill: #BCF60C;' clip-path='url(#cpMzcuNjh8MjgwLjk0fDU0OS40Mnw1LjQ4)' />
<rect x='201.12' y='470.18' width='68.42' height='16.23' style='stroke-width: 1.07; stroke-linecap: square; stroke-linejoin: miter; fill: #BCF60C;' clip-path='url(#cpMzcuNjh8MjgwLjk0fDU0OS40Mnw1LjQ4)' />
<rect x='49.08' y='472.05' width='68.42' height='32.69' style='stroke-width: 1.07; stroke-linecap: square; stroke-linejoin: miter; fill: #FABEBE;' clip-path='url(#cpMzcuNjh8MjgwLjk0fDU0OS40Mnw1LjQ4)' />
<rect x='201.12' y='486.42' width='68.42' height='24.00' style='stroke-width: 1.07; stroke-linecap: square; stroke-linejoin: miter; fill: #FABEBE;' clip-path='url(#cpMzcuNjh8MjgwLjk0fDU0OS40Mnw1LjQ4)' />
<rect x='125.10' y='478.76' width='68.42' height='20.37' style='stroke-width: 1.07; stroke-linecap: square; stroke-linejoin: miter; fill: #FABEBE;' clip-path='url(#cpMzcuNjh8MjgwLjk0fDU0OS40Mnw1LjQ4)' />
<rect x='125.10' y='499.14' width='68.42' height='25.56' style='stroke-width: 1.07; stroke-linecap: square; stroke-linejoin: miter; fill: #008080;' clip-path='url(#cpMzcuNjh8MjgwLjk0fDU0OS40Mnw1LjQ4)' />
<rect x='49.08' y='504.74' width='68.42' height='19.95' style='stroke-width: 1.07; stroke-linecap: square; stroke-linejoin: miter; fill: #008080;' clip-path='url(#cpMzcuNjh8MjgwLjk0fDU0OS40Mnw1LjQ4)' />
<rect x='201.12' y='510.41' width='68.42' height='14.28' style='stroke-width: 1.07; stroke-linecap: square; stroke-linejoin: miter; fill: #008080;' clip-path='url(#cpMzcuNjh8MjgwLjk0fDU0OS40Mnw1LjQ4)' />
<defs>
  <clipPath id='cpMC4wMHw0MzIuMDB8NTc2LjAwfDAuMDA='>
    <rect x='0.00' y='0.00' width='432.00' height='576.00' />
  </clipPath>
</defs>
<g clip-path='url(#cpMC4wMHw0MzIuMDB8NTc2LjAwfDAuMDA=)'><text x='17.17' y='527.44' style='font-size: 8.00px; fill: #4D4D4D; font-family: Arimo;' textLength='15.57px' lengthAdjust='spacingAndGlyphs'>0.00</text></g>
<g clip-path='url(#cpMC4wMHw0MzIuMDB8NTc2LjAwfDAuMDA=)'><text x='17.17' y='403.82' style='font-size: 8.00px; fill: #4D4D4D; font-family: Arimo;' textLength='15.57px' lengthAdjust='spacingAndGlyphs'>0.25</text></g>
<g clip-path='url(#cpMC4wMHw0MzIuMDB8NTc2LjAwfDAuMDA=)'><text x='17.17' y='280.20' style='font-size: 8.00px; fill: #4D4D4D; font-family: Arimo;' textLength='15.57px' lengthAdjust='spacingAndGlyphs'>0.50</text></g>
<g clip-path='url(#cpMC4wMHw0MzIuMDB8NTc2LjAwfDAuMDA=)'><text x='17.17' y='156.58' style='font-size: 8.00px; fill: #4D4D4D; font-family: Arimo;' textLength='15.57px' lengthAdjust='spacingAndGlyphs'>0.75</text></g>
<g clip-path='url(#cpMC4wMHw0MzIuMDB8NTc2LjAwfDAuMDA=)'><text x='17.17' y='32.96' style='font-size: 8.00px; fill: #4D4D4D; font-family: Arimo;' textLength='15.57px' lengthAdjust='spacingAndGlyphs'>1.00</text></g>
<g clip-path='url(#cpMC4wMHw0MzIuMDB8NTc2LjAwfDAuMDA=)'><text x='226.02' y='557.79' style='font-size: 5.00px; font-weight: bold; fill: #4D4D4D; font-family: Arimo;' textLength='18.62px' lengthAdjust='spacingAndGlyphs'>500mpk</text></g>
<g clip-path='url(#cpMC4wMHw0MzIuMDB8NTc2LjAwfDAuMDA=)'><text x='76.76' y='557.79' style='font-size: 5.00px; font-weight: bold; fill: #4D4D4D; font-family: Arimo;' textLength='13.06px' lengthAdjust='spacingAndGlyphs'>0mpk</text></g>
<g clip-path='url(#cpMC4wMHw0MzIuMDB8NTc2LjAwfDAuMDA=)'><text x='147.91' y='557.79' style='font-size: 5.00px; font-weight: bold; fill: #4D4D4D; font-family: Arimo;' textLength='22.79px' lengthAdjust='spacingAndGlyphs'>31.25mpk</text></g>
<g clip-path='url(#cpMC4wMHw0MzIuMDB8NTc2LjAwfDAuMDA=)'><text transform='translate(12.36,331.37) rotate(-90)' style='font-size: 10.00px; font-family: Arimo;' textLength='107.84px' lengthAdjust='spacingAndGlyphs'>Relative Abundance (%)</text></g>
<g clip-path='url(#cpMC4wMHw0MzIuMDB8NTc2LjAwfDAuMDA=)'><text x='297.38' y='183.36' style='font-size: 10.00px; font-family: Arimo;' textLength='29.44px' lengthAdjust='spacingAndGlyphs'>Family</text></g>
<rect x='298.09' y='190.08' width='15.86' height='15.86' style='stroke-width: 1.07; stroke-linecap: square; stroke-linejoin: miter; fill: #E6194B;' clip-path='url(#cpMC4wMHw0MzIuMDB8NTc2LjAwfDAuMDA=)' />
<rect x='298.09' y='207.36' width='15.86' height='15.86' style='stroke-width: 1.07; stroke-linecap: square; stroke-linejoin: miter; fill: #3CB44B;' clip-path='url(#cpMC4wMHw0MzIuMDB8NTc2LjAwfDAuMDA=)' />
<rect x='298.09' y='224.64' width='15.86' height='15.86' style='stroke-width: 1.07; stroke-linecap: square; stroke-linejoin: miter; fill: #4363D8;' clip-path='url(#cpMC4wMHw0MzIuMDB8NTc2LjAwfDAuMDA=)' />
<rect x='298.09' y='241.92' width='15.86' height='15.86' style='stroke-width: 1.07; stroke-linecap: square; stroke-linejoin: miter; fill: #FFE119;' clip-path='url(#cpMC4wMHw0MzIuMDB8NTc2LjAwfDAuMDA=)' />
<rect x='298.09' y='259.20' width='15.86' height='15.86' style='stroke-width: 1.07; stroke-linecap: square; stroke-linejoin: miter; fill: #F58231;' clip-path='url(#cpMC4wMHw0MzIuMDB8NTc2LjAwfDAuMDA=)' />
<rect x='298.09' y='276.48' width='15.86' height='15.86' style='stroke-width: 1.07; stroke-linecap: square; stroke-linejoin: miter; fill: #911EB4;' clip-path='url(#cpMC4wMHw0MzIuMDB8NTc2LjAwfDAuMDA=)' />
<rect x='298.09' y='293.76' width='15.86' height='15.86' style='stroke-width: 1.07; stroke-linecap: square; stroke-linejoin: miter; fill: #46F0F0;' clip-path='url(#cpMC4wMHw0MzIuMDB8NTc2LjAwfDAuMDA=)' />
<rect x='298.09' y='311.04' width='15.86' height='15.86' style='stroke-width: 1.07; stroke-linecap: square; stroke-linejoin: miter; fill: #F032E6;' clip-path='url(#cpMC4wMHw0MzIuMDB8NTc2LjAwfDAuMDA=)' />
<rect x='298.09' y='328.32' width='15.86' height='15.86' style='stroke-width: 1.07; stroke-linecap: square; stroke-linejoin: miter; fill: #BCF60C;' clip-path='url(#cpMC4wMHw0MzIuMDB8NTc2LjAwfDAuMDA=)' />
<rect x='298.09' y='345.60' width='15.86' height='15.86' style='stroke-width: 1.07; stroke-linecap: square; stroke-linejoin: miter; fill: #FABEBE;' clip-path='url(#cpMC4wMHw0MzIuMDB8NTc2LjAwfDAuMDA=)' />
<rect x='298.09' y='362.88' width='15.86' height='15.86' style='stroke-width: 1.07; stroke-linecap: square; stroke-linejoin: miter; fill: #008080;' clip-path='url(#cpMC4wMHw0MzIuMDB8NTc2LjAwfDAuMDA=)' />
<g clip-path='url(#cpMC4wMHw0MzIuMDB8NTc2LjAwfDAuMDA=)'><text x='319.64' y='200.77' style='font-size: 8.00px; font-family: Arimo;' textLength='63.59px' lengthAdjust='spacingAndGlyphs'>Akkermansiaceae</text></g>
<g clip-path='url(#cpMC4wMHw0MzIuMDB8NTc2LjAwfDAuMDA=)'><text x='319.64' y='218.05' style='font-size: 8.00px; font-family: Arimo;' textLength='55.59px' lengthAdjust='spacingAndGlyphs'>Bacteroidaceae</text></g>
<g clip-path='url(#cpMC4wMHw0MzIuMDB8NTc2LjAwfDAuMDA=)'><text x='319.64' y='235.33' style='font-size: 8.00px; font-family: Arimo;' textLength='101.40px' lengthAdjust='spacingAndGlyphs'>Clostridia_vadinBB60_group</text></g>
<g clip-path='url(#cpMC4wMHw0MzIuMDB8NTc2LjAwfDAuMDA=)'><text x='319.64' y='252.61' style='font-size: 8.00px; font-family: Arimo;' textLength='69.81px' lengthAdjust='spacingAndGlyphs'>Erysipelotrichaceae</text></g>
<g clip-path='url(#cpMC4wMHw0MzIuMDB8NTc2LjAwfDAuMDA=)'><text x='319.64' y='269.89' style='font-size: 8.00px; font-family: Arimo;' textLength='66.26px' lengthAdjust='spacingAndGlyphs'>Helicobacteraceae</text></g>
<g clip-path='url(#cpMC4wMHw0MzIuMDB8NTc2LjAwfDAuMDA=)'><text x='319.64' y='287.17' style='font-size: 8.00px; font-family: Arimo;' textLength='60.93px' lengthAdjust='spacingAndGlyphs'>Lachnospiraceae</text></g>
<g clip-path='url(#cpMC4wMHw0MzIuMDB8NTc2LjAwfDAuMDA=)'><text x='319.64' y='304.45' style='font-size: 8.00px; font-family: Arimo;' textLength='59.60px' lengthAdjust='spacingAndGlyphs'>Lactobacillaceae</text></g>
<g clip-path='url(#cpMC4wMHw0MzIuMDB8NTc2LjAwfDAuMDA=)'><text x='319.64' y='321.73' style='font-size: 8.00px; font-family: Arimo;' textLength='56.48px' lengthAdjust='spacingAndGlyphs'>Muribaculaceae</text></g>
<g clip-path='url(#cpMC4wMHw0MzIuMDB8NTc2LjAwfDAuMDA=)'><text x='319.64' y='339.01' style='font-size: 8.00px; font-family: Arimo;' textLength='58.69px' lengthAdjust='spacingAndGlyphs'>Oscillospiraceae</text></g>
<g clip-path='url(#cpMC4wMHw0MzIuMDB8NTc2LjAwfDAuMDA=)'><text x='319.64' y='356.29' style='font-size: 8.00px; font-family: Arimo;' textLength='20.01px' lengthAdjust='spacingAndGlyphs'>Other</text></g>
<g clip-path='url(#cpMC4wMHw0MzIuMDB8NTc2LjAwfDAuMDA=)'><text x='319.64' y='373.57' style='font-size: 8.00px; font-family: Arimo;' textLength='50.25px' lengthAdjust='spacingAndGlyphs'>Rikenellaceae</text></g>
</svg>
