<?xml version='1.0' encoding='UTF-8' ?>
<svg xmlns='http://www.w3.org/2000/svg' xmlns:xlink='http://www.w3.org/1999/xlink' viewBox='0 0 432.00 576.00'>
<defs>
  <style type='text/css'><![CDATA[
    line, polyline, polygon, path, rect, circle {
      fill: none;
      stroke: #000000;
      stroke-linecap: round;
      stroke-linejoin: round;
      stroke-miterlimit: 10.00;
    }
  ]]></style>
</defs>
<rect width='100%' height='100%' style='stroke: none; fill: #FFFFFF;'/>
<defs>
  <clipPath id='cpMzcuNjh8MzEyLjUzfDU0OS40Mnw1LjQ4'>
    <rect x='37.68' y='5.48' width='274.85' height='543.94' />
  </clipPath>
</defs>
<polyline points='37.68,462.88 312.53,462.88 ' style='stroke-width: 0.53; stroke: #EBEBEB; stroke-linecap: butt;' clip-path='url(#cpMzcuNjh8MzEyLjUzfDU0OS40Mnw1LjQ4)' />
<polyline points='37.68,339.26 312.53,339.26 ' style='stroke-width: 0.53; stroke: #EBEBEB; stroke-linecap: butt;' clip-path='url(#cpMzcuNjh8MzEyLjUzfDU0OS40Mnw1LjQ4)' />
<polyline points='37.68,215.64 312.53,215.64 ' style='stroke-width: 0.53; stroke: #EBEBEB; stroke-linecap: butt;' clip-path='url(#cpMzcuNjh8MzEyLjUzfDU0OS40Mnw1LjQ4)' />
<polyline points='37.68,92.01 312.53,92.01 ' style='stroke-width: 0.53; stroke: #EBEBEB; stroke-linecap: butt;' clip-path='url(#cpMzcuNjh8MzEyLjUzfDU0OS40Mnw1LjQ4)' />
<polyline points='37.68,524.69 312.53,524.69 ' style='stroke-width: 1.07; stroke: #EBEBEB; stroke-linecap: butt;' clip-path='url(#cpMzcuNjh8MzEyLjUzfDU0OS40Mnw1LjQ4)' />
<polyline points='37.68,401.07 312.53,401.07 ' style='stroke-width: 1.07; stroke: #EBEBEB; stroke-linecap: butt;' clip-path='url(#cpMzcuNjh8MzEyLjUzfDU0OS40Mnw1LjQ4)' />
<polyline points='37.68,277.45 312.53,277.45 ' style='stroke-width: 1.07; stroke: #EBEBEB; stroke-linecap: butt;' clip-path='url(#cpMzcuNjh8MzEyLjUzfDU0OS40Mnw1LjQ4)' />
<polyline points='37.68,153.83 312.53,153.83 ' style='stroke-width: 1.07; stroke: #EBEBEB; stroke-linecap: butt;' clip-path='url(#cpMzcuNjh8MzEyLjUzfDU0OS40Mnw1LjQ4)' />
<polyline points='37.68,30.20 312.53,30.20 ' style='stroke-width: 1.07; stroke: #EBEBEB; stroke-linecap: butt;' clip-path='url(#cpMzcuNjh8MzEyLjUzfDU0OS40Mnw1LjQ4)' />
<polyline points='76.94,549.42 76.94,5.48 ' style='stroke-width: 1.07; stroke: #EBEBEB; stroke-linecap: butt;' clip-path='url(#cpMzcuNjh8MzEyLjUzfDU0OS40Mnw1LjQ4)' />
<polyline points='273.26,549.42 273.26,5.48 ' style='stroke-width: 1.07; stroke: #EBEBEB; stroke-linecap: butt;' clip-path='url(#cpMzcuNjh8MzEyLjUzfDU0OS40Mnw1LjQ4)' />
<polyline points='207.82,549.42 207.82,5.48 ' style='stroke-width: 1.07; stroke: #EBEBEB; stroke-linecap: butt;' clip-path='url(#cpMzcuNjh8MzEyLjUzfDU0OS40Mnw1LjQ4)' />
<polyline points='142.38,549.42 142.38,5.48 ' style='stroke-width: 1.07; stroke: #EBEBEB; stroke-linecap: butt;' clip-path='url(#cpMzcuNjh8MzEyLjUzfDU0OS40Mnw1LjQ4)' />
<rect x='47.49' y='30.20' width='58.90' height='105.21' style='stroke-width: 1.07; stroke-linecap: square; stroke-linejoin: miter; fill: #E6194B;' clip-path='url(#cpMzcuNjh8MzEyLjUzfDU0OS40Mnw1LjQ4)' />
<rect x='243.82' y='30.20' width='58.90' height='23.06' style='stroke-width: 1.07; stroke-linecap: square; stroke-linejoin: miter; fill: #E6194B;' clip-path='url(#cpMzcuNjh8MzEyLjUzfDU0OS40Mnw1LjQ4)' />
<rect x='178.37' y='30.20' width='58.90' height='1.21' style='stroke-width: 1.07; stroke-linecap: square; stroke-linejoin: miter; fill: #E6194B;' clip-path='url(#cpMzcuNjh8MzEyLjUzfDU0OS40Mnw1LjQ4)' />
<rect x='112.93' y='30.20' width='58.90' height='0.35' style='stroke-width: 1.07; stroke-linecap: square; stroke-linejoin: miter; fill: #E6194B;' clip-path='url(#cpMzcuNjh8MzEyLjUzfDU0OS40Mnw1LjQ4)' />
<rect x='243.82' y='53.27' width='58.90' height='39.73' style='stroke-width: 1.07; stroke-linecap: square; stroke-linejoin: miter; fill: #3CB44B;' clip-path='url(#cpMzcuNjh8MzEyLjUzfDU0OS40Mnw1LjQ4)' />
<rect x='178.37' y='31.41' width='58.90' height='19.26' style='stroke-width: 1.07; stroke-linecap: square; stroke-linejoin: miter; fill: #3CB44B;' clip-path='url(#cpMzcuNjh8MzEyLjUzfDU0OS40Mnw1LjQ4)' />
<rect x='112.93' y='30.56' width='58.90' height='19.12' style='stroke-width: 1.07; stroke-linecap: square; stroke-linejoin: miter; fill: #3CB44B;' clip-path='url(#cpMzcuNjh8MzEyLjUzfDU0OS40Mnw1LjQ4)' />
<rect x='47.49' y='135.41' width='58.90' height='0.15' style='stroke-width: 1.07; stroke-linecap: square; stroke-linejoin: miter; fill: #3CB44B;' clip-path='url(#cpMzcuNjh8MzEyLjUzfDU0OS40Mnw1LjQ4)' />
<rect x='47.49' y='135.56' width='58.90' height='33.86' style='stroke-width: 1.07; stroke-linecap: square; stroke-linejoin: miter; fill: #4363D8;' clip-path='url(#cpMzcuNjh8MzEyLjUzfDU0OS40Mnw1LjQ4)' />
<rect x='112.93' y='49.67' width='58.90' height='0.00' style='stroke-width: 1.07; stroke-linecap: square; stroke-linejoin: miter; fill: #4363D8;' clip-path='url(#cpMzcuNjh8MzEyLjUzfDU0OS40Mnw1LjQ4)' />
<rect x='178.37' y='50.67' width='58.90' height='0.00' style='stroke-width: 1.07; stroke-linecap: square; stroke-linejoin: miter; fill: #4363D8;' clip-path='url(#cpMzcuNjh8MzEyLjUzfDU0OS40Mnw1LjQ4)' />
<rect x='243.82' y='93.00' width='58.90' height='0.00' style='stroke-width: 1.07; stroke-linecap: square; stroke-linejoin: miter; fill: #4363D8;' clip-path='url(#cpMzcuNjh8MzEyLjUzfDU0OS40Mnw1LjQ4)' />
<rect x='178.37' y='50.67' width='58.90' height='41.94' style='stroke-width: 1.07; stroke-linecap: square; stroke-linejoin: miter; fill: #FFE119;' clip-path='url(#cpMzcuNjh8MzEyLjUzfDU0OS40Mnw1LjQ4)' />
<rect x='243.82' y='93.00' width='58.90' height='25.16' style='stroke-width: 1.07; stroke-linecap: square; stroke-linejoin: miter; fill: #FFE119;' clip-path='url(#cpMzcuNjh8MzEyLjUzfDU0OS40Mnw1LjQ4)' />
<rect x='112.93' y='49.67' width='58.90' height='23.77' style='stroke-width: 1.07; stroke-linecap: square; stroke-linejoin: miter; fill: #FFE119;' clip-path='url(#cpMzcuNjh8MzEyLjUzfDU0OS40Mnw1LjQ4)' />
<rect x='47.49' y='169.42' width='58.90' height='4.68' style='stroke-width: 1.07; stroke-linecap: square; stroke-linejoin: miter; fill: #FFE119;' clip-path='url(#cpMzcuNjh8MzEyLjUzfDU0OS40Mnw1LjQ4)' />
<rect x='47.49' y='174.10' width='58.90' height='117.76' style='stroke-width: 1.07; stroke-linecap: square; stroke-linejoin: miter; fill: #F58231;' clip-path='url(#cpMzcuNjh8MzEyLjUzfDU0OS40Mnw1LjQ4)' />
<rect x='112.93' y='73.44' width='58.90' height='88.29' style='stroke-width: 1.07; stroke-linecap: square; stroke-linejoin: miter; fill: #F58231;' clip-path='url(#cpMzcuNjh8MzEyLjUzfDU0OS40Mnw1LjQ4)' />
<rect x='178.37' y='92.62' width='58.90' height='72.01' style='stroke-width: 1.07; stroke-linecap: square; stroke-linejoin: miter; fill: #F58231;' clip-path='url(#cpMzcuNjh8MzEyLjUzfDU0OS40Mnw1LjQ4)' />
<rect x='243.82' y='118.16' width='58.90' height='30.72' style='stroke-width: 1.07; stroke-linecap: square; stroke-linejoin: miter; fill: #F58231;' clip-path='url(#cpMzcuNjh8MzEyLjUzfDU0OS40Mnw1LjQ4)' />
<rect x='112.93' y='161.73' width='58.90' height='68.93' style='stroke-width: 1.07; stroke-linecap: square; stroke-linejoin: miter; fill: #911EB4;' clip-path='url(#cpMzcuNjh8MzEyLjUzfDU0OS40Mnw1LjQ4)' />
<rect x='243.82' y='148.88' width='58.90' height='38.63' style='stroke-width: 1.07; stroke-linecap: square; stroke-linejoin: miter; fill: #911EB4;' clip-path='url(#cpMzcuNjh8MzEyLjUzfDU0OS40Mnw1LjQ4)' />
<rect x='178.37' y='164.62' width='58.90' height='30.02' style='stroke-width: 1.07; stroke-linecap: square; stroke-linejoin: miter; fill: #911EB4;' clip-path='url(#cpMzcuNjh8MzEyLjUzfDU0OS40Mnw1LjQ4)' />
<rect x='47.49' y='291.86' width='58.90' height='20.62' style='stroke-width: 1.07; stroke-linecap: square; stroke-linejoin: miter; fill: #911EB4;' clip-path='url(#cpMzcuNjh8MzEyLjUzfDU0OS40Mnw1LjQ4)' />
<rect x='243.82' y='187.52' width='58.90' height='314.20' style='stroke-width: 1.07; stroke-linecap: square; stroke-linejoin: miter; fill: #46F0F0;' clip-path='url(#cpMzcuNjh8MzEyLjUzfDU0OS40Mnw1LjQ4)' />
<rect x='178.37' y='194.64' width='58.90' height='289.67' style='stroke-width: 1.07; stroke-linecap: square; stroke-linejoin: miter; fill: #46F0F0;' clip-path='url(#cpMzcuNjh8MzEyLjUzfDU0OS40Mnw1LjQ4)' />
<rect x='112.93' y='230.66' width='58.90' height='255.46' style='stroke-width: 1.07; stroke-linecap: square; stroke-linejoin: miter; fill: #46F0F0;' clip-path='url(#cpMzcuNjh8MzEyLjUzfDU0OS40Mnw1LjQ4)' />
<rect x='47.49' y='312.48' width='58.90' height='172.54' style='stroke-width: 1.07; stroke-linecap: square; stroke-linejoin: miter; fill: #46F0F0;' clip-path='url(#cpMzcuNjh8MzEyLjUzfDU0OS40Mnw1LjQ4)' />
<rect x='178.37' y='484.31' width='58.90' height='11.64' style='stroke-width: 1.07; stroke-linecap: square; stroke-linejoin: miter; fill: #F032E6;' clip-path='url(#cpMzcuNjh8MzEyLjUzfDU0OS40Mnw1LjQ4)' />
<rect x='112.93' y='486.12' width='58.90' height='10.95' style='stroke-width: 1.07; stroke-linecap: square; stroke-linejoin: miter; fill: #F032E6;' clip-path='url(#cpMzcuNjh8MzEyLjUzfDU0OS40Mnw1LjQ4)' />
<rect x='47.49' y='485.03' width='58.90' height='5.65' style='stroke-width: 1.07; stroke-linecap: square; stroke-linejoin: miter; fill: #F032E6;' clip-path='url(#cpMzcuNjh8MzEyLjUzfDU0OS40Mnw1LjQ4)' />
<rect x='243.82' y='501.72' width='58.90' height='2.13' style='stroke-width: 1.07; stroke-linecap: square; stroke-linejoin: miter; fill: #F032E6;' clip-path='url(#cpMzcuNjh8MzEyLjUzfDU0OS40Mnw1LjQ4)' />
<rect x='47.49' y='490.68' width='58.90' height='23.39' style='stroke-width: 1.07; stroke-linecap: square; stroke-linejoin: miter; fill: #BCF60C;' clip-path='url(#cpMzcuNjh8MzEyLjUzfDU0OS40Mnw1LjQ4)' />
<rect x='178.37' y='495.95' width='58.90' height='14.98' style='stroke-width: 1.07; stroke-linecap: square; stroke-linejoin: miter; fill: #BCF60C;' clip-path='url(#cpMzcuNjh8MzEyLjUzfDU0OS40Mnw1LjQ4)' />
<rect x='112.93' y='497.07' width='58.90' height='12.70' style='stroke-width: 1.07; stroke-linecap: square; stroke-linejoin: miter; fill: #BCF60C;' clip-path='url(#cpMzcuNjh8MzEyLjUzfDU0OS40Mnw1LjQ4)' />
<rect x='243.82' y='503.86' width='58.90' height='10.61' style='stroke-width: 1.07; stroke-linecap: square; stroke-linejoin: miter; fill: #BCF60C;' clip-path='url(#cpMzcuNjh8MzEyLjUzfDU0OS40Mnw1LjQ4)' />
<rect x='112.93' y='509.77' width='58.90' height='10.24' style='stroke-width: 1.07; stroke-linecap: square; stroke-linejoin: miter; fill: #FABEBE;' clip-path='url(#cpMzcuNjh8MzEyLjUzfDU0OS40Mnw1LjQ4)' />
<rect x='178.37' y='510.93' width='58.90' height='8.18' style='stroke-width: 1.07; stroke-linecap: square; stroke-linejoin: miter; fill: #FABEBE;' clip-path='url(#cpMzcuNjh8MzEyLjUzfDU0OS40Mnw1LjQ4)' />
<rect x='243.82' y='514.47' width='58.90' height='8.18' style='stroke-width: 1.07; stroke-linecap: square; stroke-linejoin: miter; fill: #FABEBE;' clip-path='url(#cpMzcuNjh8MzEyLjUzfDU0OS40Mnw1LjQ4)' />
<rect x='47.49' y='514.07' width='58.90' height='8.09' style='stroke-width: 1.07; stroke-linecap: square; stroke-linejoin: miter; fill: #FABEBE;' clip-path='url(#cpMzcuNjh8MzEyLjUzfDU0OS40Mnw1LjQ4)' />
<rect x='178.37' y='519.11' width='58.90' height='5.58' style='stroke-width: 1.07; stroke-linecap: square; stroke-linejoin: miter; fill: #008080;' clip-path='url(#cpMzcuNjh8MzEyLjUzfDU0OS40Mnw1LjQ4)' />
<rect x='112.93' y='520.01' width='58.90' height='4.68' style='stroke-width: 1.07; stroke-linecap: square; stroke-linejoin: miter; fill: #008080;' clip-path='url(#cpMzcuNjh8MzEyLjUzfDU0OS40Mnw1LjQ4)' />
<rect x='47.49' y='522.16' width='58.90' height='2.53' style='stroke-width: 1.07; stroke-linecap: square; stroke-linejoin: miter; fill: #008080;' clip-path='url(#cpMzcuNjh8MzEyLjUzfDU0OS40Mnw1LjQ4)' />
<rect x='243.82' y='522.65' width='58.90' height='2.04' style='stroke-width: 1.07; stroke-linecap: square; stroke-linejoin: miter; fill: #008080;' clip-path='url(#cpMzcuNjh8MzEyLjUzfDU0OS40Mnw1LjQ4)' />
<defs>
  <clipPath id='cpMC4wMHw0MzIuMDB8NTc2LjAwfDAuMDA='>
    <rect x='0.00' y='0.00' width='432.00' height='576.00' />
  </clipPath>
</defs>
<g clip-path='url(#cpMC4wMHw0MzIuMDB8NTc2LjAwfDAuMDA=)'><text x='17.17' y='527.44' style='font-size: 8.00px; fill: #4D4D4D; font-family: Arimo;' textLength='15.57px' lengthAdjust='spacingAndGlyphs'>0.00</text></g>
<g clip-path='url(#cpMC4wMHw0MzIuMDB8NTc2LjAwfDAuMDA=)'><text x='17.17' y='403.82' style='font-size: 8.00px; fill: #4D4D4D; font-family: Arimo;' textLength='15.57px' lengthAdjust='spacingAndGlyphs'>0.25</text></g>
<g clip-path='url(#cpMC4wMHw0MzIuMDB8NTc2LjAwfDAuMDA=)'><text x='17.17' y='280.20' style='font-size: 8.00px; fill: #4D4D4D; font-family: Arimo;' textLength='15.57px' lengthAdjust='spacingAndGlyphs'>0.50</text></g>
<g clip-path='url(#cpMC4wMHw0MzIuMDB8NTc2LjAwfDAuMDA=)'><text x='17.17' y='156.58' style='font-size: 8.00px; fill: #4D4D4D; font-family: Arimo;' textLength='15.57px' lengthAdjust='spacingAndGlyphs'>0.75</text></g>
<g clip-path='url(#cpMC4wMHw0MzIuMDB8NTc2LjAwfDAuMDA=)'><text x='17.17' y='32.96' style='font-size: 8.00px; fill: #4D4D4D; font-family: Arimo;' textLength='15.57px' lengthAdjust='spacingAndGlyphs'>1.00</text></g>
<g clip-path='url(#cpMC4wMHw0MzIuMDB8NTc2LjAwfDAuMDA=)'><text x='70.41' y='557.79' style='font-size: 5.00px; font-weight: bold; fill: #4D4D4D; font-family: Arimo;' textLength='13.06px' lengthAdjust='spacingAndGlyphs'>0mpk</text></g>
<g clip-path='url(#cpMC4wMHw0MzIuMDB8NTc2LjAwfDAuMDA=)'><text x='263.95' y='557.79' style='font-size: 5.00px; font-weight: bold; fill: #4D4D4D; font-family: Arimo;' textLength='18.62px' lengthAdjust='spacingAndGlyphs'>500mpk</text></g>
<g clip-path='url(#cpMC4wMHw0MzIuMDB8NTc2LjAwfDAuMDA=)'><text x='198.51' y='557.79' style='font-size: 5.00px; font-weight: bold; fill: #4D4D4D; font-family: Arimo;' textLength='18.62px' lengthAdjust='spacingAndGlyphs'>125mpk</text></g>
<g clip-path='url(#cpMC4wMHw0MzIuMDB8NTc2LjAwfDAuMDA=)'><text x='130.99' y='557.79' style='font-size: 5.00px; font-weight: bold; fill: #4D4D4D; font-family: Arimo;' textLength='22.79px' lengthAdjust='spacingAndGlyphs'>31.25mpk</text></g>
<g clip-path='url(#cpMC4wMHw0MzIuMDB8NTc2LjAwfDAuMDA=)'><text transform='translate(12.36,331.37) rotate(-90)' style='font-size: 10.00px; font-family: Arimo;' textLength='107.84px' lengthAdjust='spacingAndGlyphs'>Relative Abundance (%)</text></g>
<g clip-path='url(#cpMC4wMHw0MzIuMDB8NTc2LjAwfDAuMDA=)'><text x='328.97' y='183.36' style='font-size: 10.00px; font-family: Arimo;' textLength='29.44px' lengthAdjust='spacingAndGlyphs'>Family</text></g>
<rect x='329.68' y='190.08' width='15.86' height='15.86' style='stroke-width: 1.07; stroke-linecap: square; stroke-linejoin: miter; fill: #E6194B;' clip-path='url(#cpMC4wMHw0MzIuMDB8NTc2LjAwfDAuMDA=)' />
<rect x='329.68' y='207.36' width='15.86' height='15.86' style='stroke-width: 1.07; stroke-linecap: square; stroke-linejoin: miter; fill: #3CB44B;' clip-path='url(#cpMC4wMHw0MzIuMDB8NTc2LjAwfDAuMDA=)' />
<rect x='329.68' y='224.64' width='15.86' height='15.86' style='stroke-width: 1.07; stroke-linecap: square; stroke-linejoin: miter; fill: #4363D8;' clip-path='url(#cpMC4wMHw0MzIuMDB8NTc2LjAwfDAuMDA=)' />
<rect x='329.68' y='241.92' width='15.86' height='15.86' style='stroke-width: 1.07; stroke-linecap: square; stroke-linejoin: miter; fill: #FFE119;' clip-path='url(#cpMC4wMHw0MzIuMDB8NTc2LjAwfDAuMDA=)' />
<rect x='329.68' y='259.20' width='15.86' height='15.86' style='stroke-width: 1.07; stroke-linecap: square; stroke-linejoin: miter; fill: #F58231;' clip-path='url(#cpMC4wMHw0MzIuMDB8NTc2LjAwfDAuMDA=)' />
<rect x='329.68' y='276.48' width='15.86' height='15.86' style='stroke-width: 1.07; stroke-linecap: square; stroke-linejoin: miter; fill: #911EB4;' clip-path='url(#cpMC4wMHw0MzIuMDB8NTc2LjAwfDAuMDA=)' />
<rect x='329.68' y='293.76' width='15.86' height='15.86' style='stroke-width: 1.07; stroke-linecap: square; stroke-linejoin: miter; fill: #46F0F0;' clip-path='url(#cpMC4wMHw0MzIuMDB8NTc2LjAwfDAuMDA=)' />
<rect x='329.68' y='311.04' width='15.86' height='15.86' style='stroke-width: 1.07; stroke-linecap: square; stroke-linejoin: miter; fill: #F032E6;' clip-path='url(#cpMC4wMHw0MzIuMDB8NTc2LjAwfDAuMDA=)' />
<rect x='329.68' y='328.32' width='15.86' height='15.86' style='stroke-width: 1.07; stroke-linecap: square; stroke-linejoin: miter; fill: #BCF60C;' clip-path='url(#cpMC4wMHw0MzIuMDB8NTc2LjAwfDAuMDA=)' />
<rect x='329.68' y='345.60' width='15.86' height='15.86' style='stroke-width: 1.07; stroke-linecap: square; stroke-linejoin: miter; fill: #FABEBE;' clip-path='url(#cpMC4wMHw0MzIuMDB8NTc2LjAwfDAuMDA=)' />
<rect x='329.68' y='362.88' width='15.86' height='15.86' style='stroke-width: 1.07; stroke-linecap: square; stroke-linejoin: miter; fill: #008080;' clip-path='url(#cpMC4wMHw0MzIuMDB8NTc2LjAwfDAuMDA=)' />
<g clip-path='url(#cpMC4wMHw0MzIuMDB8NTc2LjAwfDAuMDA=)'><text x='351.23' y='200.77' style='font-size: 8.00px; font-family: Arimo;' textLength='63.59px' lengthAdjust='spacingAndGlyphs'>Akkermansiaceae</text></g>
<g clip-path='url(#cpMC4wMHw0MzIuMDB8NTc2LjAwfDAuMDA=)'><text x='351.23' y='218.05' style='font-size: 8.00px; font-family: Arimo;' textLength='55.59px' lengthAdjust='spacingAndGlyphs'>Bacteroidaceae</text></g>
<g clip-path='url(#cpMC4wMHw0MzIuMDB8NTc2LjAwfDAuMDA=)'><text x='351.23' y='235.33' style='font-size: 8.00px; font-family: Arimo;' textLength='69.38px' lengthAdjust='spacingAndGlyphs'>Enterobacteriaceae</text></g>
<g clip-path='url(#cpMC4wMHw0MzIuMDB8NTc2LjAwfDAuMDA=)'><text x='351.23' y='252.61' style='font-size: 8.00px; font-family: Arimo;' textLength='69.81px' lengthAdjust='spacingAndGlyphs'>Erysipelotrichaceae</text></g>
<g clip-path='url(#cpMC4wMHw0MzIuMDB8NTc2LjAwfDAuMDA=)'><text x='351.23' y='269.89' style='font-size: 8.00px; font-family: Arimo;' textLength='60.93px' lengthAdjust='spacingAndGlyphs'>Lachnospiraceae</text></g>
<g clip-path='url(#cpMC4wMHw0MzIuMDB8NTc2LjAwfDAuMDA=)'><text x='351.23' y='287.17' style='font-size: 8.00px; font-family: Arimo;' textLength='59.60px' lengthAdjust='spacingAndGlyphs'>Lactobacillaceae</text></g>
<g clip-path='url(#cpMC4wMHw0MzIuMDB8NTc2LjAwfDAuMDA=)'><text x='351.23' y='304.45' style='font-size: 8.00px; font-family: Arimo;' textLength='56.48px' lengthAdjust='spacingAndGlyphs'>Muribaculaceae</text></g>
<g clip-path='url(#cpMC4wMHw0MzIuMDB8NTc2LjAwfDAuMDA=)'><text x='351.23' y='321.73' style='font-size: 8.00px; font-family: Arimo;' textLength='58.69px' lengthAdjust='spacingAndGlyphs'>Oscillospiraceae</text></g>
<g clip-path='url(#cpMC4wMHw0MzIuMDB8NTc2LjAwfDAuMDA=)'><text x='351.23' y='339.01' style='font-size: 8.00px; font-family: Arimo;' textLength='20.01px' lengthAdjust='spacingAndGlyphs'>Other</text></g>
<g clip-path='url(#cpMC4wMHw0MzIuMDB8NTc2LjAwfDAuMDA=)'><text x='351.23' y='356.29' style='font-size: 8.00px; font-family: Arimo;' textLength='50.25px' lengthAdjust='spacingAndGlyphs'>Rikenellaceae</text></g>
<g clip-path='url(#cpMC4wMHw0MzIuMDB8NTc2LjAwfDAuMDA=)'><text x='351.23' y='373.57' style='font-size: 8.00px; font-family: Arimo;' textLength='65.81px' lengthAdjust='spacingAndGlyphs'>Ruminococcaceae</text></g>
</svg>
