<?xml version='1.0' encoding='UTF-8' ?>
<svg xmlns='http://www.w3.org/2000/svg' xmlns:xlink='http://www.w3.org/1999/xlink' viewBox='0 0 432.00 576.00'>
<defs>
  <style type='text/css'><![CDATA[
    line, polyline, polygon, path, rect, circle {
      fill: none;
      stroke: #000000;
      stroke-linecap: round;
      stroke-linejoin: round;
      stroke-miterlimit: 10.00;
    }
  ]]></style>
</defs>
<rect width='100%' height='100%' style='stroke: none; fill: #FFFFFF;'/>
<defs>
  <clipPath id='cpMzcuNjh8MjU3LjgwfDU0OS40Mnw1LjQ4'>
    <rect x='37.68' y='5.48' width='220.13' height='543.94' />
  </clipPath>
</defs>
<polyline points='37.68,462.88 257.80,462.88 ' style='stroke-width: 0.53; stroke: #EBEBEB; stroke-linecap: butt;' clip-path='url(#cpMzcuNjh8MjU3LjgwfDU0OS40Mnw1LjQ4)' />
<polyline points='37.68,339.26 257.80,339.26 ' style='stroke-width: 0.53; stroke: #EBEBEB; stroke-linecap: butt;' clip-path='url(#cpMzcuNjh8MjU3LjgwfDU0OS40Mnw1LjQ4)' />
<polyline points='37.68,215.64 257.80,215.64 ' style='stroke-width: 0.53; stroke: #EBEBEB; stroke-linecap: butt;' clip-path='url(#cpMzcuNjh8MjU3LjgwfDU0OS40Mnw1LjQ4)' />
<polyline points='37.68,92.01 257.80,92.01 ' style='stroke-width: 0.53; stroke: #EBEBEB; stroke-linecap: butt;' clip-path='url(#cpMzcuNjh8MjU3LjgwfDU0OS40Mnw1LjQ4)' />
<polyline points='37.68,524.69 257.80,524.69 ' style='stroke-width: 1.07; stroke: #EBEBEB; stroke-linecap: butt;' clip-path='url(#cpMzcuNjh8MjU3LjgwfDU0OS40Mnw1LjQ4)' />
<polyline points='37.68,401.07 257.80,401.07 ' style='stroke-width: 1.07; stroke: #EBEBEB; stroke-linecap: butt;' clip-path='url(#cpMzcuNjh8MjU3LjgwfDU0OS40Mnw1LjQ4)' />
<polyline points='37.68,277.45 257.80,277.45 ' style='stroke-width: 1.07; stroke: #EBEBEB; stroke-linecap: butt;' clip-path='url(#cpMzcuNjh8MjU3LjgwfDU0OS40Mnw1LjQ4)' />
<polyline points='37.68,153.83 257.80,153.83 ' style='stroke-width: 1.07; stroke: #EBEBEB; stroke-linecap: butt;' clip-path='url(#cpMzcuNjh8MjU3LjgwfDU0OS40Mnw1LjQ4)' />
<polyline points='37.68,30.20 257.80,30.20 ' style='stroke-width: 1.07; stroke: #EBEBEB; stroke-linecap: butt;' clip-path='url(#cpMzcuNjh8MjU3LjgwfDU0OS40Mnw1LjQ4)' />
<polyline points='197.77,549.42 197.77,5.48 ' style='stroke-width: 1.07; stroke: #EBEBEB; stroke-linecap: butt;' clip-path='url(#cpMzcuNjh8MjU3LjgwfDU0OS40Mnw1LjQ4)' />
<polyline points='97.71,549.42 97.71,5.48 ' style='stroke-width: 1.07; stroke: #EBEBEB; stroke-linecap: butt;' clip-path='url(#cpMzcuNjh8MjU3LjgwfDU0OS40Mnw1LjQ4)' />
<rect x='152.74' y='30.20' width='90.05' height='15.88' style='stroke-width: 1.07; stroke-linecap: square; stroke-linejoin: miter; fill: #E6194B;' clip-path='url(#cpMzcuNjh8MjU3LjgwfDU0OS40Mnw1LjQ4)' />
<rect x='52.68' y='30.20' width='90.05' height='2.42' style='stroke-width: 1.07; stroke-linecap: square; stroke-linejoin: miter; fill: #E6194B;' clip-path='url(#cpMzcuNjh8MjU3LjgwfDU0OS40Mnw1LjQ4)' />
<rect x='152.74' y='46.08' width='90.05' height='25.93' style='stroke-width: 1.07; stroke-linecap: square; stroke-linejoin: miter; fill: #3CB44B;' clip-path='url(#cpMzcuNjh8MjU3LjgwfDU0OS40Mnw1LjQ4)' />
<rect x='52.68' y='32.62' width='90.05' height='15.68' style='stroke-width: 1.07; stroke-linecap: square; stroke-linejoin: miter; fill: #3CB44B;' clip-path='url(#cpMzcuNjh8MjU3LjgwfDU0OS40Mnw1LjQ4)' />
<rect x='152.74' y='72.01' width='90.05' height='53.83' style='stroke-width: 1.07; stroke-linecap: square; stroke-linejoin: miter; fill: #4363D8;' clip-path='url(#cpMzcuNjh8MjU3LjgwfDU0OS40Mnw1LjQ4)' />
<rect x='52.68' y='48.30' width='90.05' height='3.09' style='stroke-width: 1.07; stroke-linecap: square; stroke-linejoin: miter; fill: #4363D8;' clip-path='url(#cpMzcuNjh8MjU3LjgwfDU0OS40Mnw1LjQ4)' />
<rect x='52.68' y='51.39' width='90.05' height='15.09' style='stroke-width: 1.07; stroke-linecap: square; stroke-linejoin: miter; fill: #FFE119;' clip-path='url(#cpMzcuNjh8MjU3LjgwfDU0OS40Mnw1LjQ4)' />
<rect x='152.74' y='125.84' width='90.05' height='13.06' style='stroke-width: 1.07; stroke-linecap: square; stroke-linejoin: miter; fill: #FFE119;' clip-path='url(#cpMzcuNjh8MjU3LjgwfDU0OS40Mnw1LjQ4)' />
<rect x='152.74' y='138.90' width='90.05' height='9.02' style='stroke-width: 1.07; stroke-linecap: square; stroke-linejoin: miter; fill: #F58231;' clip-path='url(#cpMzcuNjh8MjU3LjgwfDU0OS40Mnw1LjQ4)' />
<rect x='52.68' y='66.48' width='90.05' height='8.85' style='stroke-width: 1.07; stroke-linecap: square; stroke-linejoin: miter; fill: #F58231;' clip-path='url(#cpMzcuNjh8MjU3LjgwfDU0OS40Mnw1LjQ4)' />
<rect x='52.68' y='75.34' width='90.05' height='32.41' style='stroke-width: 1.07; stroke-linecap: square; stroke-linejoin: miter; fill: #911EB4;' clip-path='url(#cpMzcuNjh8MjU3LjgwfDU0OS40Mnw1LjQ4)' />
<rect x='152.74' y='147.92' width='90.05' height='23.67' style='stroke-width: 1.07; stroke-linecap: square; stroke-linejoin: miter; fill: #911EB4;' clip-path='url(#cpMzcuNjh8MjU3LjgwfDU0OS40Mnw1LjQ4)' />
<rect x='52.68' y='107.75' width='90.05' height='35.01' style='stroke-width: 1.07; stroke-linecap: square; stroke-linejoin: miter; fill: #46F0F0;' clip-path='url(#cpMzcuNjh8MjU3LjgwfDU0OS40Mnw1LjQ4)' />
<rect x='152.74' y='171.59' width='90.05' height='29.42' style='stroke-width: 1.07; stroke-linecap: square; stroke-linejoin: miter; fill: #46F0F0;' clip-path='url(#cpMzcuNjh8MjU3LjgwfDU0OS40Mnw1LjQ4)' />
<rect x='52.68' y='142.76' width='90.05' height='21.13' style='stroke-width: 1.07; stroke-linecap: square; stroke-linejoin: miter; fill: #F032E6;' clip-path='url(#cpMzcuNjh8MjU3LjgwfDU0OS40Mnw1LjQ4)' />
<rect x='152.74' y='201.01' width='90.05' height='12.70' style='stroke-width: 1.07; stroke-linecap: square; stroke-linejoin: miter; fill: #F032E6;' clip-path='url(#cpMzcuNjh8MjU3LjgwfDU0OS40Mnw1LjQ4)' />
<rect x='52.68' y='163.90' width='90.05' height='281.33' style='stroke-width: 1.07; stroke-linecap: square; stroke-linejoin: miter; fill: #BCF60C;' clip-path='url(#cpMzcuNjh8MjU3LjgwfDU0OS40Mnw1LjQ4)' />
<rect x='152.74' y='213.71' width='90.05' height='221.51' style='stroke-width: 1.07; stroke-linecap: square; stroke-linejoin: miter; fill: #BCF60C;' clip-path='url(#cpMzcuNjh8MjU3LjgwfDU0OS40Mnw1LjQ4)' />
<rect x='152.74' y='435.22' width='90.05' height='77.77' style='stroke-width: 1.07; stroke-linecap: square; stroke-linejoin: miter; fill: #FABEBE;' clip-path='url(#cpMzcuNjh8MjU3LjgwfDU0OS40Mnw1LjQ4)' />
<rect x='52.68' y='445.22' width='90.05' height='68.12' style='stroke-width: 1.07; stroke-linecap: square; stroke-linejoin: miter; fill: #FABEBE;' clip-path='url(#cpMzcuNjh8MjU3LjgwfDU0OS40Mnw1LjQ4)' />
<rect x='152.74' y='513.00' width='90.05' height='11.69' style='stroke-width: 1.07; stroke-linecap: square; stroke-linejoin: miter; fill: #008080;' clip-path='url(#cpMzcuNjh8MjU3LjgwfDU0OS40Mnw1LjQ4)' />
<rect x='52.68' y='513.34' width='90.05' height='11.35' style='stroke-width: 1.07; stroke-linecap: square; stroke-linejoin: miter; fill: #008080;' clip-path='url(#cpMzcuNjh8MjU3LjgwfDU0OS40Mnw1LjQ4)' />
<defs>
  <clipPath id='cpMC4wMHw0MzIuMDB8NTc2LjAwfDAuMDA='>
    <rect x='0.00' y='0.00' width='432.00' height='576.00' />
  </clipPath>
</defs>
<g clip-path='url(#cpMC4wMHw0MzIuMDB8NTc2LjAwfDAuMDA=)'><text x='17.17' y='527.44' style='font-size: 8.00px; fill: #4D4D4D; font-family: Arimo;' textLength='15.57px' lengthAdjust='spacingAndGlyphs'>0.00</text></g>
<g clip-path='url(#cpMC4wMHw0MzIuMDB8NTc2LjAwfDAuMDA=)'><text x='17.17' y='403.82' style='font-size: 8.00px; fill: #4D4D4D; font-family: Arimo;' textLength='15.57px' lengthAdjust='spacingAndGlyphs'>0.25</text></g>
<g clip-path='url(#cpMC4wMHw0MzIuMDB8NTc2LjAwfDAuMDA=)'><text x='17.17' y='280.20' style='font-size: 8.00px; fill: #4D4D4D; font-family: Arimo;' textLength='15.57px' lengthAdjust='spacingAndGlyphs'>0.50</text></g>
<g clip-path='url(#cpMC4wMHw0MzIuMDB8NTc2LjAwfDAuMDA=)'><text x='17.17' y='156.58' style='font-size: 8.00px; fill: #4D4D4D; font-family: Arimo;' textLength='15.57px' lengthAdjust='spacingAndGlyphs'>0.75</text></g>
<g clip-path='url(#cpMC4wMHw0MzIuMDB8NTc2LjAwfDAuMDA=)'><text x='17.17' y='32.96' style='font-size: 8.00px; fill: #4D4D4D; font-family: Arimo;' textLength='15.57px' lengthAdjust='spacingAndGlyphs'>1.00</text></g>
<g clip-path='url(#cpMC4wMHw0MzIuMDB8NTc2LjAwfDAuMDA=)'><text x='186.37' y='557.79' style='font-size: 5.00px; font-weight: bold; fill: #4D4D4D; font-family: Arimo;' textLength='22.79px' lengthAdjust='spacingAndGlyphs'>31.25mpk</text></g>
<g clip-path='url(#cpMC4wMHw0MzIuMDB8NTc2LjAwfDAuMDA=)'><text x='91.18' y='557.79' style='font-size: 5.00px; font-weight: bold; fill: #4D4D4D; font-family: Arimo;' textLength='13.06px' lengthAdjust='spacingAndGlyphs'>0mpk</text></g>
<g clip-path='url(#cpMC4wMHw0MzIuMDB8NTc2LjAwfDAuMDA=)'><text transform='translate(12.36,331.37) rotate(-90)' style='font-size: 10.00px; font-family: Arimo;' textLength='107.84px' lengthAdjust='spacingAndGlyphs'>Relative Abundance (%)</text></g>
<g clip-path='url(#cpMC4wMHw0MzIuMDB8NTc2LjAwfDAuMDA=)'><text x='274.24' y='183.36' style='font-size: 10.00px; font-family: Arimo;' textLength='29.46px' lengthAdjust='spacingAndGlyphs'>Genus</text></g>
<rect x='274.95' y='190.08' width='15.86' height='15.86' style='stroke-width: 1.07; stroke-linecap: square; stroke-linejoin: miter; fill: #E6194B;' clip-path='url(#cpMC4wMHw0MzIuMDB8NTc2LjAwfDAuMDA=)' />
<rect x='274.95' y='207.36' width='15.86' height='15.86' style='stroke-width: 1.07; stroke-linecap: square; stroke-linejoin: miter; fill: #3CB44B;' clip-path='url(#cpMC4wMHw0MzIuMDB8NTc2LjAwfDAuMDA=)' />
<rect x='274.95' y='224.64' width='15.86' height='15.86' style='stroke-width: 1.07; stroke-linecap: square; stroke-linejoin: miter; fill: #4363D8;' clip-path='url(#cpMC4wMHw0MzIuMDB8NTc2LjAwfDAuMDA=)' />
<rect x='274.95' y='241.92' width='15.86' height='15.86' style='stroke-width: 1.07; stroke-linecap: square; stroke-linejoin: miter; fill: #FFE119;' clip-path='url(#cpMC4wMHw0MzIuMDB8NTc2LjAwfDAuMDA=)' />
<rect x='274.95' y='259.20' width='15.86' height='15.86' style='stroke-width: 1.07; stroke-linecap: square; stroke-linejoin: miter; fill: #F58231;' clip-path='url(#cpMC4wMHw0MzIuMDB8NTc2LjAwfDAuMDA=)' />
<rect x='274.95' y='276.48' width='15.86' height='15.86' style='stroke-width: 1.07; stroke-linecap: square; stroke-linejoin: miter; fill: #911EB4;' clip-path='url(#cpMC4wMHw0MzIuMDB8NTc2LjAwfDAuMDA=)' />
<rect x='274.95' y='293.76' width='15.86' height='15.86' style='stroke-width: 1.07; stroke-linecap: square; stroke-linejoin: miter; fill: #46F0F0;' clip-path='url(#cpMC4wMHw0MzIuMDB8NTc2LjAwfDAuMDA=)' />
<rect x='274.95' y='311.04' width='15.86' height='15.86' style='stroke-width: 1.07; stroke-linecap: square; stroke-linejoin: miter; fill: #F032E6;' clip-path='url(#cpMC4wMHw0MzIuMDB8NTc2LjAwfDAuMDA=)' />
<rect x='274.95' y='328.32' width='15.86' height='15.86' style='stroke-width: 1.07; stroke-linecap: square; stroke-linejoin: miter; fill: #BCF60C;' clip-path='url(#cpMC4wMHw0MzIuMDB8NTc2LjAwfDAuMDA=)' />
<rect x='274.95' y='345.60' width='15.86' height='15.86' style='stroke-width: 1.07; stroke-linecap: square; stroke-linejoin: miter; fill: #FABEBE;' clip-path='url(#cpMC4wMHw0MzIuMDB8NTc2LjAwfDAuMDA=)' />
<rect x='274.95' y='362.88' width='15.86' height='15.86' style='stroke-width: 1.07; stroke-linecap: square; stroke-linejoin: miter; fill: #008080;' clip-path='url(#cpMC4wMHw0MzIuMDB8NTc2LjAwfDAuMDA=)' />
<g clip-path='url(#cpMC4wMHw0MzIuMDB8NTc2LjAwfDAuMDA=)'><text x='296.50' y='200.77' style='font-size: 8.00px; font-family: Arimo;' textLength='46.24px' lengthAdjust='spacingAndGlyphs'>Akkermansia</text></g>
<g clip-path='url(#cpMC4wMHw0MzIuMDB8NTc2LjAwfDAuMDA=)'><text x='296.50' y='218.05' style='font-size: 8.00px; font-family: Arimo;' textLength='29.79px' lengthAdjust='spacingAndGlyphs'>Alistipes</text></g>
<g clip-path='url(#cpMC4wMHw0MzIuMDB8NTc2LjAwfDAuMDA=)'><text x='296.50' y='235.33' style='font-size: 8.00px; font-family: Arimo;' textLength='42.25px' lengthAdjust='spacingAndGlyphs'>Bacteroides</text></g>
<g clip-path='url(#cpMC4wMHw0MzIuMDB8NTc2LjAwfDAuMDA=)'><text x='296.50' y='252.61' style='font-size: 8.00px; font-family: Arimo;' textLength='101.40px' lengthAdjust='spacingAndGlyphs'>Clostridia_vadinBB60_group</text></g>
<g clip-path='url(#cpMC4wMHw0MzIuMDB8NTc2LjAwfDAuMDA=)'><text x='296.50' y='269.89' style='font-size: 8.00px; font-family: Arimo;' textLength='55.58px' lengthAdjust='spacingAndGlyphs'>Colidextribacter</text></g>
<g clip-path='url(#cpMC4wMHw0MzIuMDB8NTc2LjAwfDAuMDA=)'><text x='296.50' y='287.17' style='font-size: 8.00px; font-family: Arimo;' textLength='44.46px' lengthAdjust='spacingAndGlyphs'>Helicobacter</text></g>
<g clip-path='url(#cpMC4wMHw0MzIuMDB8NTc2LjAwfDAuMDA=)'><text x='296.50' y='304.45' style='font-size: 8.00px; font-family: Arimo;' textLength='124.54px' lengthAdjust='spacingAndGlyphs'>Lachnospiraceae_NK4A136_group</text></g>
<g clip-path='url(#cpMC4wMHw0MzIuMDB8NTc2LjAwfDAuMDA=)'><text x='296.50' y='321.73' style='font-size: 8.00px; font-family: Arimo;' textLength='46.25px' lengthAdjust='spacingAndGlyphs'>Lactobacillus</text></g>
<g clip-path='url(#cpMC4wMHw0MzIuMDB8NTc2LjAwfDAuMDA=)'><text x='296.50' y='339.01' style='font-size: 8.00px; font-family: Arimo;' textLength='56.48px' lengthAdjust='spacingAndGlyphs'>Muribaculaceae</text></g>
<g clip-path='url(#cpMC4wMHw0MzIuMDB8NTc2LjAwfDAuMDA=)'><text x='296.50' y='356.29' style='font-size: 8.00px; font-family: Arimo;' textLength='20.01px' lengthAdjust='spacingAndGlyphs'>Other</text></g>
<g clip-path='url(#cpMC4wMHw0MzIuMDB8NTc2LjAwfDAuMDA=)'><text x='296.50' y='373.57' style='font-size: 8.00px; font-family: Arimo;' textLength='33.35px' lengthAdjust='spacingAndGlyphs'>Unknown</text></g>
</svg>
