<?xml version='1.0' encoding='UTF-8' ?>
<svg xmlns='http://www.w3.org/2000/svg' xmlns:xlink='http://www.w3.org/1999/xlink' viewBox='0 0 432.00 576.00'>
<defs>
  <style type='text/css'><![CDATA[
    line, polyline, polygon, path, rect, circle {
      fill: none;
      stroke: #000000;
      stroke-linecap: round;
      stroke-linejoin: round;
      stroke-miterlimit: 10.00;
    }
  ]]></style>
</defs>
<rect width='100%' height='100%' style='stroke: none; fill: #FFFFFF;'/>
<defs>
  <clipPath id='cpMzcuNjh8MjU3LjgwfDU0OS40Mnw1LjQ4'>
    <rect x='37.68' y='5.48' width='220.13' height='543.94' />
  </clipPath>
</defs>
<polyline points='37.68,462.88 257.80,462.88 ' style='stroke-width: 0.53; stroke: #EBEBEB; stroke-linecap: butt;' clip-path='url(#cpMzcuNjh8MjU3LjgwfDU0OS40Mnw1LjQ4)' />
<polyline points='37.68,339.26 257.80,339.26 ' style='stroke-width: 0.53; stroke: #EBEBEB; stroke-linecap: butt;' clip-path='url(#cpMzcuNjh8MjU3LjgwfDU0OS40Mnw1LjQ4)' />
<polyline points='37.68,215.64 257.80,215.64 ' style='stroke-width: 0.53; stroke: #EBEBEB; stroke-linecap: butt;' clip-path='url(#cpMzcuNjh8MjU3LjgwfDU0OS40Mnw1LjQ4)' />
<polyline points='37.68,92.01 257.80,92.01 ' style='stroke-width: 0.53; stroke: #EBEBEB; stroke-linecap: butt;' clip-path='url(#cpMzcuNjh8MjU3LjgwfDU0OS40Mnw1LjQ4)' />
<polyline points='37.68,524.69 257.80,524.69 ' style='stroke-width: 1.07; stroke: #EBEBEB; stroke-linecap: butt;' clip-path='url(#cpMzcuNjh8MjU3LjgwfDU0OS40Mnw1LjQ4)' />
<polyline points='37.68,401.07 257.80,401.07 ' style='stroke-width: 1.07; stroke: #EBEBEB; stroke-linecap: butt;' clip-path='url(#cpMzcuNjh8MjU3LjgwfDU0OS40Mnw1LjQ4)' />
<polyline points='37.68,277.45 257.80,277.45 ' style='stroke-width: 1.07; stroke: #EBEBEB; stroke-linecap: butt;' clip-path='url(#cpMzcuNjh8MjU3LjgwfDU0OS40Mnw1LjQ4)' />
<polyline points='37.68,153.83 257.80,153.83 ' style='stroke-width: 1.07; stroke: #EBEBEB; stroke-linecap: butt;' clip-path='url(#cpMzcuNjh8MjU3LjgwfDU0OS40Mnw1LjQ4)' />
<polyline points='37.68,30.20 257.80,30.20 ' style='stroke-width: 1.07; stroke: #EBEBEB; stroke-linecap: butt;' clip-path='url(#cpMzcuNjh8MjU3LjgwfDU0OS40Mnw1LjQ4)' />
<polyline points='69.12,549.42 69.12,5.48 ' style='stroke-width: 1.07; stroke: #EBEBEB; stroke-linecap: butt;' clip-path='url(#cpMzcuNjh8MjU3LjgwfDU0OS40Mnw1LjQ4)' />
<polyline points='226.36,549.42 226.36,5.48 ' style='stroke-width: 1.07; stroke: #EBEBEB; stroke-linecap: butt;' clip-path='url(#cpMzcuNjh8MjU3LjgwfDU0OS40Mnw1LjQ4)' />
<polyline points='173.94,549.42 173.94,5.48 ' style='stroke-width: 1.07; stroke: #EBEBEB; stroke-linecap: butt;' clip-path='url(#cpMzcuNjh8MjU3LjgwfDU0OS40Mnw1LjQ4)' />
<polyline points='121.53,549.42 121.53,5.48 ' style='stroke-width: 1.07; stroke: #EBEBEB; stroke-linecap: butt;' clip-path='url(#cpMzcuNjh8MjU3LjgwfDU0OS40Mnw1LjQ4)' />
<rect x='45.54' y='30.20' width='47.17' height='105.21' style='stroke-width: 1.07; stroke-linecap: square; stroke-linejoin: miter; fill: #E6194B;' clip-path='url(#cpMzcuNjh8MjU3LjgwfDU0OS40Mnw1LjQ4)' />
<rect x='202.77' y='30.20' width='47.17' height='23.06' style='stroke-width: 1.07; stroke-linecap: square; stroke-linejoin: miter; fill: #E6194B;' clip-path='url(#cpMzcuNjh8MjU3LjgwfDU0OS40Mnw1LjQ4)' />
<rect x='150.36' y='30.20' width='47.17' height='1.21' style='stroke-width: 1.07; stroke-linecap: square; stroke-linejoin: miter; fill: #E6194B;' clip-path='url(#cpMzcuNjh8MjU3LjgwfDU0OS40Mnw1LjQ4)' />
<rect x='97.95' y='30.20' width='47.17' height='0.35' style='stroke-width: 1.07; stroke-linecap: square; stroke-linejoin: miter; fill: #E6194B;' clip-path='url(#cpMzcuNjh8MjU3LjgwfDU0OS40Mnw1LjQ4)' />
<rect x='97.95' y='30.56' width='47.17' height='10.24' style='stroke-width: 1.07; stroke-linecap: square; stroke-linejoin: miter; fill: #3CB44B;' clip-path='url(#cpMzcuNjh8MjU3LjgwfDU0OS40Mnw1LjQ4)' />
<rect x='150.36' y='31.41' width='47.17' height='8.18' style='stroke-width: 1.07; stroke-linecap: square; stroke-linejoin: miter; fill: #3CB44B;' clip-path='url(#cpMzcuNjh8MjU3LjgwfDU0OS40Mnw1LjQ4)' />
<rect x='202.77' y='53.27' width='47.17' height='8.18' style='stroke-width: 1.07; stroke-linecap: square; stroke-linejoin: miter; fill: #3CB44B;' clip-path='url(#cpMzcuNjh8MjU3LjgwfDU0OS40Mnw1LjQ4)' />
<rect x='45.54' y='135.41' width='47.17' height='8.09' style='stroke-width: 1.07; stroke-linecap: square; stroke-linejoin: miter; fill: #3CB44B;' clip-path='url(#cpMzcuNjh8MjU3LjgwfDU0OS40Mnw1LjQ4)' />
<rect x='202.77' y='61.45' width='47.17' height='39.73' style='stroke-width: 1.07; stroke-linecap: square; stroke-linejoin: miter; fill: #4363D8;' clip-path='url(#cpMzcuNjh8MjU3LjgwfDU0OS40Mnw1LjQ4)' />
<rect x='150.36' y='39.60' width='47.17' height='19.26' style='stroke-width: 1.07; stroke-linecap: square; stroke-linejoin: miter; fill: #4363D8;' clip-path='url(#cpMzcuNjh8MjU3LjgwfDU0OS40Mnw1LjQ4)' />
<rect x='97.95' y='40.80' width='47.17' height='19.12' style='stroke-width: 1.07; stroke-linecap: square; stroke-linejoin: miter; fill: #4363D8;' clip-path='url(#cpMzcuNjh8MjU3LjgwfDU0OS40Mnw1LjQ4)' />
<rect x='45.54' y='143.50' width='47.17' height='0.15' style='stroke-width: 1.07; stroke-linecap: square; stroke-linejoin: miter; fill: #4363D8;' clip-path='url(#cpMzcuNjh8MjU3LjgwfDU0OS40Mnw1LjQ4)' />
<rect x='45.54' y='143.65' width='47.17' height='72.54' style='stroke-width: 1.07; stroke-linecap: square; stroke-linejoin: miter; fill: #FFE119;' clip-path='url(#cpMzcuNjh8MjU3LjgwfDU0OS40Mnw1LjQ4)' />
<rect x='150.36' y='58.86' width='47.17' height='3.82' style='stroke-width: 1.07; stroke-linecap: square; stroke-linejoin: miter; fill: #FFE119;' clip-path='url(#cpMzcuNjh8MjU3LjgwfDU0OS40Mnw1LjQ4)' />
<rect x='97.95' y='59.91' width='47.17' height='3.35' style='stroke-width: 1.07; stroke-linecap: square; stroke-linejoin: miter; fill: #FFE119;' clip-path='url(#cpMzcuNjh8MjU3LjgwfDU0OS40Mnw1LjQ4)' />
<rect x='202.77' y='101.18' width='47.17' height='0.78' style='stroke-width: 1.07; stroke-linecap: square; stroke-linejoin: miter; fill: #FFE119;' clip-path='url(#cpMzcuNjh8MjU3LjgwfDU0OS40Mnw1LjQ4)' />
<rect x='150.36' y='62.68' width='47.17' height='28.63' style='stroke-width: 1.07; stroke-linecap: square; stroke-linejoin: miter; fill: #F58231;' clip-path='url(#cpMzcuNjh8MjU3LjgwfDU0OS40Mnw1LjQ4)' />
<rect x='97.95' y='63.27' width='47.17' height='8.96' style='stroke-width: 1.07; stroke-linecap: square; stroke-linejoin: miter; fill: #F58231;' clip-path='url(#cpMzcuNjh8MjU3LjgwfDU0OS40Mnw1LjQ4)' />
<rect x='202.77' y='101.96' width='47.17' height='5.04' style='stroke-width: 1.07; stroke-linecap: square; stroke-linejoin: miter; fill: #F58231;' clip-path='url(#cpMzcuNjh8MjU3LjgwfDU0OS40Mnw1LjQ4)' />
<rect x='45.54' y='216.19' width='47.17' height='0.040' style='stroke-width: 1.07; stroke-linecap: square; stroke-linejoin: miter; fill: #F58231;' clip-path='url(#cpMzcuNjh8MjU3LjgwfDU0OS40Mnw1LjQ4)' />
<rect x='202.77' y='107.01' width='47.17' height='19.34' style='stroke-width: 1.07; stroke-linecap: square; stroke-linejoin: miter; fill: #911EB4;' clip-path='url(#cpMzcuNjh8MjU3LjgwfDU0OS40Mnw1LjQ4)' />
<rect x='150.36' y='91.31' width='47.17' height='12.36' style='stroke-width: 1.07; stroke-linecap: square; stroke-linejoin: miter; fill: #911EB4;' clip-path='url(#cpMzcuNjh8MjU3LjgwfDU0OS40Mnw1LjQ4)' />
<rect x='97.95' y='72.23' width='47.17' height='3.40' style='stroke-width: 1.07; stroke-linecap: square; stroke-linejoin: miter; fill: #911EB4;' clip-path='url(#cpMzcuNjh8MjU3LjgwfDU0OS40Mnw1LjQ4)' />
<rect x='45.54' y='216.23' width='47.17' height='0.027' style='stroke-width: 1.07; stroke-linecap: square; stroke-linejoin: miter; fill: #911EB4;' clip-path='url(#cpMzcuNjh8MjU3LjgwfDU0OS40Mnw1LjQ4)' />
<rect x='97.95' y='75.62' width='47.17' height='56.56' style='stroke-width: 1.07; stroke-linecap: square; stroke-linejoin: miter; fill: #46F0F0;' clip-path='url(#cpMzcuNjh8MjU3LjgwfDU0OS40Mnw1LjQ4)' />
<rect x='150.36' y='103.67' width='47.17' height='43.45' style='stroke-width: 1.07; stroke-linecap: square; stroke-linejoin: miter; fill: #46F0F0;' clip-path='url(#cpMzcuNjh8MjU3LjgwfDU0OS40Mnw1LjQ4)' />
<rect x='202.77' y='126.35' width='47.17' height='15.04' style='stroke-width: 1.07; stroke-linecap: square; stroke-linejoin: miter; fill: #46F0F0;' clip-path='url(#cpMzcuNjh8MjU3LjgwfDU0OS40Mnw1LjQ4)' />
<rect x='45.54' y='216.26' width='47.17' height='7.42' style='stroke-width: 1.07; stroke-linecap: square; stroke-linejoin: miter; fill: #46F0F0;' clip-path='url(#cpMzcuNjh8MjU3LjgwfDU0OS40Mnw1LjQ4)' />
<rect x='97.95' y='132.19' width='47.17' height='68.93' style='stroke-width: 1.07; stroke-linecap: square; stroke-linejoin: miter; fill: #F032E6;' clip-path='url(#cpMzcuNjh8MjU3LjgwfDU0OS40Mnw1LjQ4)' />
<rect x='202.77' y='141.39' width='47.17' height='38.63' style='stroke-width: 1.07; stroke-linecap: square; stroke-linejoin: miter; fill: #F032E6;' clip-path='url(#cpMzcuNjh8MjU3LjgwfDU0OS40Mnw1LjQ4)' />
<rect x='150.36' y='147.12' width='47.17' height='30.02' style='stroke-width: 1.07; stroke-linecap: square; stroke-linejoin: miter; fill: #F032E6;' clip-path='url(#cpMzcuNjh8MjU3LjgwfDU0OS40Mnw1LjQ4)' />
<rect x='45.54' y='223.68' width='47.17' height='20.62' style='stroke-width: 1.07; stroke-linecap: square; stroke-linejoin: miter; fill: #F032E6;' clip-path='url(#cpMzcuNjh8MjU3LjgwfDU0OS40Mnw1LjQ4)' />
<rect x='202.77' y='180.02' width='47.17' height='313.19' style='stroke-width: 1.07; stroke-linecap: square; stroke-linejoin: miter; fill: #BCF60C;' clip-path='url(#cpMzcuNjh8MjU3LjgwfDU0OS40Mnw1LjQ4)' />
<rect x='150.36' y='177.13' width='47.17' height='287.31' style='stroke-width: 1.07; stroke-linecap: square; stroke-linejoin: miter; fill: #BCF60C;' clip-path='url(#cpMzcuNjh8MjU3LjgwfDU0OS40Mnw1LjQ4)' />
<rect x='97.95' y='201.12' width='47.17' height='253.34' style='stroke-width: 1.07; stroke-linecap: square; stroke-linejoin: miter; fill: #BCF60C;' clip-path='url(#cpMzcuNjh8MjU3LjgwfDU0OS40Mnw1LjQ4)' />
<rect x='45.54' y='244.30' width='47.17' height='172.54' style='stroke-width: 1.07; stroke-linecap: square; stroke-linejoin: miter; fill: #BCF60C;' clip-path='url(#cpMzcuNjh8MjU3LjgwfDU0OS40Mnw1LjQ4)' />
<rect x='45.54' y='416.84' width='47.17' height='72.69' style='stroke-width: 1.07; stroke-linecap: square; stroke-linejoin: miter; fill: #FABEBE;' clip-path='url(#cpMzcuNjh8MjU3LjgwfDU0OS40Mnw1LjQ4)' />
<rect x='97.95' y='454.45' width='47.17' height='53.91' style='stroke-width: 1.07; stroke-linecap: square; stroke-linejoin: miter; fill: #FABEBE;' clip-path='url(#cpMzcuNjh8MjU3LjgwfDU0OS40Mnw1LjQ4)' />
<rect x='150.36' y='464.44' width='47.17' height='45.31' style='stroke-width: 1.07; stroke-linecap: square; stroke-linejoin: miter; fill: #FABEBE;' clip-path='url(#cpMzcuNjh8MjU3LjgwfDU0OS40Mnw1LjQ4)' />
<rect x='202.77' y='493.21' width='47.17' height='21.39' style='stroke-width: 1.07; stroke-linecap: square; stroke-linejoin: miter; fill: #FABEBE;' clip-path='url(#cpMzcuNjh8MjU3LjgwfDU0OS40Mnw1LjQ4)' />
<rect x='45.54' y='489.53' width='47.17' height='35.16' style='stroke-width: 1.07; stroke-linecap: square; stroke-linejoin: miter; fill: #008080;' clip-path='url(#cpMzcuNjh8MjU3LjgwfDU0OS40Mnw1LjQ4)' />
<rect x='97.95' y='508.36' width='47.17' height='16.33' style='stroke-width: 1.07; stroke-linecap: square; stroke-linejoin: miter; fill: #008080;' clip-path='url(#cpMzcuNjh8MjU3LjgwfDU0OS40Mnw1LjQ4)' />
<rect x='150.36' y='509.76' width='47.17' height='14.93' style='stroke-width: 1.07; stroke-linecap: square; stroke-linejoin: miter; fill: #008080;' clip-path='url(#cpMzcuNjh8MjU3LjgwfDU0OS40Mnw1LjQ4)' />
<rect x='202.77' y='514.60' width='47.17' height='10.09' style='stroke-width: 1.07; stroke-linecap: square; stroke-linejoin: miter; fill: #008080;' clip-path='url(#cpMzcuNjh8MjU3LjgwfDU0OS40Mnw1LjQ4)' />
<defs>
  <clipPath id='cpMC4wMHw0MzIuMDB8NTc2LjAwfDAuMDA='>
    <rect x='0.00' y='0.00' width='432.00' height='576.00' />
  </clipPath>
</defs>
<g clip-path='url(#cpMC4wMHw0MzIuMDB8NTc2LjAwfDAuMDA=)'><text x='17.17' y='527.44' style='font-size: 8.00px; fill: #4D4D4D; font-family: Arimo;' textLength='15.57px' lengthAdjust='spacingAndGlyphs'>0.00</text></g>
<g clip-path='url(#cpMC4wMHw0MzIuMDB8NTc2LjAwfDAuMDA=)'><text x='17.17' y='403.82' style='font-size: 8.00px; fill: #4D4D4D; font-family: Arimo;' textLength='15.57px' lengthAdjust='spacingAndGlyphs'>0.25</text></g>
<g clip-path='url(#cpMC4wMHw0MzIuMDB8NTc2LjAwfDAuMDA=)'><text x='17.17' y='280.20' style='font-size: 8.00px; fill: #4D4D4D; font-family: Arimo;' textLength='15.57px' lengthAdjust='spacingAndGlyphs'>0.50</text></g>
<g clip-path='url(#cpMC4wMHw0MzIuMDB8NTc2LjAwfDAuMDA=)'><text x='17.17' y='156.58' style='font-size: 8.00px; fill: #4D4D4D; font-family: Arimo;' textLength='15.57px' lengthAdjust='spacingAndGlyphs'>0.75</text></g>
<g clip-path='url(#cpMC4wMHw0MzIuMDB8NTc2LjAwfDAuMDA=)'><text x='17.17' y='32.96' style='font-size: 8.00px; fill: #4D4D4D; font-family: Arimo;' textLength='15.57px' lengthAdjust='spacingAndGlyphs'>1.00</text></g>
<g clip-path='url(#cpMC4wMHw0MzIuMDB8NTc2LjAwfDAuMDA=)'><text x='62.59' y='557.79' style='font-size: 5.00px; font-weight: bold; fill: #4D4D4D; font-family: Arimo;' textLength='13.06px' lengthAdjust='spacingAndGlyphs'>0mpk</text></g>
<g clip-path='url(#cpMC4wMHw0MzIuMDB8NTc2LjAwfDAuMDA=)'><text x='217.04' y='557.79' style='font-size: 5.00px; font-weight: bold; fill: #4D4D4D; font-family: Arimo;' textLength='18.62px' lengthAdjust='spacingAndGlyphs'>500mpk</text></g>
<g clip-path='url(#cpMC4wMHw0MzIuMDB8NTc2LjAwfDAuMDA=)'><text x='164.63' y='557.79' style='font-size: 5.00px; font-weight: bold; fill: #4D4D4D; font-family: Arimo;' textLength='18.62px' lengthAdjust='spacingAndGlyphs'>125mpk</text></g>
<g clip-path='url(#cpMC4wMHw0MzIuMDB8NTc2LjAwfDAuMDA=)'><text x='110.14' y='557.79' style='font-size: 5.00px; font-weight: bold; fill: #4D4D4D; font-family: Arimo;' textLength='22.79px' lengthAdjust='spacingAndGlyphs'>31.25mpk</text></g>
<g clip-path='url(#cpMC4wMHw0MzIuMDB8NTc2LjAwfDAuMDA=)'><text transform='translate(12.36,331.37) rotate(-90)' style='font-size: 10.00px; font-family: Arimo;' textLength='107.84px' lengthAdjust='spacingAndGlyphs'>Relative Abundance (%)</text></g>
<g clip-path='url(#cpMC4wMHw0MzIuMDB8NTc2LjAwfDAuMDA=)'><text x='274.24' y='183.36' style='font-size: 10.00px; font-family: Arimo;' textLength='29.46px' lengthAdjust='spacingAndGlyphs'>Genus</text></g>
<rect x='274.95' y='190.08' width='15.86' height='15.86' style='stroke-width: 1.07; stroke-linecap: square; stroke-linejoin: miter; fill: #E6194B;' clip-path='url(#cpMC4wMHw0MzIuMDB8NTc2LjAwfDAuMDA=)' />
<rect x='274.95' y='207.36' width='15.86' height='15.86' style='stroke-width: 1.07; stroke-linecap: square; stroke-linejoin: miter; fill: #3CB44B;' clip-path='url(#cpMC4wMHw0MzIuMDB8NTc2LjAwfDAuMDA=)' />
<rect x='274.95' y='224.64' width='15.86' height='15.86' style='stroke-width: 1.07; stroke-linecap: square; stroke-linejoin: miter; fill: #4363D8;' clip-path='url(#cpMC4wMHw0MzIuMDB8NTc2LjAwfDAuMDA=)' />
<rect x='274.95' y='241.92' width='15.86' height='15.86' style='stroke-width: 1.07; stroke-linecap: square; stroke-linejoin: miter; fill: #FFE119;' clip-path='url(#cpMC4wMHw0MzIuMDB8NTc2LjAwfDAuMDA=)' />
<rect x='274.95' y='259.20' width='15.86' height='15.86' style='stroke-width: 1.07; stroke-linecap: square; stroke-linejoin: miter; fill: #F58231;' clip-path='url(#cpMC4wMHw0MzIuMDB8NTc2LjAwfDAuMDA=)' />
<rect x='274.95' y='276.48' width='15.86' height='15.86' style='stroke-width: 1.07; stroke-linecap: square; stroke-linejoin: miter; fill: #911EB4;' clip-path='url(#cpMC4wMHw0MzIuMDB8NTc2LjAwfDAuMDA=)' />
<rect x='274.95' y='293.76' width='15.86' height='15.86' style='stroke-width: 1.07; stroke-linecap: square; stroke-linejoin: miter; fill: #46F0F0;' clip-path='url(#cpMC4wMHw0MzIuMDB8NTc2LjAwfDAuMDA=)' />
<rect x='274.95' y='311.04' width='15.86' height='15.86' style='stroke-width: 1.07; stroke-linecap: square; stroke-linejoin: miter; fill: #F032E6;' clip-path='url(#cpMC4wMHw0MzIuMDB8NTc2LjAwfDAuMDA=)' />
<rect x='274.95' y='328.32' width='15.86' height='15.86' style='stroke-width: 1.07; stroke-linecap: square; stroke-linejoin: miter; fill: #BCF60C;' clip-path='url(#cpMC4wMHw0MzIuMDB8NTc2LjAwfDAuMDA=)' />
<rect x='274.95' y='345.60' width='15.86' height='15.86' style='stroke-width: 1.07; stroke-linecap: square; stroke-linejoin: miter; fill: #FABEBE;' clip-path='url(#cpMC4wMHw0MzIuMDB8NTc2LjAwfDAuMDA=)' />
<rect x='274.95' y='362.88' width='15.86' height='15.86' style='stroke-width: 1.07; stroke-linecap: square; stroke-linejoin: miter; fill: #008080;' clip-path='url(#cpMC4wMHw0MzIuMDB8NTc2LjAwfDAuMDA=)' />
<g clip-path='url(#cpMC4wMHw0MzIuMDB8NTc2LjAwfDAuMDA=)'><text x='296.50' y='200.77' style='font-size: 8.00px; font-family: Arimo;' textLength='46.24px' lengthAdjust='spacingAndGlyphs'>Akkermansia</text></g>
<g clip-path='url(#cpMC4wMHw0MzIuMDB8NTc2LjAwfDAuMDA=)'><text x='296.50' y='218.05' style='font-size: 8.00px; font-family: Arimo;' textLength='29.79px' lengthAdjust='spacingAndGlyphs'>Alistipes</text></g>
<g clip-path='url(#cpMC4wMHw0MzIuMDB8NTc2LjAwfDAuMDA=)'><text x='296.50' y='235.33' style='font-size: 8.00px; font-family: Arimo;' textLength='42.25px' lengthAdjust='spacingAndGlyphs'>Bacteroides</text></g>
<g clip-path='url(#cpMC4wMHw0MzIuMDB8NTc2LjAwfDAuMDA=)'><text x='296.50' y='252.61' style='font-size: 8.00px; font-family: Arimo;' textLength='24.46px' lengthAdjust='spacingAndGlyphs'>Blautia</text></g>
<g clip-path='url(#cpMC4wMHw0MzIuMDB8NTc2LjAwfDAuMDA=)'><text x='296.50' y='269.89' style='font-size: 8.00px; font-family: Arimo;' textLength='37.36px' lengthAdjust='spacingAndGlyphs'>Dubosiella</text></g>
<g clip-path='url(#cpMC4wMHw0MzIuMDB8NTc2LjAwfDAuMDA=)'><text x='296.50' y='287.17' style='font-size: 8.00px; font-family: Arimo;' textLength='45.35px' lengthAdjust='spacingAndGlyphs'>Ileibacterium</text></g>
<g clip-path='url(#cpMC4wMHw0MzIuMDB8NTc2LjAwfDAuMDA=)'><text x='296.50' y='304.45' style='font-size: 8.00px; font-family: Arimo;' textLength='124.54px' lengthAdjust='spacingAndGlyphs'>Lachnospiraceae_NK4A136_group</text></g>
<g clip-path='url(#cpMC4wMHw0MzIuMDB8NTc2LjAwfDAuMDA=)'><text x='296.50' y='321.73' style='font-size: 8.00px; font-family: Arimo;' textLength='46.25px' lengthAdjust='spacingAndGlyphs'>Lactobacillus</text></g>
<g clip-path='url(#cpMC4wMHw0MzIuMDB8NTc2LjAwfDAuMDA=)'><text x='296.50' y='339.01' style='font-size: 8.00px; font-family: Arimo;' textLength='56.48px' lengthAdjust='spacingAndGlyphs'>Muribaculaceae</text></g>
<g clip-path='url(#cpMC4wMHw0MzIuMDB8NTc2LjAwfDAuMDA=)'><text x='296.50' y='356.29' style='font-size: 8.00px; font-family: Arimo;' textLength='20.01px' lengthAdjust='spacingAndGlyphs'>Other</text></g>
<g clip-path='url(#cpMC4wMHw0MzIuMDB8NTc2LjAwfDAuMDA=)'><text x='296.50' y='373.57' style='font-size: 8.00px; font-family: Arimo;' textLength='33.35px' lengthAdjust='spacingAndGlyphs'>Unknown</text></g>
</svg>
