<?xml version='1.0' encoding='UTF-8' ?>
<svg xmlns='http://www.w3.org/2000/svg' xmlns:xlink='http://www.w3.org/1999/xlink' viewBox='0 0 432.00 576.00'>
<defs>
  <style type='text/css'><![CDATA[
    line, polyline, polygon, path, rect, circle {
      fill: none;
      stroke: #000000;
      stroke-linecap: round;
      stroke-linejoin: round;
      stroke-miterlimit: 10.00;
    }
  ]]></style>
</defs>
<rect width='100%' height='100%' style='stroke: none; fill: #FFFFFF;'/>
<defs>
  <clipPath id='cpMzcuNjh8MjgwLjk0fDU0OS40Mnw1LjQ4'>
    <rect x='37.68' y='5.48' width='243.27' height='543.94' />
  </clipPath>
</defs>
<polyline points='37.68,462.88 280.94,462.88 ' style='stroke-width: 0.53; stroke: #EBEBEB; stroke-linecap: butt;' clip-path='url(#cpMzcuNjh8MjgwLjk0fDU0OS40Mnw1LjQ4)' />
<polyline points='37.68,339.26 280.94,339.26 ' style='stroke-width: 0.53; stroke: #EBEBEB; stroke-linecap: butt;' clip-path='url(#cpMzcuNjh8MjgwLjk0fDU0OS40Mnw1LjQ4)' />
<polyline points='37.68,215.64 280.94,215.64 ' style='stroke-width: 0.53; stroke: #EBEBEB; stroke-linecap: butt;' clip-path='url(#cpMzcuNjh8MjgwLjk0fDU0OS40Mnw1LjQ4)' />
<polyline points='37.68,92.01 280.94,92.01 ' style='stroke-width: 0.53; stroke: #EBEBEB; stroke-linecap: butt;' clip-path='url(#cpMzcuNjh8MjgwLjk0fDU0OS40Mnw1LjQ4)' />
<polyline points='37.68,524.69 280.94,524.69 ' style='stroke-width: 1.07; stroke: #EBEBEB; stroke-linecap: butt;' clip-path='url(#cpMzcuNjh8MjgwLjk0fDU0OS40Mnw1LjQ4)' />
<polyline points='37.68,401.07 280.94,401.07 ' style='stroke-width: 1.07; stroke: #EBEBEB; stroke-linecap: butt;' clip-path='url(#cpMzcuNjh8MjgwLjk0fDU0OS40Mnw1LjQ4)' />
<polyline points='37.68,277.45 280.94,277.45 ' style='stroke-width: 1.07; stroke: #EBEBEB; stroke-linecap: butt;' clip-path='url(#cpMzcuNjh8MjgwLjk0fDU0OS40Mnw1LjQ4)' />
<polyline points='37.68,153.83 280.94,153.83 ' style='stroke-width: 1.07; stroke: #EBEBEB; stroke-linecap: butt;' clip-path='url(#cpMzcuNjh8MjgwLjk0fDU0OS40Mnw1LjQ4)' />
<polyline points='37.68,30.20 280.94,30.20 ' style='stroke-width: 1.07; stroke: #EBEBEB; stroke-linecap: butt;' clip-path='url(#cpMzcuNjh8MjgwLjk0fDU0OS40Mnw1LjQ4)' />
<polyline points='130.35,549.42 130.35,5.48 ' style='stroke-width: 1.07; stroke: #EBEBEB; stroke-linecap: butt;' clip-path='url(#cpMzcuNjh8MjgwLjk0fDU0OS40Mnw1LjQ4)' />
<polyline points='72.43,549.42 72.43,5.48 ' style='stroke-width: 1.07; stroke: #EBEBEB; stroke-linecap: butt;' clip-path='url(#cpMzcuNjh8MjgwLjk0fDU0OS40Mnw1LjQ4)' />
<polyline points='188.27,549.42 188.27,5.48 ' style='stroke-width: 1.07; stroke: #EBEBEB; stroke-linecap: butt;' clip-path='url(#cpMzcuNjh8MjgwLjk0fDU0OS40Mnw1LjQ4)' />
<polyline points='246.19,549.42 246.19,5.48 ' style='stroke-width: 1.07; stroke: #EBEBEB; stroke-linecap: butt;' clip-path='url(#cpMzcuNjh8MjgwLjk0fDU0OS40Mnw1LjQ4)' />
<rect x='104.28' y='30.20' width='52.13' height='341.46' style='stroke-width: 1.07; stroke-linecap: square; stroke-linejoin: miter; fill: #E6194B;' clip-path='url(#cpMzcuNjh8MjgwLjk0fDU0OS40Mnw1LjQ4)' />
<rect x='46.36' y='30.20' width='52.13' height='332.09' style='stroke-width: 1.07; stroke-linecap: square; stroke-linejoin: miter; fill: #E6194B;' clip-path='url(#cpMzcuNjh8MjgwLjk0fDU0OS40Mnw1LjQ4)' />
<rect x='162.21' y='30.20' width='52.13' height='305.29' style='stroke-width: 1.07; stroke-linecap: square; stroke-linejoin: miter; fill: #E6194B;' clip-path='url(#cpMzcuNjh8MjgwLjk0fDU0OS40Mnw1LjQ4)' />
<rect x='220.13' y='30.20' width='52.13' height='294.52' style='stroke-width: 1.07; stroke-linecap: square; stroke-linejoin: miter; fill: #E6194B;' clip-path='url(#cpMzcuNjh8MjgwLjk0fDU0OS40Mnw1LjQ4)' />
<rect x='104.28' y='371.67' width='52.13' height='7.70' style='stroke-width: 1.07; stroke-linecap: square; stroke-linejoin: miter; fill: #3CB44B;' clip-path='url(#cpMzcuNjh8MjgwLjk0fDU0OS40Mnw1LjQ4)' />
<rect x='46.36' y='362.29' width='52.13' height='4.67' style='stroke-width: 1.07; stroke-linecap: square; stroke-linejoin: miter; fill: #3CB44B;' clip-path='url(#cpMzcuNjh8MjgwLjk0fDU0OS40Mnw1LjQ4)' />
<rect x='220.13' y='324.73' width='52.13' height='4.33' style='stroke-width: 1.07; stroke-linecap: square; stroke-linejoin: miter; fill: #3CB44B;' clip-path='url(#cpMzcuNjh8MjgwLjk0fDU0OS40Mnw1LjQ4)' />
<rect x='162.21' y='335.50' width='52.13' height='3.53' style='stroke-width: 1.07; stroke-linecap: square; stroke-linejoin: miter; fill: #3CB44B;' clip-path='url(#cpMzcuNjh8MjgwLjk0fDU0OS40Mnw1LjQ4)' />
<rect x='162.21' y='339.02' width='52.13' height='33.21' style='stroke-width: 1.07; stroke-linecap: square; stroke-linejoin: miter; fill: #4363D8;' clip-path='url(#cpMzcuNjh8MjgwLjk0fDU0OS40Mnw1LjQ4)' />
<rect x='104.28' y='379.37' width='52.13' height='3.24' style='stroke-width: 1.07; stroke-linecap: square; stroke-linejoin: miter; fill: #4363D8;' clip-path='url(#cpMzcuNjh8MjgwLjk0fDU0OS40Mnw1LjQ4)' />
<rect x='220.13' y='329.06' width='52.13' height='0.018' style='stroke-width: 1.07; stroke-linecap: square; stroke-linejoin: miter; fill: #4363D8;' clip-path='url(#cpMzcuNjh8MjgwLjk0fDU0OS40Mnw1LjQ4)' />
<rect x='46.36' y='366.96' width='52.13' height='0.00' style='stroke-width: 1.07; stroke-linecap: square; stroke-linejoin: miter; fill: #4363D8;' clip-path='url(#cpMzcuNjh8MjgwLjk0fDU0OS40Mnw1LjQ4)' />
<rect x='104.28' y='382.60' width='52.13' height='7.50' style='stroke-width: 1.07; stroke-linecap: square; stroke-linejoin: miter; fill: #FFE119;' clip-path='url(#cpMzcuNjh8MjgwLjk0fDU0OS40Mnw1LjQ4)' />
<rect x='220.13' y='329.08' width='52.13' height='4.51' style='stroke-width: 1.07; stroke-linecap: square; stroke-linejoin: miter; fill: #FFE119;' clip-path='url(#cpMzcuNjh8MjgwLjk0fDU0OS40Mnw1LjQ4)' />
<rect x='162.21' y='372.24' width='52.13' height='3.09' style='stroke-width: 1.07; stroke-linecap: square; stroke-linejoin: miter; fill: #FFE119;' clip-path='url(#cpMzcuNjh8MjgwLjk0fDU0OS40Mnw1LjQ4)' />
<rect x='46.36' y='366.96' width='52.13' height='0.066' style='stroke-width: 1.07; stroke-linecap: square; stroke-linejoin: miter; fill: #FFE119;' clip-path='url(#cpMzcuNjh8MjgwLjk0fDU0OS40Mnw1LjQ4)' />
<rect x='220.13' y='333.59' width='52.13' height='27.82' style='stroke-width: 1.07; stroke-linecap: square; stroke-linejoin: miter; fill: #F58231;' clip-path='url(#cpMzcuNjh8MjgwLjk0fDU0OS40Mnw1LjQ4)' />
<rect x='162.21' y='375.33' width='52.13' height='18.20' style='stroke-width: 1.07; stroke-linecap: square; stroke-linejoin: miter; fill: #F58231;' clip-path='url(#cpMzcuNjh8MjgwLjk0fDU0OS40Mnw1LjQ4)' />
<rect x='46.36' y='367.02' width='52.13' height='14.32' style='stroke-width: 1.07; stroke-linecap: square; stroke-linejoin: miter; fill: #F58231;' clip-path='url(#cpMzcuNjh8MjgwLjk0fDU0OS40Mnw1LjQ4)' />
<rect x='104.28' y='390.10' width='52.13' height='11.89' style='stroke-width: 1.07; stroke-linecap: square; stroke-linejoin: miter; fill: #F58231;' clip-path='url(#cpMzcuNjh8MjgwLjk0fDU0OS40Mnw1LjQ4)' />
<rect x='46.36' y='381.35' width='52.13' height='33.93' style='stroke-width: 1.07; stroke-linecap: square; stroke-linejoin: miter; fill: #911EB4;' clip-path='url(#cpMzcuNjh8MjgwLjk0fDU0OS40Mnw1LjQ4)' />
<rect x='104.28' y='401.99' width='52.13' height='18.06' style='stroke-width: 1.07; stroke-linecap: square; stroke-linejoin: miter; fill: #911EB4;' clip-path='url(#cpMzcuNjh8MjgwLjk0fDU0OS40Mnw1LjQ4)' />
<rect x='220.13' y='361.41' width='52.13' height='8.95' style='stroke-width: 1.07; stroke-linecap: square; stroke-linejoin: miter; fill: #911EB4;' clip-path='url(#cpMzcuNjh8MjgwLjk0fDU0OS40Mnw1LjQ4)' />
<rect x='162.21' y='393.54' width='52.13' height='3.59' style='stroke-width: 1.07; stroke-linecap: square; stroke-linejoin: miter; fill: #911EB4;' clip-path='url(#cpMzcuNjh8MjgwLjk0fDU0OS40Mnw1LjQ4)' />
<rect x='220.13' y='370.36' width='52.13' height='74.11' style='stroke-width: 1.07; stroke-linecap: square; stroke-linejoin: miter; fill: #46F0F0;' clip-path='url(#cpMzcuNjh8MjgwLjk0fDU0OS40Mnw1LjQ4)' />
<rect x='162.21' y='397.12' width='52.13' height='68.00' style='stroke-width: 1.07; stroke-linecap: square; stroke-linejoin: miter; fill: #46F0F0;' clip-path='url(#cpMzcuNjh8MjgwLjk0fDU0OS40Mnw1LjQ4)' />
<rect x='104.28' y='420.05' width='52.13' height='52.22' style='stroke-width: 1.07; stroke-linecap: square; stroke-linejoin: miter; fill: #46F0F0;' clip-path='url(#cpMzcuNjh8MjgwLjk0fDU0OS40Mnw1LjQ4)' />
<rect x='46.36' y='415.28' width='52.13' height='38.44' style='stroke-width: 1.07; stroke-linecap: square; stroke-linejoin: miter; fill: #46F0F0;' clip-path='url(#cpMzcuNjh8MjgwLjk0fDU0OS40Mnw1LjQ4)' />
<rect x='220.13' y='444.48' width='52.13' height='10.10' style='stroke-width: 1.07; stroke-linecap: square; stroke-linejoin: miter; fill: #F032E6;' clip-path='url(#cpMzcuNjh8MjgwLjk0fDU0OS40Mnw1LjQ4)' />
<rect x='162.21' y='465.12' width='52.13' height='7.55' style='stroke-width: 1.07; stroke-linecap: square; stroke-linejoin: miter; fill: #F032E6;' clip-path='url(#cpMzcuNjh8MjgwLjk0fDU0OS40Mnw1LjQ4)' />
<rect x='46.36' y='453.72' width='52.13' height='5.11' style='stroke-width: 1.07; stroke-linecap: square; stroke-linejoin: miter; fill: #F032E6;' clip-path='url(#cpMzcuNjh8MjgwLjk0fDU0OS40Mnw1LjQ4)' />
<rect x='104.28' y='472.28' width='52.13' height='4.15' style='stroke-width: 1.07; stroke-linecap: square; stroke-linejoin: miter; fill: #F032E6;' clip-path='url(#cpMzcuNjh8MjgwLjk0fDU0OS40Mnw1LjQ4)' />
<rect x='220.13' y='454.58' width='52.13' height='52.16' style='stroke-width: 1.07; stroke-linecap: square; stroke-linejoin: miter; fill: #BCF60C;' clip-path='url(#cpMzcuNjh8MjgwLjk0fDU0OS40Mnw1LjQ4)' />
<rect x='162.21' y='472.67' width='52.13' height='36.25' style='stroke-width: 1.07; stroke-linecap: square; stroke-linejoin: miter; fill: #BCF60C;' clip-path='url(#cpMzcuNjh8MjgwLjk0fDU0OS40Mnw1LjQ4)' />
<rect x='104.28' y='476.43' width='52.13' height='29.50' style='stroke-width: 1.07; stroke-linecap: square; stroke-linejoin: miter; fill: #BCF60C;' clip-path='url(#cpMzcuNjh8MjgwLjk0fDU0OS40Mnw1LjQ4)' />
<rect x='46.36' y='458.83' width='52.13' height='23.48' style='stroke-width: 1.07; stroke-linecap: square; stroke-linejoin: miter; fill: #BCF60C;' clip-path='url(#cpMzcuNjh8MjgwLjk0fDU0OS40Mnw1LjQ4)' />
<rect x='220.13' y='506.74' width='52.13' height='10.39' style='stroke-width: 1.07; stroke-linecap: square; stroke-linejoin: miter; fill: #FABEBE;' clip-path='url(#cpMzcuNjh8MjgwLjk0fDU0OS40Mnw1LjQ4)' />
<rect x='162.21' y='508.92' width='52.13' height='9.10' style='stroke-width: 1.07; stroke-linecap: square; stroke-linejoin: miter; fill: #FABEBE;' clip-path='url(#cpMzcuNjh8MjgwLjk0fDU0OS40Mnw1LjQ4)' />
<rect x='104.28' y='505.93' width='52.13' height='8.48' style='stroke-width: 1.07; stroke-linecap: square; stroke-linejoin: miter; fill: #FABEBE;' clip-path='url(#cpMzcuNjh8MjgwLjk0fDU0OS40Mnw1LjQ4)' />
<rect x='46.36' y='482.32' width='52.13' height='3.55' style='stroke-width: 1.07; stroke-linecap: square; stroke-linejoin: miter; fill: #FABEBE;' clip-path='url(#cpMzcuNjh8MjgwLjk0fDU0OS40Mnw1LjQ4)' />
<rect x='46.36' y='485.87' width='52.13' height='38.82' style='stroke-width: 1.07; stroke-linecap: square; stroke-linejoin: miter; fill: #008080;' clip-path='url(#cpMzcuNjh8MjgwLjk0fDU0OS40Mnw1LjQ4)' />
<rect x='104.28' y='514.41' width='52.13' height='10.28' style='stroke-width: 1.07; stroke-linecap: square; stroke-linejoin: miter; fill: #008080;' clip-path='url(#cpMzcuNjh8MjgwLjk0fDU0OS40Mnw1LjQ4)' />
<rect x='220.13' y='517.12' width='52.13' height='7.57' style='stroke-width: 1.07; stroke-linecap: square; stroke-linejoin: miter; fill: #008080;' clip-path='url(#cpMzcuNjh8MjgwLjk0fDU0OS40Mnw1LjQ4)' />
<rect x='162.21' y='518.02' width='52.13' height='6.67' style='stroke-width: 1.07; stroke-linecap: square; stroke-linejoin: miter; fill: #008080;' clip-path='url(#cpMzcuNjh8MjgwLjk0fDU0OS40Mnw1LjQ4)' />
<defs>
  <clipPath id='cpMC4wMHw0MzIuMDB8NTc2LjAwfDAuMDA='>
    <rect x='0.00' y='0.00' width='432.00' height='576.00' />
  </clipPath>
</defs>
<g clip-path='url(#cpMC4wMHw0MzIuMDB8NTc2LjAwfDAuMDA=)'><text x='17.17' y='527.44' style='font-size: 8.00px; fill: #4D4D4D; font-family: Arimo;' textLength='15.57px' lengthAdjust='spacingAndGlyphs'>0.00</text></g>
<g clip-path='url(#cpMC4wMHw0MzIuMDB8NTc2LjAwfDAuMDA=)'><text x='17.17' y='403.82' style='font-size: 8.00px; fill: #4D4D4D; font-family: Arimo;' textLength='15.57px' lengthAdjust='spacingAndGlyphs'>0.25</text></g>
<g clip-path='url(#cpMC4wMHw0MzIuMDB8NTc2LjAwfDAuMDA=)'><text x='17.17' y='280.20' style='font-size: 8.00px; fill: #4D4D4D; font-family: Arimo;' textLength='15.57px' lengthAdjust='spacingAndGlyphs'>0.50</text></g>
<g clip-path='url(#cpMC4wMHw0MzIuMDB8NTc2LjAwfDAuMDA=)'><text x='17.17' y='156.58' style='font-size: 8.00px; fill: #4D4D4D; font-family: Arimo;' textLength='15.57px' lengthAdjust='spacingAndGlyphs'>0.75</text></g>
<g clip-path='url(#cpMC4wMHw0MzIuMDB8NTc2LjAwfDAuMDA=)'><text x='17.17' y='32.96' style='font-size: 8.00px; fill: #4D4D4D; font-family: Arimo;' textLength='15.57px' lengthAdjust='spacingAndGlyphs'>1.00</text></g>
<g clip-path='url(#cpMC4wMHw0MzIuMDB8NTc2LjAwfDAuMDA=)'><text x='118.95' y='557.79' style='font-size: 5.00px; font-weight: bold; fill: #4D4D4D; font-family: Arimo;' textLength='22.79px' lengthAdjust='spacingAndGlyphs'>31.25mpk</text></g>
<g clip-path='url(#cpMC4wMHw0MzIuMDB8NTc2LjAwfDAuMDA=)'><text x='65.90' y='557.79' style='font-size: 5.00px; font-weight: bold; fill: #4D4D4D; font-family: Arimo;' textLength='13.06px' lengthAdjust='spacingAndGlyphs'>0mpk</text></g>
<g clip-path='url(#cpMC4wMHw0MzIuMDB8NTc2LjAwfDAuMDA=)'><text x='178.96' y='557.79' style='font-size: 5.00px; font-weight: bold; fill: #4D4D4D; font-family: Arimo;' textLength='18.62px' lengthAdjust='spacingAndGlyphs'>125mpk</text></g>
<g clip-path='url(#cpMC4wMHw0MzIuMDB8NTc2LjAwfDAuMDA=)'><text x='236.88' y='557.79' style='font-size: 5.00px; font-weight: bold; fill: #4D4D4D; font-family: Arimo;' textLength='18.62px' lengthAdjust='spacingAndGlyphs'>500mpk</text></g>
<g clip-path='url(#cpMC4wMHw0MzIuMDB8NTc2LjAwfDAuMDA=)'><text transform='translate(12.36,331.37) rotate(-90)' style='font-size: 10.00px; font-family: Arimo;' textLength='107.84px' lengthAdjust='spacingAndGlyphs'>Relative Abundance (%)</text></g>
<g clip-path='url(#cpMC4wMHw0MzIuMDB8NTc2LjAwfDAuMDA=)'><text x='297.38' y='183.36' style='font-size: 10.00px; font-family: Arimo;' textLength='25.56px' lengthAdjust='spacingAndGlyphs'>Order</text></g>
<rect x='298.09' y='190.08' width='15.86' height='15.86' style='stroke-width: 1.07; stroke-linecap: square; stroke-linejoin: miter; fill: #E6194B;' clip-path='url(#cpMC4wMHw0MzIuMDB8NTc2LjAwfDAuMDA=)' />
<rect x='298.09' y='207.36' width='15.86' height='15.86' style='stroke-width: 1.07; stroke-linecap: square; stroke-linejoin: miter; fill: #3CB44B;' clip-path='url(#cpMC4wMHw0MzIuMDB8NTc2LjAwfDAuMDA=)' />
<rect x='298.09' y='224.64' width='15.86' height='15.86' style='stroke-width: 1.07; stroke-linecap: square; stroke-linejoin: miter; fill: #4363D8;' clip-path='url(#cpMC4wMHw0MzIuMDB8NTc2LjAwfDAuMDA=)' />
<rect x='298.09' y='241.92' width='15.86' height='15.86' style='stroke-width: 1.07; stroke-linecap: square; stroke-linejoin: miter; fill: #FFE119;' clip-path='url(#cpMC4wMHw0MzIuMDB8NTc2LjAwfDAuMDA=)' />
<rect x='298.09' y='259.20' width='15.86' height='15.86' style='stroke-width: 1.07; stroke-linecap: square; stroke-linejoin: miter; fill: #F58231;' clip-path='url(#cpMC4wMHw0MzIuMDB8NTc2LjAwfDAuMDA=)' />
<rect x='298.09' y='276.48' width='15.86' height='15.86' style='stroke-width: 1.07; stroke-linecap: square; stroke-linejoin: miter; fill: #911EB4;' clip-path='url(#cpMC4wMHw0MzIuMDB8NTc2LjAwfDAuMDA=)' />
<rect x='298.09' y='293.76' width='15.86' height='15.86' style='stroke-width: 1.07; stroke-linecap: square; stroke-linejoin: miter; fill: #46F0F0;' clip-path='url(#cpMC4wMHw0MzIuMDB8NTc2LjAwfDAuMDA=)' />
<rect x='298.09' y='311.04' width='15.86' height='15.86' style='stroke-width: 1.07; stroke-linecap: square; stroke-linejoin: miter; fill: #F032E6;' clip-path='url(#cpMC4wMHw0MzIuMDB8NTc2LjAwfDAuMDA=)' />
<rect x='298.09' y='328.32' width='15.86' height='15.86' style='stroke-width: 1.07; stroke-linecap: square; stroke-linejoin: miter; fill: #BCF60C;' clip-path='url(#cpMC4wMHw0MzIuMDB8NTc2LjAwfDAuMDA=)' />
<rect x='298.09' y='345.60' width='15.86' height='15.86' style='stroke-width: 1.07; stroke-linecap: square; stroke-linejoin: miter; fill: #FABEBE;' clip-path='url(#cpMC4wMHw0MzIuMDB8NTc2LjAwfDAuMDA=)' />
<rect x='298.09' y='362.88' width='15.86' height='15.86' style='stroke-width: 1.07; stroke-linecap: square; stroke-linejoin: miter; fill: #008080;' clip-path='url(#cpMC4wMHw0MzIuMDB8NTc2LjAwfDAuMDA=)' />
<g clip-path='url(#cpMC4wMHw0MzIuMDB8NTc2LjAwfDAuMDA=)'><text x='319.64' y='200.77' style='font-size: 8.00px; font-family: Arimo;' textLength='48.47px' lengthAdjust='spacingAndGlyphs'>Bacteroidales</text></g>
<g clip-path='url(#cpMC4wMHw0MzIuMDB8NTc2LjAwfDAuMDA=)'><text x='319.64' y='218.05' style='font-size: 8.00px; font-family: Arimo;' textLength='55.14px' lengthAdjust='spacingAndGlyphs'>Burkholderiales</text></g>
<g clip-path='url(#cpMC4wMHw0MzIuMDB8NTc2LjAwfDAuMDA=)'><text x='319.64' y='235.33' style='font-size: 8.00px; font-family: Arimo;' textLength='68.48px' lengthAdjust='spacingAndGlyphs'>Campylobacterales</text></g>
<g clip-path='url(#cpMC4wMHw0MzIuMDB8NTc2LjAwfDAuMDA=)'><text x='319.64' y='252.61' style='font-size: 8.00px; font-family: Arimo;' textLength='71.58px' lengthAdjust='spacingAndGlyphs'>Clostridia_UCG-014</text></g>
<g clip-path='url(#cpMC4wMHw0MzIuMDB8NTc2LjAwfDAuMDA=)'><text x='319.64' y='269.89' style='font-size: 8.00px; font-family: Arimo;' textLength='101.40px' lengthAdjust='spacingAndGlyphs'>Clostridia_vadinBB60_group</text></g>
<g clip-path='url(#cpMC4wMHw0MzIuMDB8NTc2LjAwfDAuMDA=)'><text x='319.64' y='287.17' style='font-size: 8.00px; font-family: Arimo;' textLength='62.69px' lengthAdjust='spacingAndGlyphs'>Erysipelotrichales</text></g>
<g clip-path='url(#cpMC4wMHw0MzIuMDB8NTc2LjAwfDAuMDA=)'><text x='319.64' y='304.45' style='font-size: 8.00px; font-family: Arimo;' textLength='53.81px' lengthAdjust='spacingAndGlyphs'>Lachnospirales</text></g>
<g clip-path='url(#cpMC4wMHw0MzIuMDB8NTc2LjAwfDAuMDA=)'><text x='319.64' y='321.73' style='font-size: 8.00px; font-family: Arimo;' textLength='52.48px' lengthAdjust='spacingAndGlyphs'>Lactobacillales</text></g>
<g clip-path='url(#cpMC4wMHw0MzIuMDB8NTc2LjAwfDAuMDA=)'><text x='319.64' y='339.01' style='font-size: 8.00px; font-family: Arimo;' textLength='51.57px' lengthAdjust='spacingAndGlyphs'>Oscillospirales</text></g>
<g clip-path='url(#cpMC4wMHw0MzIuMDB8NTc2LjAwfDAuMDA=)'><text x='319.64' y='356.29' style='font-size: 8.00px; font-family: Arimo;' textLength='20.01px' lengthAdjust='spacingAndGlyphs'>Other</text></g>
<g clip-path='url(#cpMC4wMHw0MzIuMDB8NTc2LjAwfDAuMDA=)'><text x='319.64' y='373.57' style='font-size: 8.00px; font-family: Arimo;' textLength='68.47px' lengthAdjust='spacingAndGlyphs'>Verrucomicrobiales</text></g>
</svg>
