<?xml version='1.0' encoding='UTF-8' ?>
<svg xmlns='http://www.w3.org/2000/svg' xmlns:xlink='http://www.w3.org/1999/xlink' viewBox='0 0 432.00 576.00'>
<defs>
  <style type='text/css'><![CDATA[
    line, polyline, polygon, path, rect, circle {
      fill: none;
      stroke: #000000;
      stroke-linecap: round;
      stroke-linejoin: round;
      stroke-miterlimit: 10.00;
    }
  ]]></style>
</defs>
<rect width='100%' height='100%' style='stroke: none; fill: #FFFFFF;'/>
<defs>
  <clipPath id='cpMzcuNjh8MzAyLjc1fDU0OS40Mnw1LjQ4'>
    <rect x='37.68' y='5.48' width='265.07' height='543.94' />
  </clipPath>
</defs>
<polyline points='37.68,462.88 302.75,462.88 ' style='stroke-width: 0.53; stroke: #EBEBEB; stroke-linecap: butt;' clip-path='url(#cpMzcuNjh8MzAyLjc1fDU0OS40Mnw1LjQ4)' />
<polyline points='37.68,339.26 302.75,339.26 ' style='stroke-width: 0.53; stroke: #EBEBEB; stroke-linecap: butt;' clip-path='url(#cpMzcuNjh8MzAyLjc1fDU0OS40Mnw1LjQ4)' />
<polyline points='37.68,215.64 302.75,215.64 ' style='stroke-width: 0.53; stroke: #EBEBEB; stroke-linecap: butt;' clip-path='url(#cpMzcuNjh8MzAyLjc1fDU0OS40Mnw1LjQ4)' />
<polyline points='37.68,92.01 302.75,92.01 ' style='stroke-width: 0.53; stroke: #EBEBEB; stroke-linecap: butt;' clip-path='url(#cpMzcuNjh8MzAyLjc1fDU0OS40Mnw1LjQ4)' />
<polyline points='37.68,524.69 302.75,524.69 ' style='stroke-width: 1.07; stroke: #EBEBEB; stroke-linecap: butt;' clip-path='url(#cpMzcuNjh8MzAyLjc1fDU0OS40Mnw1LjQ4)' />
<polyline points='37.68,401.07 302.75,401.07 ' style='stroke-width: 1.07; stroke: #EBEBEB; stroke-linecap: butt;' clip-path='url(#cpMzcuNjh8MzAyLjc1fDU0OS40Mnw1LjQ4)' />
<polyline points='37.68,277.45 302.75,277.45 ' style='stroke-width: 1.07; stroke: #EBEBEB; stroke-linecap: butt;' clip-path='url(#cpMzcuNjh8MzAyLjc1fDU0OS40Mnw1LjQ4)' />
<polyline points='37.68,153.83 302.75,153.83 ' style='stroke-width: 1.07; stroke: #EBEBEB; stroke-linecap: butt;' clip-path='url(#cpMzcuNjh8MzAyLjc1fDU0OS40Mnw1LjQ4)' />
<polyline points='37.68,30.20 302.75,30.20 ' style='stroke-width: 1.07; stroke: #EBEBEB; stroke-linecap: butt;' clip-path='url(#cpMzcuNjh8MzAyLjc1fDU0OS40Mnw1LjQ4)' />
<polyline points='170.21,549.42 170.21,5.48 ' style='stroke-width: 1.07; stroke: #EBEBEB; stroke-linecap: butt;' clip-path='url(#cpMzcuNjh8MzAyLjc1fDU0OS40Mnw1LjQ4)' />
<polyline points='87.38,549.42 87.38,5.48 ' style='stroke-width: 1.07; stroke: #EBEBEB; stroke-linecap: butt;' clip-path='url(#cpMzcuNjh8MzAyLjc1fDU0OS40Mnw1LjQ4)' />
<polyline points='253.05,549.42 253.05,5.48 ' style='stroke-width: 1.07; stroke: #EBEBEB; stroke-linecap: butt;' clip-path='url(#cpMzcuNjh8MzAyLjc1fDU0OS40Mnw1LjQ4)' />
<rect x='132.94' y='30.20' width='74.55' height='0.81' style='stroke-width: 1.07; stroke-linecap: square; stroke-linejoin: miter; fill: #E6194B;' clip-path='url(#cpMzcuNjh8MzAyLjc1fDU0OS40Mnw1LjQ4)' />
<rect x='50.10' y='30.20' width='74.55' height='0.45' style='stroke-width: 1.07; stroke-linecap: square; stroke-linejoin: miter; fill: #E6194B;' clip-path='url(#cpMzcuNjh8MzAyLjc1fDU0OS40Mnw1LjQ4)' />
<rect x='215.77' y='30.20' width='74.55' height='0.44' style='stroke-width: 1.07; stroke-linecap: square; stroke-linejoin: miter; fill: #E6194B;' clip-path='url(#cpMzcuNjh8MzAyLjc1fDU0OS40Mnw1LjQ4)' />
<rect x='132.94' y='31.01' width='74.55' height='0.59' style='stroke-width: 1.07; stroke-linecap: square; stroke-linejoin: miter; fill: #3CB44B;' clip-path='url(#cpMzcuNjh8MzAyLjc1fDU0OS40Mnw1LjQ4)' />
<rect x='215.77' y='30.64' width='74.55' height='0.33' style='stroke-width: 1.07; stroke-linecap: square; stroke-linejoin: miter; fill: #3CB44B;' clip-path='url(#cpMzcuNjh8MzAyLjc1fDU0OS40Mnw1LjQ4)' />
<rect x='50.10' y='30.65' width='74.55' height='0.28' style='stroke-width: 1.07; stroke-linecap: square; stroke-linejoin: miter; fill: #3CB44B;' clip-path='url(#cpMzcuNjh8MzAyLjc1fDU0OS40Mnw1LjQ4)' />
<rect x='50.10' y='30.93' width='74.55' height='51.06' style='stroke-width: 1.07; stroke-linecap: square; stroke-linejoin: miter; fill: #4363D8;' clip-path='url(#cpMzcuNjh8MzAyLjc1fDU0OS40Mnw1LjQ4)' />
<rect x='215.77' y='30.97' width='74.55' height='28.73' style='stroke-width: 1.07; stroke-linecap: square; stroke-linejoin: miter; fill: #4363D8;' clip-path='url(#cpMzcuNjh8MzAyLjc1fDU0OS40Mnw1LjQ4)' />
<rect x='132.94' y='31.60' width='74.55' height='19.96' style='stroke-width: 1.07; stroke-linecap: square; stroke-linejoin: miter; fill: #4363D8;' clip-path='url(#cpMzcuNjh8MzAyLjc1fDU0OS40Mnw1LjQ4)' />
<rect x='132.94' y='51.56' width='74.55' height='367.18' style='stroke-width: 1.07; stroke-linecap: square; stroke-linejoin: miter; fill: #FFE119;' clip-path='url(#cpMzcuNjh8MzAyLjc1fDU0OS40Mnw1LjQ4)' />
<rect x='215.77' y='59.70' width='74.55' height='357.92' style='stroke-width: 1.07; stroke-linecap: square; stroke-linejoin: miter; fill: #FFE119;' clip-path='url(#cpMzcuNjh8MzAyLjc1fDU0OS40Mnw1LjQ4)' />
<rect x='50.10' y='81.99' width='74.55' height='273.82' style='stroke-width: 1.07; stroke-linecap: square; stroke-linejoin: miter; fill: #FFE119;' clip-path='url(#cpMzcuNjh8MzAyLjc1fDU0OS40Mnw1LjQ4)' />
<rect x='50.10' y='355.81' width='74.55' height='20.70' style='stroke-width: 1.07; stroke-linecap: square; stroke-linejoin: miter; fill: #F58231;' clip-path='url(#cpMzcuNjh8MzAyLjc1fDU0OS40Mnw1LjQ4)' />
<rect x='215.77' y='417.62' width='74.55' height='4.00' style='stroke-width: 1.07; stroke-linecap: square; stroke-linejoin: miter; fill: #F58231;' clip-path='url(#cpMzcuNjh8MzAyLjc1fDU0OS40Mnw1LjQ4)' />
<rect x='132.94' y='418.74' width='74.55' height='0.010' style='stroke-width: 1.07; stroke-linecap: square; stroke-linejoin: miter; fill: #F58231;' clip-path='url(#cpMzcuNjh8MzAyLjc1fDU0OS40Mnw1LjQ4)' />
<rect x='50.10' y='376.50' width='74.55' height='125.20' style='stroke-width: 1.07; stroke-linecap: square; stroke-linejoin: miter; fill: #911EB4;' clip-path='url(#cpMzcuNjh8MzAyLjc1fDU0OS40Mnw1LjQ4)' />
<rect x='132.94' y='418.75' width='74.55' height='91.61' style='stroke-width: 1.07; stroke-linecap: square; stroke-linejoin: miter; fill: #911EB4;' clip-path='url(#cpMzcuNjh8MzAyLjc1fDU0OS40Mnw1LjQ4)' />
<rect x='215.77' y='421.62' width='74.55' height='79.72' style='stroke-width: 1.07; stroke-linecap: square; stroke-linejoin: miter; fill: #911EB4;' clip-path='url(#cpMzcuNjh8MzAyLjc1fDU0OS40Mnw1LjQ4)' />
<rect x='50.10' y='501.71' width='74.55' height='3.24' style='stroke-width: 1.07; stroke-linecap: square; stroke-linejoin: miter; fill: #46F0F0;' clip-path='url(#cpMzcuNjh8MzAyLjc1fDU0OS40Mnw1LjQ4)' />
<rect x='215.77' y='501.34' width='74.55' height='1.65' style='stroke-width: 1.07; stroke-linecap: square; stroke-linejoin: miter; fill: #46F0F0;' clip-path='url(#cpMzcuNjh8MzAyLjc1fDU0OS40Mnw1LjQ4)' />
<rect x='132.94' y='510.36' width='74.55' height='1.62' style='stroke-width: 1.07; stroke-linecap: square; stroke-linejoin: miter; fill: #46F0F0;' clip-path='url(#cpMzcuNjh8MzAyLjc1fDU0OS40Mnw1LjQ4)' />
<rect x='215.77' y='502.98' width='74.55' height='1.78' style='stroke-width: 1.07; stroke-linecap: square; stroke-linejoin: miter; fill: #F032E6;' clip-path='url(#cpMzcuNjh8MzAyLjc1fDU0OS40Mnw1LjQ4)' />
<rect x='132.94' y='511.98' width='74.55' height='1.48' style='stroke-width: 1.07; stroke-linecap: square; stroke-linejoin: miter; fill: #F032E6;' clip-path='url(#cpMzcuNjh8MzAyLjc1fDU0OS40Mnw1LjQ4)' />
<rect x='50.10' y='504.94' width='74.55' height='0.00' style='stroke-width: 1.07; stroke-linecap: square; stroke-linejoin: miter; fill: #F032E6;' clip-path='url(#cpMzcuNjh8MzAyLjc1fDU0OS40Mnw1LjQ4)' />
<rect x='50.10' y='504.94' width='74.55' height='9.92' style='stroke-width: 1.07; stroke-linecap: square; stroke-linejoin: miter; fill: #BCF60C;' clip-path='url(#cpMzcuNjh8MzAyLjc1fDU0OS40Mnw1LjQ4)' />
<rect x='215.77' y='504.77' width='74.55' height='5.07' style='stroke-width: 1.07; stroke-linecap: square; stroke-linejoin: miter; fill: #BCF60C;' clip-path='url(#cpMzcuNjh8MzAyLjc1fDU0OS40Mnw1LjQ4)' />
<rect x='132.94' y='513.47' width='74.55' height='3.00' style='stroke-width: 1.07; stroke-linecap: square; stroke-linejoin: miter; fill: #BCF60C;' clip-path='url(#cpMzcuNjh8MzAyLjc1fDU0OS40Mnw1LjQ4)' />
<rect x='132.94' y='516.46' width='74.55' height='0.50' style='stroke-width: 1.07; stroke-linecap: square; stroke-linejoin: miter; fill: #FABEBE;' clip-path='url(#cpMzcuNjh8MzAyLjc1fDU0OS40Mnw1LjQ4)' />
<rect x='215.77' y='509.83' width='74.55' height='0.28' style='stroke-width: 1.07; stroke-linecap: square; stroke-linejoin: miter; fill: #FABEBE;' clip-path='url(#cpMzcuNjh8MzAyLjc1fDU0OS40Mnw1LjQ4)' />
<rect x='50.10' y='514.87' width='74.55' height='0.093' style='stroke-width: 1.07; stroke-linecap: square; stroke-linejoin: miter; fill: #FABEBE;' clip-path='url(#cpMzcuNjh8MzAyLjc1fDU0OS40Mnw1LjQ4)' />
<rect x='215.77' y='510.12' width='74.55' height='14.58' style='stroke-width: 1.07; stroke-linecap: square; stroke-linejoin: miter; fill: #008080;' clip-path='url(#cpMzcuNjh8MzAyLjc1fDU0OS40Mnw1LjQ4)' />
<rect x='50.10' y='514.96' width='74.55' height='9.73' style='stroke-width: 1.07; stroke-linecap: square; stroke-linejoin: miter; fill: #008080;' clip-path='url(#cpMzcuNjh8MzAyLjc1fDU0OS40Mnw1LjQ4)' />
<rect x='132.94' y='516.96' width='74.55' height='7.73' style='stroke-width: 1.07; stroke-linecap: square; stroke-linejoin: miter; fill: #008080;' clip-path='url(#cpMzcuNjh8MzAyLjc1fDU0OS40Mnw1LjQ4)' />
<defs>
  <clipPath id='cpMC4wMHw0MzIuMDB8NTc2LjAwfDAuMDA='>
    <rect x='0.00' y='0.00' width='432.00' height='576.00' />
  </clipPath>
</defs>
<g clip-path='url(#cpMC4wMHw0MzIuMDB8NTc2LjAwfDAuMDA=)'><text x='17.17' y='527.44' style='font-size: 8.00px; fill: #4D4D4D; font-family: Arimo;' textLength='15.57px' lengthAdjust='spacingAndGlyphs'>0.00</text></g>
<g clip-path='url(#cpMC4wMHw0MzIuMDB8NTc2LjAwfDAuMDA=)'><text x='17.17' y='403.82' style='font-size: 8.00px; fill: #4D4D4D; font-family: Arimo;' textLength='15.57px' lengthAdjust='spacingAndGlyphs'>0.25</text></g>
<g clip-path='url(#cpMC4wMHw0MzIuMDB8NTc2LjAwfDAuMDA=)'><text x='17.17' y='280.20' style='font-size: 8.00px; fill: #4D4D4D; font-family: Arimo;' textLength='15.57px' lengthAdjust='spacingAndGlyphs'>0.50</text></g>
<g clip-path='url(#cpMC4wMHw0MzIuMDB8NTc2LjAwfDAuMDA=)'><text x='17.17' y='156.58' style='font-size: 8.00px; fill: #4D4D4D; font-family: Arimo;' textLength='15.57px' lengthAdjust='spacingAndGlyphs'>0.75</text></g>
<g clip-path='url(#cpMC4wMHw0MzIuMDB8NTc2LjAwfDAuMDA=)'><text x='17.17' y='32.96' style='font-size: 8.00px; fill: #4D4D4D; font-family: Arimo;' textLength='15.57px' lengthAdjust='spacingAndGlyphs'>1.00</text></g>
<g clip-path='url(#cpMC4wMHw0MzIuMDB8NTc2LjAwfDAuMDA=)'><text x='158.82' y='557.79' style='font-size: 5.00px; font-weight: bold; fill: #4D4D4D; font-family: Arimo;' textLength='22.79px' lengthAdjust='spacingAndGlyphs'>31.25mpk</text></g>
<g clip-path='url(#cpMC4wMHw0MzIuMDB8NTc2LjAwfDAuMDA=)'><text x='80.85' y='557.79' style='font-size: 5.00px; font-weight: bold; fill: #4D4D4D; font-family: Arimo;' textLength='13.06px' lengthAdjust='spacingAndGlyphs'>0mpk</text></g>
<g clip-path='url(#cpMC4wMHw0MzIuMDB8NTc2LjAwfDAuMDA=)'><text x='243.74' y='557.79' style='font-size: 5.00px; font-weight: bold; fill: #4D4D4D; font-family: Arimo;' textLength='18.62px' lengthAdjust='spacingAndGlyphs'>500mpk</text></g>
<g clip-path='url(#cpMC4wMHw0MzIuMDB8NTc2LjAwfDAuMDA=)'><text transform='translate(12.36,331.37) rotate(-90)' style='font-size: 10.00px; font-family: Arimo;' textLength='107.84px' lengthAdjust='spacingAndGlyphs'>Relative Abundance (%)</text></g>
<g clip-path='url(#cpMC4wMHw0MzIuMDB8NTc2LjAwfDAuMDA=)'><text x='319.19' y='183.36' style='font-size: 10.00px; font-family: Arimo;' textLength='25.00px' lengthAdjust='spacingAndGlyphs'>Class</text></g>
<rect x='319.89' y='190.08' width='15.86' height='15.86' style='stroke-width: 1.07; stroke-linecap: square; stroke-linejoin: miter; fill: #E6194B;' clip-path='url(#cpMC4wMHw0MzIuMDB8NTc2LjAwfDAuMDA=)' />
<rect x='319.89' y='207.36' width='15.86' height='15.86' style='stroke-width: 1.07; stroke-linecap: square; stroke-linejoin: miter; fill: #3CB44B;' clip-path='url(#cpMC4wMHw0MzIuMDB8NTc2LjAwfDAuMDA=)' />
<rect x='319.89' y='224.64' width='15.86' height='15.86' style='stroke-width: 1.07; stroke-linecap: square; stroke-linejoin: miter; fill: #4363D8;' clip-path='url(#cpMC4wMHw0MzIuMDB8NTc2LjAwfDAuMDA=)' />
<rect x='319.89' y='241.92' width='15.86' height='15.86' style='stroke-width: 1.07; stroke-linecap: square; stroke-linejoin: miter; fill: #FFE119;' clip-path='url(#cpMC4wMHw0MzIuMDB8NTc2LjAwfDAuMDA=)' />
<rect x='319.89' y='259.20' width='15.86' height='15.86' style='stroke-width: 1.07; stroke-linecap: square; stroke-linejoin: miter; fill: #F58231;' clip-path='url(#cpMC4wMHw0MzIuMDB8NTc2LjAwfDAuMDA=)' />
<rect x='319.89' y='276.48' width='15.86' height='15.86' style='stroke-width: 1.07; stroke-linecap: square; stroke-linejoin: miter; fill: #911EB4;' clip-path='url(#cpMC4wMHw0MzIuMDB8NTc2LjAwfDAuMDA=)' />
<rect x='319.89' y='293.76' width='15.86' height='15.86' style='stroke-width: 1.07; stroke-linecap: square; stroke-linejoin: miter; fill: #46F0F0;' clip-path='url(#cpMC4wMHw0MzIuMDB8NTc2LjAwfDAuMDA=)' />
<rect x='319.89' y='311.04' width='15.86' height='15.86' style='stroke-width: 1.07; stroke-linecap: square; stroke-linejoin: miter; fill: #F032E6;' clip-path='url(#cpMC4wMHw0MzIuMDB8NTc2LjAwfDAuMDA=)' />
<rect x='319.89' y='328.32' width='15.86' height='15.86' style='stroke-width: 1.07; stroke-linecap: square; stroke-linejoin: miter; fill: #BCF60C;' clip-path='url(#cpMC4wMHw0MzIuMDB8NTc2LjAwfDAuMDA=)' />
<rect x='319.89' y='345.60' width='15.86' height='15.86' style='stroke-width: 1.07; stroke-linecap: square; stroke-linejoin: miter; fill: #FABEBE;' clip-path='url(#cpMC4wMHw0MzIuMDB8NTc2LjAwfDAuMDA=)' />
<rect x='319.89' y='362.88' width='15.86' height='15.86' style='stroke-width: 1.07; stroke-linecap: square; stroke-linejoin: miter; fill: #008080;' clip-path='url(#cpMC4wMHw0MzIuMDB8NTc2LjAwfDAuMDA=)' />
<g clip-path='url(#cpMC4wMHw0MzIuMDB8NTc2LjAwfDAuMDA=)'><text x='341.45' y='200.77' style='font-size: 8.00px; font-family: Arimo;' textLength='50.70px' lengthAdjust='spacingAndGlyphs'>Actinobacteria</text></g>
<g clip-path='url(#cpMC4wMHw0MzIuMDB8NTc2LjAwfDAuMDA=)'><text x='341.45' y='218.05' style='font-size: 8.00px; font-family: Arimo;' textLength='71.61px' lengthAdjust='spacingAndGlyphs'>Alphaproteobacteria</text></g>
<g clip-path='url(#cpMC4wMHw0MzIuMDB8NTc2LjAwfDAuMDA=)'><text x='341.45' y='235.33' style='font-size: 8.00px; font-family: Arimo;' textLength='20.89px' lengthAdjust='spacingAndGlyphs'>Bacilli</text></g>
<g clip-path='url(#cpMC4wMHw0MzIuMDB8NTc2LjAwfDAuMDA=)'><text x='341.45' y='252.61' style='font-size: 8.00px; font-family: Arimo;' textLength='40.02px' lengthAdjust='spacingAndGlyphs'>Bacteroidia</text></g>
<g clip-path='url(#cpMC4wMHw0MzIuMDB8NTc2LjAwfDAuMDA=)'><text x='341.45' y='269.89' style='font-size: 8.00px; font-family: Arimo;' textLength='60.03px' lengthAdjust='spacingAndGlyphs'>Campylobacteria</text></g>
<g clip-path='url(#cpMC4wMHw0MzIuMDB8NTc2LjAwfDAuMDA=)'><text x='341.45' y='287.17' style='font-size: 8.00px; font-family: Arimo;' textLength='33.34px' lengthAdjust='spacingAndGlyphs'>Clostridia</text></g>
<g clip-path='url(#cpMC4wMHw0MzIuMDB8NTc2LjAwfDAuMDA=)'><text x='341.45' y='304.45' style='font-size: 8.00px; font-family: Arimo;' textLength='49.36px' lengthAdjust='spacingAndGlyphs'>Coriobacteriia</text></g>
<g clip-path='url(#cpMC4wMHw0MzIuMDB8NTc2LjAwfDAuMDA=)'><text x='341.45' y='321.73' style='font-size: 8.00px; font-family: Arimo;' textLength='56.92px' lengthAdjust='spacingAndGlyphs'>Desulfovibrionia</text></g>
<g clip-path='url(#cpMC4wMHw0MzIuMDB8NTc2LjAwfDAuMDA=)'><text x='341.45' y='339.01' style='font-size: 8.00px; font-family: Arimo;' textLength='79.59px' lengthAdjust='spacingAndGlyphs'>Gammaproteobacteria</text></g>
<g clip-path='url(#cpMC4wMHw0MzIuMDB8NTc2LjAwfDAuMDA=)'><text x='341.45' y='356.29' style='font-size: 8.00px; font-family: Arimo;' textLength='20.01px' lengthAdjust='spacingAndGlyphs'>Other</text></g>
<g clip-path='url(#cpMC4wMHw0MzIuMDB8NTc2LjAwfDAuMDA=)'><text x='341.45' y='373.57' style='font-size: 8.00px; font-family: Arimo;' textLength='62.69px' lengthAdjust='spacingAndGlyphs'>Verrucomicrobiae</text></g>
</svg>
