"#NAME","establishment","Project","Model","Group_Drug","Dosage","age","X_number"
"N4063","GV","ONC-2020-010","MC38_OVA","Vehicle","01_0mpk","4",2
"N4093","GV","ONC-2020-010","MC38_OVA","Vehicle","01_0mpk","4",1
"N4094","GV","ONC-2020-010","MC38_OVA","Vehicle","01_0mpk","4",1
"N4326","GV","ONC-2020-010","MC38_OVA","Vehicle","01_0mpk","4",3
"N4327","GV","ONC-2020-010","MC38_OVA","Vehicle","01_0mpk","4",3
"N4328","GV","ONC-2020-010","MC38_OVA","Vehicle","01_0mpk","4",3
"N4329","GV","ONC-2020-010","MC38_OVA","Vehicle","01_0mpk","4",3
"N4331","GV","ONC-2020-010","MC38_OVA","Vehicle","01_0mpk","4",4
"N4097","GV","ONC-2020-010","MC38_OVA","GV009","02_31.25mpk","4",7
"N4098","GV","ONC-2020-010","MC38_OVA","GV009","02_31.25mpk","4",7
"N4099","GV","ONC-2020-010","MC38_OVA","GV009","02_31.25mpk","4",7
"N4100","GV","ONC-2020-010","MC38_OVA","GV009","02_31.25mpk","4",7
"N4334","GV","ONC-2020-010","MC38_OVA","GV009","02_31.25mpk","4",8
"N4335","GV","ONC-2020-010","MC38_OVA","GV009","02_31.25mpk","4",8
"N4336","GV","ONC-2020-010","MC38_OVA","GV009","02_31.25mpk","4",8
"N4337","GV","ONC-2020-010","MC38_OVA","GV009","02_31.25mpk","4",8
