SampleID,check_fastq_availability,establishment,TV,Project,Model,Group_Drug,Dosage,Gender,Collection_date,age,Strain,_number,Group
16620,#N/A,GV,1093.4,ONC-2019-LZ-032,MMTV,Vehicle,0mpk,Female,1/14/2020,4-5,FVB,2,MMTV_Vehicle_0mpk
16807,#N/A,GV,229.5,ONC-2019-LZ-032,MMTV,GV009,125mpk,Female,1/14/2020,4-5,FVB,3,MMTV_GV009_125mpk
16808,#N/A,GV,116.8,ONC-2019-LZ-032,MMTV,GV009,125mpk,Female,1/14/2020,4-5,FVB,3,MMTV_GV009_125mpk
16809,#N/A,GV,64.7,ONC-2019-LZ-032,MMTV,GV009,125mpk,Female,1/14/2020,4-5,FVB,3,MMTV_GV009_125mpk
16810,#N/A,GV,137.9,ONC-2019-LZ-032,MMTV,GV009,125mpk,Female,1/14/2020,4-5,FVB,3,MMTV_GV009_125mpk
16811,#N/A,GV,149.1,ONC-2019-LZ-032,MMTV,GV009,125mpk,Female,1/14/2020,4-5,FVB,3,MMTV_GV009_125mpk
16812,#N/A,GV,1168.1,ONC-2019-LZ-032,MMTV,Vehicle,0mpk,Female,1/14/2020,4-5,FVB,1,MMTV_Vehicle_0mpk
16813,#N/A,GV,459.4,ONC-2019-LZ-032,MMTV,Vehicle,0mpk,Female,1/14/2020,4-5,FVB,1,MMTV_Vehicle_0mpk
16814,#N/A,GV,452.8,ONC-2019-LZ-032,MMTV,Vehicle,0mpk,Female,1/14/2020,4-5,FVB,1,MMTV_Vehicle_0mpk
16815,#N/A,GV,188.7,ONC-2019-LZ-032,MMTV,Vehicle,0mpk,Female,1/14/2020,4-5,FVB,1,MMTV_Vehicle_0mpk
16816,#N/A,GV,176.6,ONC-2019-LZ-032,MMTV,Vehicle,0mpk,Female,1/14/2020,4-5,FVB,1,MMTV_Vehicle_0mpk
16822,#N/A,GV,1492,ONC-2019-LZ-032,MMTV,Vehicle,0mpk,Female,1/14/2020,4-5,FVB,2,MMTV_Vehicle_0mpk
16823,#N/A,GV,716.2,ONC-2019-LZ-032,MMTV,Vehicle,0mpk,Female,1/14/2020,4-5,FVB,2,MMTV_Vehicle_0mpk
16824,#N/A,GV,332.6,ONC-2019-LZ-032,MMTV,Vehicle,0mpk,Female,1/14/2020,4-5,FVB,2,MMTV_Vehicle_0mpk
16825,#N/A,GV,1010.3,ONC-2019-LZ-032,MMTV,Vehicle,0mpk,Female,1/14/2020,4-5,FVB,2,MMTV_Vehicle_0mpk
16836,#N/A,GV,283.8,ONC-2019-LZ-032,MMTV,GV009,125mpk,Female,1/14/2020,4-5,FVB,4,MMTV_GV009_125mpk
16837,#N/A,GV,686.8,ONC-2019-LZ-032,MMTV,GV009,125mpk,Female,1/14/2020,4-5,FVB,4,MMTV_GV009_125mpk
16838,#N/A,GV,434.3,ONC-2019-LZ-032,MMTV,GV009,125mpk,Female,1/14/2020,4-5,FVB,4,MMTV_GV009_125mpk
16839,#N/A,GV,198.5,ONC-2019-LZ-032,MMTV,GV009,125mpk,Female,1/14/2020,4-5,FVB,4,MMTV_GV009_125mpk
16840,#N/A,GV,507.9,ONC-2019-LZ-032,MMTV,GV009,125mpk,Female,1/14/2020,4-5,FVB,4,MMTV_GV009_125mpk
16879,#N/A,GV,4518,ONC-2020-001,Panc02,GV009,125mpk,Female,3/11/2020,5,C57BL/6,5,Panc02_GV009_125mpk
16881,#N/A,GV,5092,ONC-2020-001,Panc02,Vehicle,0mpk,Female,3/11/2020,5,C57BL/6,1,Panc02_Vehicle_0mpk
16883,#N/A,GV,2214,ONC-2020-001,Panc02,GV009,125mpk,Female,3/11/2020,5,C57BL/6,5,Panc02_GV009_125mpk
16891,#N/A,GV,2493,ONC-2020-001,Panc02,JG6,75mpk,Female,3/11/2020,5,C57BL/6,3,Panc02_JG6_75mpk
16893,#N/A,GV,296,ONC-2020-001,Panc02,Gemcitabine,75mpk,Female,3/11/2020,5,C57BL/6,7,Panc02_Gemcitabine_75mpk
16895,#N/A,GV,2306,ONC-2020-001,Panc02,GV009,125mpk,Female,3/11/2020,5,C57BL/6,5,Panc02_GV009_125mpk
16908,#N/A,GV,3057,ONC-2020-001,Panc02,JG6,75mpk,Female,3/11/2020,5,C57BL/6,3,Panc02_JG6_75mpk
16911,#N/A,GV,1540,ONC-2020-001,Panc02,JG6,75mpk,Female,3/11/2020,5,C57BL/6,3,Panc02_JG6_75mpk
16912,#N/A,GV,2308,ONC-2020-001,Panc02,GV009,125mpk,Female,3/11/2020,5,C57BL/6,5,Panc02_GV009_125mpk
16914,#N/A,GV,2079,ONC-2020-001,Panc02,Gemcitabine,75mpk,Female,3/11/2020,5,C57BL/6,7,Panc02_Gemcitabine_75mpk
16916,#N/A,GV,1917,ONC-2020-001,Panc02,JG6,75mpk,Female,3/11/2020,5,C57BL/6,4,Panc02_JG6_75mpk
16917,#N/A,GV,1578,ONC-2020-001,Panc02,Gem_JG6,75mpk_75mpk,Female,3/11/2020,5,C57BL/6,10,Panc02_Gem_JG6_75mpk_75mpk
16918,#N/A,GV,308,ONC-2020-001,Panc02,Gem_JG6,75mpk_75mpk,Female,3/11/2020,5,C57BL/6,10,Panc02_Gem_JG6_75mpk_75mpk
16920,#N/A,GV,4066,ONC-2020-001,Panc02,Vehicle,0mpk,Female,3/11/2020,5,C57BL/6,1,Panc02_Vehicle_0mpk
16922,#N/A,GV,1588,ONC-2020-001,Panc02,JG6,75mpk,Female,3/11/2020,5,C57BL/6,4,Panc02_JG6_75mpk
16923,#N/A,GV,774,ONC-2020-001,Panc02,Gem_JG6,75mpk_75mpk,Female,3/11/2020,5,C57BL/6,10,Panc02_Gem_JG6_75mpk_75mpk
16924,#N/A,GV,451,ONC-2020-001,Panc02,Gem_GV009,75mpk_125mpk,Female,3/11/2020,5,C57BL/6,12,Panc02_Gem_GV009_75mpk_125mpk
16926,#N/A,GV,812,ONC-2020-001,Panc02,GV009,125mpk,Female,3/11/2020,5,C57BL/6,6,Panc02_GV009_125mpk
16930,#N/A,GV,874,ONC-2020-001,Panc02,Gemcitabine,75mpk,Female,3/11/2020,5,C57BL/6,8,Panc02_Gemcitabine_75mpk
16932,#N/A,GV,3001,ONC-2020-001,Panc02,Vehicle,0mpk,Female,3/11/2020,5,C57BL/6,2,Panc02_Vehicle_0mpk
16938,#N/A,GV,1356,ONC-2020-001,Panc02,Gem_GV009,75mpk_125mpk,Female,3/11/2020,5,C57BL/6,12,Panc02_Gem_GV009_75mpk_125mpk
16940,#N/A,GV,1922,ONC-2020-001,Panc02,GV009,125mpk,Female,3/11/2020,5,C57BL/6,6,Panc02_GV009_125mpk
16941,#N/A,GV,1811,ONC-2020-001,Panc02,GV009,125mpk,Female,3/11/2020,5,C57BL/6,6,Panc02_GV009_125mpk
16942,#N/A,GV,1944,ONC-2020-001,Panc02,Vehicle,0mpk,Female,3/11/2020,5,C57BL/6,2,Panc02_Vehicle_0mpk
16946,#N/A,GV,4152,ONC-2020-001,Panc02,Vehicle,0mpk,Female,3/11/2020,5,C57BL/6,2,Panc02_Vehicle_0mpk
16947,#N/A,GV,1069,ONC-2020-001,Panc02,Gemcitabine,75mpk,Female,3/11/2020,5,C57BL/6,8,Panc02_Gemcitabine_75mpk
16951,#N/A,GV,2329,ONC-2020-001,Panc02,Vehicle,0mpk,Female,3/11/2020,5,C57BL/6,2,Panc02_Vehicle_0mpk
16952,#N/A,GV,1660,ONC-2020-001,Panc02,Gem_GV009,75mpk_125mpk,Female,3/11/2020,5,C57BL/6,12,Panc02_Gem_GV009_75mpk_125mpk
16953,#N/A,GV,381,ONC-2020-001,Panc02,Gem_GV009,75mpk_125mpk,Female,3/11/2020,5,C57BL/6,12,Panc02_Gem_GV009_75mpk_125mpk
16956,#N/A,GV,2333,ONC-2020-001,Panc02,JG6,75mpk,Female,3/11/2020,5,C57BL/6,4,Panc02_JG6_75mpk
16960,#N/A,GV,5093,ONC-2020-001,Panc02,JG6,75mpk,Female,3/11/2020,5,C57BL/6,4,Panc02_JG6_75mpk
17024,#N/A,GV,2314.8,ONC-2020-009,Hepa1-6 orthotopic,MS275_GV009,5mpk_125npk,Female,2020/3/26,5,C57BL/6,8,Hepa1-6_orthotopic_MS275_GV009_5mpk_125npk
17025,#N/A,GV,1433,ONC-2020-009,Hepa1-6 orthotopic,MS275_GV009,5mpk_125npk,Female,2020/3/26,5,C57BL/6,8,Hepa1-6_orthotopic_MS275_GV009_5mpk_125npk
17026,#N/A,GV,1990.5,ONC-2020-009,Hepa1-6 orthotopic,MS275_GV009,5mpk_125npk,Female,2020/3/26,5,C57BL/6,8,Hepa1-6_orthotopic_MS275_GV009_5mpk_125npk
17027,#N/A,GV,576.5,ONC-2020-009,Hepa1-6 orthotopic,Vehicle,0mpk,Female,2020/3/26,5,C57BL/6,1,Hepa1-6_orthotopic_Vehicle_0mpk
17028,#N/A,GV,1887.3,ONC-2020-009,Hepa1-6 orthotopic,Vehicle,0mpk,Female,2020/3/26,5,C57BL/6,1,Hepa1-6_orthotopic_Vehicle_0mpk
17029,#N/A,GV,487.5,ONC-2020-009,Hepa1-6 orthotopic,Vehicle,0mpk,Female,2020/3/26,5,C57BL/6,1,Hepa1-6_orthotopic_Vehicle_0mpk
17036,#N/A,GV,3055.4,ONC-2020-009,Hepa1-6 orthotopic,GV009,125mpk,Female,2020/3/26,5,C57BL/6,2,Hepa1-6_orthotopic_GV009_125mpk
17037,#N/A,GV,2085.5,ONC-2020-009,Hepa1-6 orthotopic,GV009,125mpk,Female,2020/3/26,5,C57BL/6,2,Hepa1-6_orthotopic_GV009_125mpk
17038,#N/A,GV,552.1,ONC-2020-009,Hepa1-6 orthotopic,GV009,125mpk,Female,2020/3/26,5,C57BL/6,2,Hepa1-6_orthotopic_GV009_125mpk
17039,#N/A,GV,1299.6,ONC-2020-009,Hepa1-6 orthotopic,SAHA_GV009,100mpk_125npk,Female,2020/3/26,5,C57BL/6,9,Hepa1-6_orthotopic_SAHA_GV009_100mpk_125npk
17040,#N/A,GV,46,ONC-2020-009,Hepa1-6 orthotopic,SAHA_GV009,100mpk_125npk,Female,2020/3/26,5,C57BL/6,9,Hepa1-6_orthotopic_SAHA_GV009_100mpk_125npk
17041,#N/A,GV,759,ONC-2020-009,Hepa1-6 orthotopic,SAHA_GV009,100mpk_125npk,Female,2020/3/26,5,C57BL/6,9,Hepa1-6_orthotopic_SAHA_GV009_100mpk_125npk
17045,#N/A,GV,347.5,ONC-2020-009,Hepa1-6 orthotopic,SAHA,100mpk,Female,2020/3/26,5,C57BL/6,6,Hepa1-6_orthotopic_SAHA_100mpk
17046,#N/A,GV,490.9,ONC-2020-009,Hepa1-6 orthotopic,SAHA,100mpk,Female,2020/3/26,5,C57BL/6,6,Hepa1-6_orthotopic_SAHA_100mpk
17047,#N/A,GV,800.3,ONC-2020-009,Hepa1-6 orthotopic,SAHA,100mpk,Female,2020/3/26,5,C57BL/6,6,Hepa1-6_orthotopic_SAHA_100mpk
17054,#N/A,GV,1458.3,ONC-2020-009,Hepa1-6 orthotopic,MS275,5mpk,Female,2020/3/26,5,C57BL/6,5,Hepa1-6_orthotopic_MS275_5mpk
17055,#N/A,GV,912.8,ONC-2020-009,Hepa1-6 orthotopic,MS275,5mpk,Female,2020/3/26,5,C57BL/6,5,Hepa1-6_orthotopic_MS275_5mpk
17056,#N/A,GV,1956.9,ONC-2020-009,Hepa1-6 orthotopic,MS275,5mpk,Female,2020/3/26,5,C57BL/6,5,Hepa1-6_orthotopic_MS275_5mpk
17060,#N/A,GV,2222.6,ONC-2020-009,Hepa1-6 orthotopic,PD-1_GV009,5mpk_125npk,Female,2020/3/26,5,C57BL/6,7,Hepa1-6_orthotopic_PD-1_GV009_5mpk_125npk
17061,#N/A,GV,1334.1,ONC-2020-009,Hepa1-6 orthotopic,PD-1_GV009,5mpk_125npk,Female,2020/3/26,5,C57BL/6,7,Hepa1-6_orthotopic_PD-1_GV009_5mpk_125npk
17062,#N/A,GV,800.3,ONC-2020-009,Hepa1-6 orthotopic,PD-1_GV009,5mpk_125npk,Female,2020/3/26,5,C57BL/6,7,Hepa1-6_orthotopic_PD-1_GV009_5mpk_125npk
17063,#N/A,GV,0,ONC-2020-009,Hepa1-6 orthotopic,PD-1,5mpk,Female,2020/3/26,5,C57BL/6,4,Hepa1-6_orthotopic_PD-1_5mpk
17064,#N/A,GV,0,ONC-2020-009,Hepa1-6 orthotopic,PD-1,5mpk,Female,2020/3/26,5,C57BL/6,4,Hepa1-6_orthotopic_PD-1_5mpk
17065,#N/A,GV,0,ONC-2020-009,Hepa1-6 orthotopic,PD-1,5mpk,Female,2020/3/26,5,C57BL/6,4,Hepa1-6_orthotopic_PD-1_5mpk
17072,#N/A,GV,615.5,ONC-2020-009,Hepa1-6 orthotopic,IgG2a,5mpk,Female,2020/3/26,5,C57BL/6,3,Hepa1-6_orthotopic_IgG2a_5mpk
17073,#N/A,GV,1390.5,ONC-2020-009,Hepa1-6 orthotopic,IgG2a,5mpk,Female,2020/3/26,5,C57BL/6,3,Hepa1-6_orthotopic_IgG2a_5mpk
17074,#N/A,GV,1845.3,ONC-2020-009,Hepa1-6 orthotopic,IgG2a,5mpk,Female,2020/3/26,5,C57BL/6,3,Hepa1-6_orthotopic_IgG2a_5mpk
17075,#N/A,GV,1453.6,ONC-2020-009,Hepa1-6 orthotopic,Vehicle,0mpk,Female,2020/3/27,5,C57BL/6,1,Hepa1-6_orthotopic_Vehicle_0mpk
17076,#N/A,GV,1283.3,ONC-2020-009,Hepa1-6 orthotopic,Vehicle,0mpk,Female,2020/3/27,5,C57BL/6,1,Hepa1-6_orthotopic_Vehicle_0mpk
17077,#N/A,GV,2269.7,ONC-2020-009,Hepa1-6 orthotopic,GV009,125mpk,Female,2020/3/27,5,C57BL/6,2,Hepa1-6_orthotopic_GV009_125mpk
17078,#N/A,GV,2779.6,ONC-2020-009,Hepa1-6 orthotopic,GV009,125mpk,Female,2020/3/27,5,C57BL/6,2,Hepa1-6_orthotopic_GV009_125mpk
17079,#N/A,GV,1047.2,ONC-2020-009,Hepa1-6 orthotopic,IgG2a,5mpk,Female,2020/3/27,5,C57BL/6,3,Hepa1-6_orthotopic_IgG2a_5mpk
17080,#N/A,GV,0,ONC-2020-009,Hepa1-6 orthotopic,IgG2a,5mpk,Female,2020/3/27,5,C57BL/6,3,Hepa1-6_orthotopic_IgG2a_5mpk
17081,#N/A,GV,85.6,ONC-2020-009,Hepa1-6 orthotopic,PD-1,5mpk,Female,2020/3/27,5,C57BL/6,4,Hepa1-6_orthotopic_PD-1_5mpk
17082,#N/A,GV,1486.3,ONC-2020-009,Hepa1-6 orthotopic,PD-1,5mpk,Female,2020/3/27,5,C57BL/6,4,Hepa1-6_orthotopic_PD-1_5mpk
17083,#N/A,GV,2089.2,ONC-2020-009,Hepa1-6 orthotopic,MS275,5mpk,Female,2020/3/27,5,C57BL/6,5,Hepa1-6_orthotopic_MS275_5mpk
17084,#N/A,GV,0,ONC-2020-009,Hepa1-6 orthotopic,MS275,5mpk,Female,2020/3/27,5,C57BL/6,5,Hepa1-6_orthotopic_MS275_5mpk
17085,#N/A,GV,398.3,ONC-2020-009,Hepa1-6 orthotopic,SAHA,100mpk,Female,2020/3/27,5,C57BL/6,6,Hepa1-6_orthotopic_SAHA_100mpk
17086,#N/A,GV,253.3,ONC-2020-009,Hepa1-6 orthotopic,SAHA,100mpk,Female,2020/3/27,5,C57BL/6,6,Hepa1-6_orthotopic_SAHA_100mpk
17087,#N/A,GV,1849.8,ONC-2020-009,Hepa1-6 orthotopic,PD-1_GV009,5mpk_125npk,Female,2020/3/27,5,C57BL/6,7,Hepa1-6_orthotopic_PD-1_GV009_5mpk_125npk
17088,#N/A,GV,1000.2,ONC-2020-009,Hepa1-6 orthotopic,PD-1_GV009,5mpk_125npk,Female,2020/3/27,5,C57BL/6,7,Hepa1-6_orthotopic_PD-1_GV009_5mpk_125npk
17089,#N/A,GV,0,ONC-2020-009,Hepa1-6 orthotopic,MS275_GV009,5mpk_125npk,Female,2020/3/27,5,C57BL/6,8,Hepa1-6_orthotopic_MS275_GV009_5mpk_125npk
17090,#N/A,GV,0,ONC-2020-009,Hepa1-6 orthotopic,MS275_GV009,5mpk_125npk,Female,2020/3/27,5,C57BL/6,8,Hepa1-6_orthotopic_MS275_GV009_5mpk_125npk
17091,#N/A,GV,306.2,ONC-2020-009,Hepa1-6 orthotopic,SAHA_GV009,100mpk_125npk,Female,2020/3/27,5,C57BL/6,9,Hepa1-6_orthotopic_SAHA_GV009_100mpk_125npk
17093,#N/A,GV,1004,ONC-2020-009,Hepa1-6 orthotopic,SAHA_GV009,100mpk_125npk,Female,2020/3/27,5,C57BL/6,9,Hepa1-6_orthotopic_SAHA_GV009_100mpk_125npk
17094,17094,GV,152,ONC-2020-003,Hepa1-6,Vehicle,0mpk,Female,2020/4/7,4,C57BL/6,1,Hepa1-6_Vechicle_0mpk
17095,17095,GV,324,ONC-2020-003,Hepa1-6,Vehicle,0mpk,Female,2020/4/7,4,C57BL/6,1,Hepa1-6_Vechicle_0mpk
17096,17096,GV,0,ONC-2020-003,Hepa1-6,Vehicle,0mpk,Female,2020/4/7,4,C57BL/6,1,Hepa1-6_Vechicle_0mpk
17097,17097,GV,127,ONC-2020-003,Hepa1-6,Vehicle,0mpk,Female,2020/4/7,4,C57BL/6,1,Hepa1-6_Vechicle_0mpk
17098,17098,GV,1387,ONC-2020-003,Hepa1-6,Vehicle,0mpk,Female,2020/4/7,4,C57BL/6,1,Hepa1-6_Vechicle_0mpk
17099,17099,GV,284,ONC-2020-003,Hepa1-6,Vehicle,0mpk,Female,2020/4/7,4,C57BL/6,2,Hepa1-6_Vechicle_0mpk
17100,17100,GV,236,ONC-2020-003,Hepa1-6,Vehicle,0mpk,Female,2020/4/7,4,C57BL/6,2,Hepa1-6_Vechicle_0mpk
17101,17101,GV,1460,ONC-2020-003,Hepa1-6,Vehicle,0mpk,Female,2020/4/7,4,C57BL/6,2,Hepa1-6_Vechicle_0mpk
17102,17102,GV,1702,ONC-2020-003,Hepa1-6,Vehicle,0mpk,Female,2020/4/7,4,C57BL/6,2,Hepa1-6_Vechicle_0mpk
17103,17103,GV,0,ONC-2020-003,Hepa1-6,Vehicle,0mpk,Female,2020/4/7,4,C57BL/6,2,Hepa1-6_Vechicle_0mpk
17104,17104,GV,34,ONC-2020-003,Hepa1-6,GV009,31.25mpk,Female,2020/4/7,4,C57BL/6,3,Hepa1-6_GV009_31.25mpk
17105,17105,GV,544,ONC-2020-003,Hepa1-6,GV009,31.25mpk,Female,2020/4/7,4,C57BL/6,3,Hepa1-6_GV009_31.25mpk
17106,17106,GV,0,ONC-2020-003,Hepa1-6,GV009,31.25mpk,Female,2020/4/7,4,C57BL/6,3,Hepa1-6_GV009_31.25mpk
17107,17107,GV,99,ONC-2020-003,Hepa1-6,GV009,31.25mpk,Female,2020/4/7,4,C57BL/6,3,Hepa1-6_GV009_31.25mpk
17108,17108,GV,0,ONC-2020-003,Hepa1-6,GV009,31.25mpk,Female,2020/4/7,4,C57BL/6,3,Hepa1-6_GV009_31.25mpk
17109,17109,GV,36,ONC-2020-003,Hepa1-6,GV009,31.25mpk,Female,2020/4/7,4,C57BL/6,4,Hepa1-6_GV009_31.25mpk
17110,17110,GV,618,ONC-2020-003,Hepa1-6,GV009,31.25mpk,Female,2020/4/7,4,C57BL/6,4,Hepa1-6_GV009_31.25mpk
17111,17111,GV,70,ONC-2020-003,Hepa1-6,GV009,31.25mpk,Female,2020/4/7,4,C57BL/6,4,Hepa1-6_GV009_31.25mpk
17112,17112,GV,127,ONC-2020-003,Hepa1-6,GV009,31.25mpk,Female,2020/4/7,4,C57BL/6,4,Hepa1-6_GV009_31.25mpk
17113,17113,GV,433,ONC-2020-003,Hepa1-6,GV009,31.25mpk,Female,2020/4/7,4,C57BL/6,4,Hepa1-6_GV009_31.25mpk
17124,17124,GV,2692,ONC-2020-003,Hepa1-6,GV009,500mpk,Female,2020/4/7,4,C57BL/6,7,Hepa1-6_GV009_500mpk
17125,17125,GV,874,ONC-2020-003,Hepa1-6,GV009,500mpk,Female,2020/4/7,4,C57BL/6,7,Hepa1-6_GV009_500mpk
17126,17126,GV,1855,ONC-2020-003,Hepa1-6,GV009,500mpk,Female,2020/4/7,4,C57BL/6,7,Hepa1-6_GV009_500mpk
17127,17127,GV,22,ONC-2020-003,Hepa1-6,GV009,500mpk,Female,2020/4/7,4,C57BL/6,7,Hepa1-6_GV009_500mpk
17128,17128,GV,72,ONC-2020-003,Hepa1-6,GV009,500mpk,Female,2020/4/7,4,C57BL/6,7,Hepa1-6_GV009_500mpk
17129,17129,GV,2601,ONC-2020-003,Hepa1-6,GV009,500mpk,Female,2020/4/7,4,C57BL/6,8,Hepa1-6_GV009_500mpk
17130,17130,GV,259,ONC-2020-003,Hepa1-6,GV009,500mpk,Female,2020/4/7,4,C57BL/6,8,Hepa1-6_GV009_500mpk
17131,17131,GV,0,ONC-2020-003,Hepa1-6,GV009,500mpk,Female,2020/4/7,4,C57BL/6,8,Hepa1-6_GV009_500mpk
17132,17132,GV,483,ONC-2020-003,Hepa1-6,GV009,500mpk,Female,2020/4/7,4,C57BL/6,8,Hepa1-6_GV009_500mpk
17133,17133,GV,1220,ONC-2020-003,Hepa1-6,GV009,500mpk,Female,2020/4/7,4,C57BL/6,8,Hepa1-6_GV009_500mpk
17373,17373,GV,1740,ONC-2020-016(1),Hepa1-6 orthotopic,Vehicle,0mpk,Female,2020/5/13,5,C57BL/6,1,Hepa1-6_orthotopic_Vehicle_0mpk
17374,17374,GV,1707,ONC-2020-016(1),Hepa1-6 orthotopic,Vehicle,0mpk,Female,2020/5/13,5,C57BL/6,1,Hepa1-6_orthotopic_Vehicle_0mpk
17375,17375,GV,1753,ONC-2020-016(1),Hepa1-6 orthotopic,Vehicle,0mpk,Female,2020/5/13,5,C57BL/6,1,Hepa1-6_orthotopic_Vehicle_0mpk
17376,17376,GV,1570,ONC-2020-016(1),Hepa1-6 orthotopic,GV009,31.25mpk,Female,2020/5/13,5,C57BL/6,2,Hepa1-6_orthotopic_GV009_31.25mpk
17377,17377,GV,1264,ONC-2020-016(1),Hepa1-6 orthotopic,GV009,31.25mpk,Female,2020/5/13,5,C57BL/6,2,Hepa1-6_orthotopic_GV009_31.25mpk
17378,17378,GV,4548,ONC-2020-016(1),Hepa1-6 orthotopic,GV009,31.25mpk,Female,2020/5/13,5,C57BL/6,2,Hepa1-6_orthotopic_GV009_31.25mpk
17379,17379,GV,1628,ONC-2020-016(1),Hepa1-6 orthotopic,JG6,75mpk,Female,2020/5/13,5,C57BL/6,3,Hepa1-6_orthotopic_JG6_75mpk
17380,17380,GV,1577,ONC-2020-016(1),Hepa1-6 orthotopic,JG6,75mpk,Female,2020/5/13,5,C57BL/6,3,Hepa1-6_orthotopic_JG6_75mpk
17381,17381,GV,1908,ONC-2020-016(1),Hepa1-6 orthotopic,JG6,75mpk,Female,2020/5/13,5,C57BL/6,3,Hepa1-6_orthotopic_JG6_75mpk
17382,17382,GV,907,ONC-2020-016(1),Hepa1-6 orthotopic,SAHA,100mpk,Female,2020/5/13,5,C57BL/6,4,Hepa1-6_orthotopic_SAHA_100mpk
17383,17383,GV,931,ONC-2020-016(1),Hepa1-6 orthotopic,SAHA,100mpk,Female,2020/5/13,5,C57BL/6,4,Hepa1-6_orthotopic_SAHA_100mpk
17384,17384,GV,116,ONC-2020-016(1),Hepa1-6 orthotopic,SAHA,100mpk,Female,2020/5/13,5,C57BL/6,4,Hepa1-6_orthotopic_SAHA_100mpk
17385,17385,GV,393,ONC-2020-016(1),Hepa1-6 orthotopic,SAHA+GV009,100+31.25mpk,Female,2020/5/13,5,C57BL/6,5,Hepa1-6_orthotopic_SAHA+GV009_100+31.25mpk
17386,17386,GV,125,ONC-2020-016(1),Hepa1-6 orthotopic,SAHA+GV009,100+31.25mpk,Female,2020/5/13,5,C57BL/6,5,Hepa1-6_orthotopic_SAHA+GV009_100+31.25mpk
17387,17387,GV,0,ONC-2020-016(1),Hepa1-6 orthotopic,SAHA+GV009,100+31.25mpk,Female,2020/5/13,5,C57BL/6,5,Hepa1-6_orthotopic_SAHA+GV009_100+31.25mpk
17388,17388,GV,728,ONC-2020-016(1),Hepa1-6 orthotopic,SAHA+JG6,100+75mpk,Female,2020/5/13,5,C57BL/6,6,Hepa1-6_orthotopic_SAHA+JG6_100+75mpk
17389,17389,GV,1357,ONC-2020-016(1),Hepa1-6 orthotopic,SAHA+JG6,100+75mpk,Female,2020/5/13,5,C57BL/6,6,Hepa1-6_orthotopic_SAHA+JG6_100+75mpk
17390,17390,GV,627,ONC-2020-016(1),Hepa1-6 orthotopic,SAHA+JG6,100+75mpk,Female,2020/5/13,5,C57BL/6,6,Hepa1-6_orthotopic_SAHA+JG6_100+75mpk
17391,17391,GV,2173,ONC-2020-016(2),Hepa1-6 orthotopic,Vehicle,0mpk,Female,2020/5/14,5,C57BL/6,1,Hepa1-6_orthotopic_Vehicle_0mpk
17392,17392,GV,4042,ONC-2020-016(2),Hepa1-6 orthotopic,Vehicle,0mpk,Female,2020/5/14,5,C57BL/6,1,Hepa1-6_orthotopic_Vehicle_0mpk
17393,17393,GV,2010,ONC-2020-016(2),Hepa1-6 orthotopic,Vehicle,0mpk,Female,2020/5/14,5,C57BL/6,1,Hepa1-6_orthotopic_Vehicle_0mpk
17394,17394,GV,4031,ONC-2020-016(2),Hepa1-6 orthotopic,GV009,31.25mpk,Female,2020/5/14,5,C57BL/6,2,Hepa1-6_orthotopic_GV009_31.25mpk
17395,17395,GV,2967,ONC-2020-016(2),Hepa1-6 orthotopic,GV009,31.25mpk,Female,2020/5/14,5,C57BL/6,2,Hepa1-6_orthotopic_GV009_31.25mpk
17396,17396,GV,3083,ONC-2020-016(2),Hepa1-6 orthotopic,GV009,31.25mpk,Female,2020/5/14,5,C57BL/6,2,Hepa1-6_orthotopic_GV009_31.25mpk
17397,17397,GV,48,ONC-2020-016(2),Hepa1-6 orthotopic,JG6,75mpk,Female,2020/5/14,5,C57BL/6,3,Hepa1-6_orthotopic_JG6_75mpk
17398,17398,GV,272.2,ONC-2020-016(2),Hepa1-6 orthotopic,JG6,75mpk,Female,2020/5/14,5,C57BL/6,3,Hepa1-6_orthotopic_JG6_75mpk
17399,17399,GV,2598,ONC-2020-016(2),Hepa1-6 orthotopic,JG6,75mpk,Female,2020/5/14,5,C57BL/6,3,Hepa1-6_orthotopic_JG6_75mpk
17400,17400,GV,1328,ONC-2020-016(2),Hepa1-6 orthotopic,SAHA,100mpk,Female,2020/5/14,5,C57BL/6,4,Hepa1-6_orthotopic_SAHA_100mpk
17401,17401,GV,774.8,ONC-2020-016(2),Hepa1-6 orthotopic,SAHA,100mpk,Female,2020/5/14,5,C57BL/6,4,Hepa1-6_orthotopic_SAHA_100mpk
17402,17402,GV,257.4,ONC-2020-016(2),Hepa1-6 orthotopic,SAHA,100mpk,Female,2020/5/14,5,C57BL/6,4,Hepa1-6_orthotopic_SAHA_100mpk
17403,17403,GV,252.1,ONC-2020-016(2),Hepa1-6 orthotopic,SAHA+GV009,100+31.25mpk,Female,2020/5/14,5,C57BL/6,5,Hepa1-6_orthotopic_SAHA+GV009_100+31.25mpk
17405,17405,GV,1226.8,ONC-2020-016(2),Hepa1-6 orthotopic,SAHA+GV009,100+31.25mpk,Female,2020/5/14,5,C57BL/6,5,Hepa1-6_orthotopic_SAHA+GV009_100+31.25mpk
17406,17406,GV,552,ONC-2020-016(2),Hepa1-6 orthotopic,SAHA+JG6,100+75mpk,Female,2020/5/14,5,C57BL/6,6,Hepa1-6_orthotopic_SAHA+JG6_100+75mpk
17407,17407,GV,585,ONC-2020-016(2),Hepa1-6 orthotopic,SAHA+JG6,100+75mpk,Female,2020/5/14,5,C57BL/6,6,Hepa1-6_orthotopic_SAHA+JG6_100+75mpk
17408,17408,GV,679,ONC-2020-016(2),Hepa1-6 orthotopic,SAHA+JG6,100+75mpk,Female,2020/5/14,5,C57BL/6,6,Hepa1-6_orthotopic_SAHA+JG6_100+75mpk
17409,17409,GV,2707,ONC-2020-016(3),Hepa1-6 orthotopic,Vehicle,0mpk,Female,2020/5/14,5,C57BL/6,1,Hepa1-6_orthotopic_Vehicle_0mpk
17410,17410,GV,736,ONC-2020-016(3),Hepa1-6 orthotopic,Vehicle,0mpk,Female,2020/5/14,5,C57BL/6,1,Hepa1-6_orthotopic_Vehicle_0mpk
17411,17411,GV,3150,ONC-2020-016(3),Hepa1-6 orthotopic,GV009,31.25mpk,Female,2020/5/14,5,C57BL/6,2,Hepa1-6_orthotopic_GV009_31.25mpk
17412,17412,GV,1240,ONC-2020-016(2),Hepa1-6 orthotopic,SAHA+GV009,100+31.25mpk,Female,2020/5/14,5,C57BL/6,5,Hepa1-6_orthotopic_SAHA+GV009_100+31.25mpk
17412,17412,GV,430.2,ONC-2020-016(3),Hepa1-6 orthotopic,GV009,31.25mpk,Female,2020/5/14,5,C57BL/6,2,Hepa1-6_orthotopic_GV009_31.25mpk
17413,17413,GV,4530,ONC-2020-016(3),Hepa1-6 orthotopic,JG6,75mpk,Female,2020/5/14,5,C57BL/6,3,Hepa1-6_orthotopic_JG6_75mpk
17414,17414,GV,2147,ONC-2020-016(3),Hepa1-6 orthotopic,JG6,75mpk,Female,2020/5/14,5,C57BL/6,3,Hepa1-6_orthotopic_JG6_75mpk
17415,17415,GV,1021,ONC-2020-016(3),Hepa1-6 orthotopic,SAHA,100mpk,Female,2020/5/14,5,C57BL/6,4,Hepa1-6_orthotopic_SAHA_100mpk
17416,17416,GV,2136,ONC-2020-016(3),Hepa1-6 orthotopic,SAHA,100mpk,Female,2020/5/14,5,C57BL/6,4,Hepa1-6_orthotopic_SAHA_100mpk
17417,17417,GV,1885,ONC-2020-016(3),Hepa1-6 orthotopic,SAHA+GV009,100+31.25mpk,Female,2020/5/14,5,C57BL/6,5,Hepa1-6_orthotopic_SAHA+GV009_100+31.25mpk
17418,17418,GV,278,ONC-2020-016(3),Hepa1-6 orthotopic,SAHA+GV009,100+31.25mpk,Female,2020/5/14,5,C57BL/6,5,Hepa1-6_orthotopic_SAHA+GV009_100+31.25mpk
17419,17419,GV,3013,ONC-2020-016(3),Hepa1-6 orthotopic,SAHA+JG6,100+75mpk,Female,2020/5/14,5,C57BL/6,6,Hepa1-6_orthotopic_SAHA+JG6_100+75mpk
17420,17420,GV,5.2,ONC-2020-016(3),Hepa1-6 orthotopic,SAHA+JG6,100+75mpk,Female,2020/5/14,5,C57BL/6,6,Hepa1-6_orthotopic_SAHA+JG6_100+75mpk
E1347,#N/A,GV,2100.6,ONC-2019-GL-021,LLC,Irinotecan,50mpk,Female,12/13/2019,5,C57BL/6,3,LLC_Irinotecan_50mpk
E1355,#N/A,GV,1351.2,ONC-2019-GL-021,LLC,Vehicle,0mpk,Female,12/13/2019,5,C57BL/6,1,LLC_Vehicle_0mpk
E1357,#N/A,GV,2643.8,ONC-2019-GL-021,LLC,Irinotecan,50mpk,Female,12/13/2019,5,C57BL/6,3,LLC_Irinotecan_50mpk
E1384,#N/A,GV,3103.6,ONC-2019-GL-021,LLC,Vehicle,0mpk,Female,12/13/2019,5,C57BL/6,1,LLC_Vehicle_0mpk
E1391,#N/A,GV,1271.3,ONC-2019-GL-021,LLC,Irinotecan,50mpk,Female,12/13/2019,5,C57BL/6,3,LLC_Irinotecan_50mpk
E1399,#N/A,GV,2298.7,ONC-2019-GL-021,LLC,Vehicle,0mpk,Female,12/13/2019,5,C57BL/6,1,LLC_Vehicle_0mpk
E1410,#N/A,GV,2661.8,ONC-2019-GL-021,LLC,Irinotecan,50mpk,Female,12/13/2019,5,C57BL/6,3,LLC_Irinotecan_50mpk
E1412,#N/A,GV,2084,ONC-2019-GL-021,LLC,Irinotecan,50mpk,Female,12/13/2019,5,C57BL/6,4,LLC_Irinotecan_50mpk
E1429,#N/A,GV,1082.1,ONC-2019-GL-021,LLC,Irinotecan_GV009,50mpk_125mpk,Female,12/13/2019,5,C57BL/6,19,LLC_Irinotecan_GV009_50mpk_125mpk
E1431,#N/A,GV,1273.8,ONC-2019-GL-021,LLC,Irinotecan_GV009,50mpk_125mpk,Female,12/13/2019,5,C57BL/6,19,LLC_Irinotecan_GV009_50mpk_125mpk
E1437,#N/A,GV,3390.1,ONC-2019-GL-021,LLC,Vehicle,0mpk,Female,12/13/2019,5,C57BL/6,2,LLC_Vehicle_0mpk
E1464,#N/A,GV,3674.2,ONC-2019-GL-021,LLC,Vehicle,0mpk,Female,12/13/2019,5,C57BL/6,2,LLC_Vehicle_0mpk
E1472,#N/A,GV,3005.8,ONC-2019-GL-021,LLC,Vehicle,0mpk,Female,12/13/2019,5,C57BL/6,1,LLC_Vehicle_0mpk
E1475,#N/A,GV,1789.5,ONC-2019-GL-021,LLC,Irinotecan,50mpk,Female,12/13/2019,5,C57BL/6,4,LLC_Irinotecan_50mpk
E1495,#N/A,GV,2863.9,ONC-2019-GL-021,LLC,Vehicle,0mpk,Female,12/13/2019,5,C57BL/6,2,LLC_Vehicle_0mpk
E1496,#N/A,GV,1602.9,ONC-2019-GL-021,LLC,Irinotecan_GV009,50mpk_125mpk,Female,12/13/2019,5,C57BL/6,20,LLC_Irinotecan_GV009_50mpk_125mpk
E1498,#N/A,GV,1532.7,ONC-2019-GL-021,LLC,Irinotecan_GV009,50mpk_125mpk,Female,12/13/2019,5,C57BL/6,20,LLC_Irinotecan_GV009_50mpk_125mpk
E1501,#N/A,GV,1110.5,ONC-2019-GL-021,LLC,Irinotecan_GV009,50mpk_125mpk,Female,12/13/2019,5,C57BL/6,19,LLC_Irinotecan_GV009_50mpk_125mpk
E1511,#N/A,GV,2518,ONC-2019-GL-021,LLC,Irinotecan,50mpk,Female,12/13/2019,5,C57BL/6,4,LLC_Irinotecan_50mpk
E1514,#N/A,GV,2893.7,ONC-2019-GL-021,LLC,Irinotecan_GV009,50mpk_125mpk,Female,12/13/2019,5,C57BL/6,19,LLC_Irinotecan_GV009_50mpk_125mpk
E1710,#N/A,GV,3796.1,ONC-2020-002,Panc02,JG6,75mpk,Female,3/10/2020,5,C57BL/6,3,Panc02_JG6_75mpk
E1713,#N/A,GV,2336.7,ONC-2020-002,Panc02,JG6,75mpk,Female,3/10/2020,5,C57BL/6,3,Panc02_JG6_75mpk
E1716,#N/A,GV,767.9,ONC-2020-002,Panc02,JG6,75mpk,Female,3/10/2020,5,C57BL/6,3,Panc02_JG6_75mpk
E1717,#N/A,GV,868.7,ONC-2020-002,Panc02,JG6,75mpk,Female,3/10/2020,5,C57BL/6,3,Panc02_JG6_75mpk
E1718,#N/A,GV,823.4,ONC-2020-002,Panc02,JG6,75mpk,Female,3/10/2020,5,C57BL/6,4,Panc02_JG6_75mpk
E1719,#N/A,GV,362.7,ONC-2020-002,Panc02,JG6,75mpk,Female,3/10/2020,5,C57BL/6,4,Panc02_JG6_75mpk
E1720,#N/A,GV,908.6,ONC-2020-002,Panc02,JG6,75mpk,Female,3/10/2020,5,C57BL/6,4,Panc02_JG6_75mpk
E1726,#N/A,GV,1225.6,ONC-2020-002,Panc02,Vehicle,0mpk,Female,3/10/2020,5,C57BL/6,1,Panc02_Vehicle_0mpk
E1728,#N/A,GV,813.4,ONC-2020-002,Panc02,Vehicle,0mpk,Female,3/10/2020,5,C57BL/6,1,Panc02_Vehicle_0mpk
E1736,#N/A,GV,1913.6,ONC-2020-002,Panc02,GV009,125mpk,Female,3/10/2020,5,C57BL/6,5,Panc02_GV009_125mpk
E1737,#N/A,GV,1013.5,ONC-2020-002,Panc02,GV009,125mpk,Female,3/10/2020,5,C57BL/6,5,Panc02_GV009_125mpk
E1739,#N/A,GV,1373,ONC-2020-002,Panc02,GV009,125mpk,Female,3/10/2020,5,C57BL/6,5,Panc02_GV009_125mpk
E1740,#N/A,GV,1286.1,ONC-2020-002,Panc02,GV009,125mpk,Female,3/10/2020,5,C57BL/6,5,Panc02_GV009_125mpk
E1741,#N/A,GV,1636.9,ONC-2020-002,Panc02,GV009,125mpk,Female,3/10/2020,5,C57BL/6,6,Panc02_GV009_125mpk
E1742,#N/A,GV,2000.7,ONC-2020-002,Panc02,GV009,125mpk,Female,3/10/2020,5,C57BL/6,6,Panc02_GV009_125mpk
E1743,#N/A,GV,1277.9,ONC-2020-002,Panc02,GV009,125mpk,Female,3/10/2020,5,C57BL/6,6,Panc02_GV009_125mpk
E1751,#N/A,GV,342.6,ONC-2020-002,Panc02,Vehicle,0mpk,Female,3/10/2020,5,C57BL/6,1,Panc02_Vehicle_0mpk
E1752,#N/A,GV,1870.3,ONC-2020-002,Panc02,Vehicle,0mpk,Female,3/10/2020,5,C57BL/6,1,Panc02_Vehicle_0mpk
E1753,#N/A,GV,329.5,ONC-2020-002,Panc02,Vehicle,0mpk,Female,3/10/2020,5,C57BL/6,2,Panc02_Vehicle_0mpk
E1754,#N/A,GV,1389.8,ONC-2020-002,Panc02,Vehicle,0mpk,Female,3/10/2020,5,C57BL/6,2,Panc02_Vehicle_0mpk
E1755,#N/A,GV,850.9,ONC-2020-002,Panc02,Vehicle,0mpk,Female,3/10/2020,5,C57BL/6,2,Panc02_Vehicle_0mpk
E1907,E1907,GV,1487.9,ONC-2020-008,CT26,GV009,125mpk,Female,2020/3/30,4,C57BL/6,3,CT26_GV009_125mpk
E1908,E1908,GV,3451.2,ONC-2020-008,CT26,GV009,125mpk,Female,2020/3/30,4,C57BL/6,4,CT26_GV009_125mpk
E1914,E1914,GV,2699.8,ONC-2020-008,CT26,MS275_GV009,10mpk_125mpk,Female,2020/3/30,4,C57BL/6,16,CT26_MS275_GV009_10mpk_125mpk
E1916,E1916,GV,2637.6,ONC-2020-008,CT26,Vehicle,0mpk,Female,2020/3/30,4,C57BL/6,1,CT26_Vehicle_0mpk
E1917,E1917,GV,1426.2,ONC-2020-008,CT26,MS275,10mpk,Female,2020/3/30,4,C57BL/6,10,CT26_MS275_10mpk
E1924,E1924,GV,3200.8,ONC-2020-008,CT26,MS275,10mpk,Female,2020/3/30,4,C57BL/6,10,CT26_MS275_10mpk
E1925,E1925,GV,3170.4,ONC-2020-008,CT26,MS275,10mpk,Female,2020/3/30,4,C57BL/6,10,CT26_MS275_10mpk
E1929,E1929,GV,3444.7,ONC-2020-008,CT26,Vehicle,0mpk,Female,2020/3/30,4,C57BL/6,1,CT26_Vehicle_0mpk
E1931,E1931,GV,4323.3,ONC-2020-008,CT26,GV009,125mpk,Female,2020/3/30,4,C57BL/6,4,CT26_GV009_125mpk
E1934,E1934,GV,1862.4,ONC-2020-008,CT26,Vehicle,0mpk,Female,2020/3/30,4,C57BL/6,1,CT26_Vehicle_0mpk
E1935,E1935,GV,1356.1,ONC-2020-008,CT26,MS275_GV009,10mpk_125mpk,Female,2020/3/30,4,C57BL/6,15,CT26_MS275_GV009_10mpk_125mpk
E1936,E1936,GV,1504.2,ONC-2020-008,CT26,GV009,125mpk,Female,2020/3/30,4,C57BL/6,3,CT26_GV009_125mpk
E1941,E1941,GV,1784.5,ONC-2020-008,CT26,MS275_GV009,10mpk_125mpk,Female,2020/3/30,4,C57BL/6,15,CT26_MS275_GV009_10mpk_125mpk
E1944,E1944,GV,1845.1,ONC-2020-008,CT26,MS275_GV009,10mpk_125mpk,Female,2020/3/30,4,C57BL/6,15,CT26_MS275_GV009_10mpk_125mpk
E1945,E1945,GV,3151.5,ONC-2020-008,CT26,MS275_GV009,10mpk_125mpk,Female,2020/3/30,4,C57BL/6,16,CT26_MS275_GV009_10mpk_125mpk
E1953,E1953,GV,1655.8,ONC-2020-008,CT26,MS275,10mpk,Female,2020/3/30,4,C57BL/6,9,CT26_MS275_10mpk
E1958,E1958,GV,1848.4,ONC-2020-008,CT26,GV009,125mpk,Female,2020/3/30,4,C57BL/6,3,CT26_GV009_125mpk
E1961,E1961,GV,3421,ONC-2020-008,CT26,MS275,10mpk,Female,2020/3/30,4,C57BL/6,10,CT26_MS275_10mpk
E1963,E1963,GV,1662.5,ONC-2020-008,CT26,MS275,10mpk,Female,2020/3/30,4,C57BL/6,9,CT26_MS275_10mpk
E1964,E1964,GV,1568,ONC-2020-008,CT26,Vehicle,0mpk,Female,2020/3/30,4,C57BL/6,1,CT26_Vehicle_0mpk
E1967,E1967,GV,3283.4,ONC-2020-008,CT26,GV009,125mpk,Female,2020/3/30,4,C57BL/6,4,CT26_GV009_125mpk
E1968,E1968,GV,2557.2,ONC-2020-008,CT26,GV009,125mpk,Female,2020/3/30,4,C57BL/6,4,CT26_GV009_125mpk
E1974,E1974,GV,3701.6,ONC-2020-008,CT26,Vehicle,0mpk,Female,2020/3/30,4,C57BL/6,2,CT26_Vehicle_0mpk
E1979,E1979,GV,940.4,ONC-2020-008,CT26,MS275,10mpk,Female,2020/3/30,4,C57BL/6,9,CT26_MS275_10mpk
E1981,E1981,GV,979.6,ONC-2020-008,CT26,MS275_GV009,10mpk_125mpk,Female,2020/3/30,4,C57BL/6,16,CT26_MS275_GV009_10mpk_125mpk
E1986,E1986,GV,3529.1,ONC-2020-008,CT26,Vehicle,0mpk,Female,2020/3/30,4,C57BL/6,2,CT26_Vehicle_0mpk
E1988,E1988,GV,3028.5,ONC-2020-008,CT26,Vehicle,0mpk,Female,2020/3/30,4,C57BL/6,2,CT26_Vehicle_0mpk
E1992,E1992,GV,1929.8,ONC-2020-008,CT26,MS275_GV009,10mpk_125mpk,Female,2020/3/30,4,C57BL/6,15,CT26_MS275_GV009_10mpk_125mpk
E1994,E1994,GV,2933.8,ONC-2020-008,CT26,GV009,125mpk,Female,2020/3/30,4,C57BL/6,3,CT26_GV009_125mpk
E1995,E1995,GV,1734.4,ONC-2020-008,CT26,MS275,10mpk,Female,2020/3/30,4,C57BL/6,9,CT26_MS275_10mpk
E1998,E1998,GV,2514.7,ONC-2020-008,CT26,Vehicle,0mpk,Female,2020/3/30,4,C57BL/6,2,CT26_Vehicle_0mpk
E1999,E1999,GV,973.2,ONC-2020-008,CT26,MS275_GV009,10mpk_125mpk,Female,2020/3/30,4,C57BL/6,16,CT26_MS275_GV009_10mpk_125mpk
E2027,E2027,GV,1886,ONC-2020-013,Hepa1-6 4.2,GV009,500mpk,Female,2020/4/21,4,C57BL/6,8,Hepa1-6_4.2_GV009_500mpk
E2028,E2028,GV,1826,ONC-2020-013,Hepa1-6 4.2,Vehicle,0mpk,Female,2020/4/21,4,C57BL/6,2,Hepa1-6_4.2_Vehicle_0mpk
E2029,E2029,GV,1063,ONC-2020-013,Hepa1-6 4.2,GV009,500mpk,Female,2020/4/21,4,C57BL/6,7,Hepa1-6_4.2_GV009_500mpk
E2030,E2030,GV,0,ONC-2020-013,Hepa1-6 4.2,GV009,125mpk,Female,2020/4/21,4,C57BL/6,5,Hepa1-6_4.2_GV009_125mpk
E2031,E2031,GV,1372,ONC-2020-013,Hepa1-6 4.2,GV009,31.25mpk,Female,2020/4/21,4,C57BL/6,3,Hepa1-6_4.2_GV009_31.25mpk
E2033,E2033,GV,773,ONC-2020-013,Hepa1-6 4.2,GV009,31.25mpk,Female,2020/4/21,4,C57BL/6,3,Hepa1-6_4.2_GV009_31.25mpk
E2034,E2034,GV,447,ONC-2020-013,Hepa1-6 4.2,GV009,31.25mpk,Female,2020/4/21,4,C57BL/6,3,Hepa1-6_4.2_GV009_31.25mpk
E2035,E2035,GV,1348,ONC-2020-013,Hepa1-6 4.2,Vehicle,0mpk,Female,2020/4/21,4,C57BL/6,1,Hepa1-6_4.2_Vehicle_0mpk
E2036,E2036,GV,473,ONC-2020-013,Hepa1-6 4.2,Vehicle,0mpk,Female,2020/4/21,4,C57BL/6,1,Hepa1-6_4.2_Vehicle_0mpk
E2038,E2038,GV,0,ONC-2020-013,Hepa1-6 4.2,Vehicle,0mpk,Female,2020/4/21,4,C57BL/6,1,Hepa1-6_4.2_Vehicle_0mpk
E2039,E2039,GV,841,ONC-2020-013,Hepa1-6 4.2,GV009,500mpk,Female,2020/4/21,4,C57BL/6,7,Hepa1-6_4.2_GV009_500mpk
E2041,E2041,GV,2376,ONC-2020-013,Hepa1-6 4.2,GV009,500mpk,Female,2020/4/21,4,C57BL/6,7,Hepa1-6_4.2_GV009_500mpk
E2042,E2042,GV,1321,ONC-2020-013,Hepa1-6 4.2,GV009,500mpk,Female,2020/4/21,4,C57BL/6,7,Hepa1-6_4.2_GV009_500mpk
E2043,E2043,GV,427,ONC-2020-013,Hepa1-6 4.2,GV009,31.25mpk,Female,2020/4/21,4,C57BL/6,4,Hepa1-6_4.2_GV009_31.25mpk
E2044,E2044,GV,31,ONC-2020-013,Hepa1-6 4.2,GV009,31.25mpk,Female,2020/4/21,4,C57BL/6,4,Hepa1-6_4.2_GV009_31.25mpk
E2045,E2045,GV,772,ONC-2020-013,Hepa1-6 4.2,GV009,31.25mpk,Female,2020/4/21,4,C57BL/6,4,Hepa1-6_4.2_GV009_31.25mpk
E2046,E2046,GV,1346,ONC-2020-013,Hepa1-6 4.2,GV009,31.25mpk,Female,2020/4/21,4,C57BL/6,4,Hepa1-6_4.2_GV009_31.25mpk
E2047,E2047,GV,309,ONC-2020-013,Hepa1-6 4.2,Vehicle,0mpk,Female,2020/4/21,4,C57BL/6,2,Hepa1-6_4.2_Vehicle_0mpk
E2048,E2048,GV,702,ONC-2020-013,Hepa1-6 4.2,Vehicle,0mpk,Female,2020/4/21,4,C57BL/6,2,Hepa1-6_4.2_Vehicle_0mpk
E2049,E2049,GV,0,ONC-2020-013,Hepa1-6 4.2,Vehicle,0mpk,Female,2020/4/21,4,C57BL/6,2,Hepa1-6_4.2_Vehicle_0mpk
E2051,E2051,GV,1618,ONC-2020-013,Hepa1-6 4.2,GV009,125mpk,Female,2020/4/21,4,C57BL/6,5,Hepa1-6_4.2_GV009_125mpk
E2052,E2052,GV,3557,ONC-2020-013,Hepa1-6 4.2,GV009,125mpk,Female,2020/4/21,4,C57BL/6,5,Hepa1-6_4.2_GV009_125mpk
E2053,E2053,GV,489,ONC-2020-013,Hepa1-6 4.2,GV009,125mpk,Female,2020/4/21,4,C57BL/6,5,Hepa1-6_4.2_GV009_125mpk
E2054,E2054,GV,2356,ONC-2020-013,Hepa1-6 4.2,GV009,125mpk,Female,2020/4/21,4,C57BL/6,5,Hepa1-6_4.2_GV009_125mpk
E2055,E2055,GV,988,ONC-2020-013,Hepa1-6 4.2,GV009,125mpk,Female,2020/4/21,4,C57BL/6,6,Hepa1-6_4.2_GV009_125mpk
E2056,E2056,GV,22,ONC-2020-013,Hepa1-6 4.2,GV009,125mpk,Female,2020/4/21,4,C57BL/6,6,Hepa1-6_4.2_GV009_125mpk
E2057,E2057,GV,624,ONC-2020-013,Hepa1-6 4.2,GV009,125mpk,Female,2020/4/21,4,C57BL/6,6,Hepa1-6_4.2_GV009_125mpk
E2058,E2058,GV,0,ONC-2020-013,Hepa1-6 4.2,GV009,125mpk,Female,2020/4/21,4,C57BL/6,6,Hepa1-6_4.2_GV009_125mpk
E2059,E2059,GV,1314,ONC-2020-013,Hepa1-6 4.2,GV009,500mpk,Female,2020/4/21,4,C57BL/6,8,Hepa1-6_4.2_GV009_500mpk
E2061,E2061,GV,1618,ONC-2020-013,Hepa1-6 4.2,GV009,500mpk,Female,2020/4/21,4,C57BL/6,8,Hepa1-6_4.2_GV009_500mpk
E2062,E2062,GV,808,ONC-2020-013,Hepa1-6 4.2,GV009,500mpk,Female,2020/4/21,4,C57BL/6,8,Hepa1-6_4.2_GV009_500mpk
N4061,#N/A,GV,2020,ONC-2020-004,MC38OVA,Vehicle,0mpk,Male,2020/3/17,9,OT1,1,MC38OVA_Vehicle_0mpk
N4062,#N/A,GV,797,ONC-2020-004,MC38OVA,Vehicle,0mpk,Male,2020/3/17,9,OT1,1,MC38OVA_Vehicle_0mpk
N4063,N4063,GV,1157,ONC-2020-010,MC38(OVA),Vehicle,0mpk,Female,2020/4/13,4,C57BL/6,2,MC38(OVA)_Vechicle_0mpk
N4064,#N/A,GV,3193,ONC-2020-004,MC38OVA,Vehicle,0mpk,Male,2020/3/17,9,OT1,2,MC38OVA_Vehicle_0mpk
N4065,#N/A,GV,518,ONC-2020-004,MC38OVA,Vehicle,0mpk,Male,2020/3/17,9,OT1,2,MC38OVA_Vehicle_0mpk
N4072,#N/A,GV,228,ONC-2020-004,MC38OVA,GV009,31.25mpk,Male,2020/3/17,9,OT1,7,MC38OVA_GV009_31.25mpk
N4073,#N/A,GV,238,ONC-2020-004,MC38OVA,GV009,31.25mpk,Male,2020/3/17,9,OT1,7,MC38OVA_GV009_31.25mpk
N4074,#N/A,GV,640,ONC-2020-004,MC38OVA,GV009,31.25mpk,Male,2020/3/17,9,OT1,7,MC38OVA_GV009_31.25mpk
N4093,N4093,GV,1115,ONC-2020-010,MC38(OVA),Vehicle,0mpk,Female,2020/4/13,4,C57BL/6,1,MC38(OVA)_Vechicle_0mpk
N4094,N4094,GV,914,ONC-2020-010,MC38(OVA),Vehicle,0mpk,Female,2020/4/13,4,C57BL/6,1,MC38(OVA)_Vechicle_0mpk
N4097,N4097,GV,586,ONC-2020-010,MC38(OVA),GV009,31.25mpk,Female,2020/4/13,4,C57BL/6,7,MC38(OVA)_GV009_31.25mpk
N4098,N4098,GV,483,ONC-2020-010,MC38(OVA),GV009,31.25mpk,Female,2020/4/13,4,C57BL/6,7,MC38(OVA)_GV009_31.25mpk
N4099,N4099,GV,703,ONC-2020-010,MC38(OVA),GV009,31.25mpk,Female,2020/4/13,4,C57BL/6,7,MC38(OVA)_GV009_31.25mpk
N4100,N4100,GV,477,ONC-2020-010,MC38(OVA),GV009,31.25mpk,Female,2020/4/13,4,C57BL/6,7,MC38(OVA)_GV009_31.25mpk
N4304,#N/A,GV,1096,ONC-2020-004,MC38OVA,Vehicle,0mpk,Male,2020/3/17,9,OT1,3,MC38OVA_Vehicle_0mpk
N4305,#N/A,GV,405,ONC-2020-004,MC38OVA,Vehicle,0mpk,Male,2020/3/17,9,OT1,3,MC38OVA_Vehicle_0mpk
N4314,#N/A,GV,717,ONC-2020-004,MC38OVA,GV009,31.25mpk,Male,2020/3/17,9,OT1,5,MC38OVA_GV009_31.25mpk
N4315,#N/A,GV,2087,ONC-2020-004,MC38OVA,GV009,31.25mpk,Male,2020/3/17,9,OT1,5,MC38OVA_GV009_31.25mpk
N4316,#N/A,GV,465,ONC-2020-004,MC38OVA,GV009,31.25mpk,Male,2020/3/17,9,OT1,5,MC38OVA_GV009_31.25mpk
N4324,#N/A,GV,167,ONC-2020-004,MC38OVA,GV009,31.25mpk,Male,2020/3/17,9,OT1,6,MC38OVA_GV009_31.25mpk
N4325,#N/A,GV,1058,ONC-2020-004,MC38OVA,GV009,31.25mpk,Male,2020/3/17,9,OT1,6,MC38OVA_GV009_31.25mpk
N4326,N4326,GV,497,ONC-2020-010,MC38(OVA),Vehicle,0mpk,Female,2020/4/13,4,C57BL/6,3,MC38(OVA)_Vechicle_0mpk
N4327,N4327,GV,803,ONC-2020-010,MC38(OVA),Vehicle,0mpk,Female,2020/4/13,4,C57BL/6,3,MC38(OVA)_Vechicle_0mpk
N4328,N4328,GV,2332,ONC-2020-010,MC38(OVA),Vehicle,0mpk,Female,2020/4/13,4,C57BL/6,3,MC38(OVA)_Vechicle_0mpk
N4329,N4329,GV,504,ONC-2020-010,MC38(OVA),Vehicle,0mpk,Female,2020/4/13,4,C57BL/6,3,MC38(OVA)_Vechicle_0mpk
N4331,N4331,GV,1407,ONC-2020-010,MC38(OVA),Vehicle,0mpk,Female,2020/4/13,4,C57BL/6,4,MC38(OVA)_Vechicle_0mpk
N4334,N4334,GV,560,ONC-2020-010,MC38(OVA),GV009,31.25mpk,Female,2020/4/13,4,C57BL/6,8,MC38(OVA)_GV009_31.25mpk
N4335,N4335,GV,969,ONC-2020-010,MC38(OVA),GV009,31.25mpk,Female,2020/4/13,4,C57BL/6,8,MC38(OVA)_GV009_31.25mpk
N4336,N4336,GV,707,ONC-2020-010,MC38(OVA),GV009,31.25mpk,Female,2020/4/13,4,C57BL/6,8,MC38(OVA)_GV009_31.25mpk
N4337,N4337,GV,696,ONC-2020-010,MC38(OVA),GV009,31.25mpk,Female,2020/4/13,4,C57BL/6,8,MC38(OVA)_GV009_31.25mpk
E391,#N/A,Meiji,1095.4624,ONC-2019-GL-008,SP20,GV009,250mpk,Female,2019/8/26,5,BALB/c,10,SP20_GV009_250mpk
E392,#N/A,Meiji,2002.785028,ONC-2019-GL-008,SP20,GV009,250mpk,Female,2019/8/26,5,BALB/c,10,SP20_GV009_250mpk
E393,#N/A,Meiji,270.402482,ONC-2019-GL-008,SP20,GV009,250mpk,Female,2019/8/26,5,BALB/c,10,SP20_GV009_250mpk
E394,#N/A,Meiji,95.530013,ONC-2019-GL-008,SP20,GV009,250mpk,Female,2019/8/26,5,BALB/c,10,SP20_GV009_250mpk
E395,#N/A,Meiji,3146.824804,ONC-2019-GL-008,SP20,GV009,250mpk,Female,2019/8/26,5,BALB/c,10,SP20_GV009_250mpk
E396,#N/A,Meiji,157.844141,ONC-2019-GL-008,SP20,GV009,125mpk,Female,2019/8/26,5,BALB/c,8,SP20_GV009_125mpk
E397,#N/A,Meiji,0,ONC-2019-GL-008,SP20,GV009,125mpk,Female,2019/8/26,5,BALB/c,8,SP20_GV009_125mpk
E398,#N/A,Meiji,2462.495,ONC-2019-GL-008,SP20,GV009,125mpk,Female,2019/8/26,5,BALB/c,8,SP20_GV009_125mpk
E399,#N/A,Meiji,898.113014,ONC-2019-GL-008,SP20,GV009,125mpk,Female,2019/8/26,5,BALB/c,8,SP20_GV009_125mpk
E400,#N/A,Meiji,1080.46875,ONC-2019-GL-008,SP20,GV009,125mpk,Female,2019/8/26,5,BALB/c,8,SP20_GV009_125mpk
E461,#N/A,Meiji,55.85112,ONC-2019-GL-008,SP20,GV009,250mpk,Female,2019/8/26,5,BALB/c,9,SP20_GV009_250mpk
E462,#N/A,Meiji,0,ONC-2019-GL-008,SP20,GV009,250mpk,Female,2019/8/26,5,BALB/c,9,SP20_GV009_250mpk
E463,#N/A,Meiji,288.141216,ONC-2019-GL-008,SP20,GV009,250mpk,Female,2019/8/26,5,BALB/c,9,SP20_GV009_250mpk
E464,#N/A,Meiji,180.65135,ONC-2019-GL-008,SP20,GV009,250mpk,Female,2019/8/26,5,BALB/c,9,SP20_GV009_250mpk
E465,#N/A,Meiji,1655.0742305,ONC-2019-GL-008,SP20,GV009,250mpk,Female,2019/8/26,5,BALB/c,9,SP20_GV009_250mpk
E466,#N/A,Meiji,1581.464184,ONC-2019-GL-008,SP20,GV009,62.5mpk,Female,2019/8/26,5,BALB/c,5,SP20_GV009_62.5mpk
E467,#N/A,Meiji,341.170218,ONC-2019-GL-008,SP20,GV009,62.5mpk,Female,2019/8/26,5,BALB/c,5,SP20_GV009_62.5mpk
E468,#N/A,Meiji,320.4885625,ONC-2019-GL-008,SP20,GV009,62.5mpk,Female,2019/8/26,5,BALB/c,5,SP20_GV009_62.5mpk
E469,#N/A,Meiji,1410.8672,ONC-2019-GL-008,SP20,GV009,62.5mpk,Female,2019/8/26,5,BALB/c,5,SP20_GV009_62.5mpk
E470,#N/A,Meiji,464.965748,ONC-2019-GL-008,SP20,GV009,62.5mpk,Female,2019/8/26,5,BALB/c,5,SP20_GV009_62.5mpk
E476,#N/A,Meiji,1233.193018,ONC-2019-GL-008,SP20,Vehicle,0mpk,Female,2019/8/26,5,BALB/c,1,SP20_Vehicle_0mpk
E477,#N/A,Meiji,2055.0104375,ONC-2019-GL-008,SP20,Vehicle,0mpk,Female,2019/8/26,5,BALB/c,1,SP20_Vehicle_0mpk
E478,#N/A,Meiji,1143.589756,ONC-2019-GL-008,SP20,Vehicle,0mpk,Female,2019/8/26,5,BALB/c,1,SP20_Vehicle_0mpk
E479,#N/A,Meiji,2182.200236,ONC-2019-GL-008,SP20,Vehicle,0mpk,Female,2019/8/26,5,BALB/c,1,SP20_Vehicle_0mpk
E480,#N/A,Meiji,1190.7266985,ONC-2019-GL-008,SP20,Vehicle,0mpk,Female,2019/8/26,5,BALB/c,1,SP20_Vehicle_0mpk
E481,#N/A,Meiji,2662.13217,ONC-2019-GL-008,SP20,GV009,500mpk,Female,2019/8/26,5,BALB/c,11,SP20_GV009_500mpk
E482,#N/A,Meiji,4908.2366835,ONC-2019-GL-008,SP20,GV009,500mpk,Female,2019/8/26,5,BALB/c,11,SP20_GV009_500mpk
E483,#N/A,Meiji,2214.091232,ONC-2019-GL-008,SP20,GV009,500mpk,Female,2019/8/26,5,BALB/c,11,SP20_GV009_500mpk
E484,#N/A,Meiji,1921.809853,ONC-2019-GL-008,SP20,GV009,500mpk,Female,2019/8/26,5,BALB/c,11,SP20_GV009_500mpk
E485,#N/A,Meiji,1285.2334,ONC-2019-GL-008,SP20,GV009,500mpk,Female,2019/8/26,5,BALB/c,11,SP20_GV009_500mpk
E486,#N/A,Meiji,1359.6232215,ONC-2019-GL-008,SP20,GV009,125mpk,Female,2019/8/26,5,BALB/c,7,SP20_GV009_125mpk
E487,#N/A,Meiji,1013.422325,ONC-2019-GL-008,SP20,GV009,125mpk,Female,2019/8/26,5,BALB/c,7,SP20_GV009_125mpk
E488,#N/A,Meiji,3009.674664,ONC-2019-GL-008,SP20,GV009,125mpk,Female,2019/8/26,5,BALB/c,7,SP20_GV009_125mpk
E489,#N/A,Meiji,1389.18,ONC-2019-GL-008,SP20,GV009,125mpk,Female,2019/8/26,5,BALB/c,7,SP20_GV009_125mpk
E490,#N/A,Meiji,862.951968,ONC-2019-GL-008,SP20,GV009,125mpk,Female,2019/8/26,5,BALB/c,7,SP20_GV009_125mpk
E491,#N/A,Meiji,1260.318514,ONC-2019-GL-008,SP20,GV009,31.25mpk,Female,2019/8/26,5,BALB/c,4,SP20_GV009_31.25mpk
E492,#N/A,Meiji,1440.56718,ONC-2019-GL-008,SP20,GV009,31.25mpk,Female,2019/8/26,5,BALB/c,4,SP20_GV009_31.25mpk
E493,#N/A,Meiji,3518.6466375,ONC-2019-GL-008,SP20,GV009,31.25mpk,Female,2019/8/26,5,BALB/c,4,SP20_GV009_31.25mpk
E494,#N/A,Meiji,371.1530125,ONC-2019-GL-008,SP20,GV009,31.25mpk,Female,2019/8/26,5,BALB/c,4,SP20_GV009_31.25mpk
E495,#N/A,Meiji,5638.5708005,ONC-2019-GL-008,SP20,GV009,31.25mpk,Female,2019/8/26,5,BALB/c,4,SP20_GV009_31.25mpk
E496,#N/A,Meiji,2152.9911,ONC-2019-GL-008,SP20,GV009,62.5mpk,Female,2019/8/26,5,BALB/c,6,SP20_GV009_62.5mpk
E497,#N/A,Meiji,0,ONC-2019-GL-008,SP20,GV009,62.5mpk,Female,2019/8/26,5,BALB/c,6,SP20_GV009_62.5mpk
E498,#N/A,Meiji,1249.2985715,ONC-2019-GL-008,SP20,GV009,62.5mpk,Female,2019/8/26,5,BALB/c,6,SP20_GV009_62.5mpk
E499,#N/A,Meiji,157.329596,ONC-2019-GL-008,SP20,GV009,62.5mpk,Female,2019/8/26,5,BALB/c,6,SP20_GV009_62.5mpk
E501,#N/A,Meiji,4720.0360395,ONC-2019-GL-008,SP20,GV009,500mpk,Female,2019/8/26,5,BALB/c,12,SP20_GV009_500mpk
E502,#N/A,Meiji,1472.96548,ONC-2019-GL-008,SP20,GV009,500mpk,Female,2019/8/26,5,BALB/c,12,SP20_GV009_500mpk
E503,#N/A,Meiji,10062.2088,ONC-2019-GL-008,SP20,GV009,500mpk,Female,2019/8/26,5,BALB/c,12,SP20_GV009_500mpk
E504,#N/A,Meiji,0,ONC-2019-GL-008,SP20,GV009,500mpk,Female,2019/8/26,5,BALB/c,12,SP20_GV009_500mpk
E505,#N/A,Meiji,833.9431925,ONC-2019-GL-008,SP20,GV009,500mpk,Female,2019/8/26,5,BALB/c,12,SP20_GV009_500mpk
E506,#N/A,Meiji,2793.520125,ONC-2019-GL-008,SP20,Vehicle,0mpk,Female,2019/8/26,5,BALB/c,2,SP20_Vehicle_0mpk
E507,#N/A,Meiji,1896.606528,ONC-2019-GL-008,SP20,Vehicle,0mpk,Female,2019/8/26,5,BALB/c,2,SP20_Vehicle_0mpk
E508,#N/A,Meiji,1572.067144,ONC-2019-GL-008,SP20,Vehicle,0mpk,Female,2019/8/26,5,BALB/c,2,SP20_Vehicle_0mpk
E509,#N/A,Meiji,2604.774936,ONC-2019-GL-008,SP20,Vehicle,0mpk,Female,2019/8/26,5,BALB/c,2,SP20_Vehicle_0mpk
E510,#N/A,Meiji,1707.59512,ONC-2019-GL-008,SP20,Vehicle,0mpk,Female,2019/8/26,5,BALB/c,2,SP20_Vehicle_0mpk
E511,#N/A,Meiji,1161.875,ONC-2019-GL-008,SP20,GV009,31.25mpk,Female,2019/8/26,5,BALB/c,3,SP20_GV009_31.25mpk
E512,#N/A,Meiji,2585.61975,ONC-2019-GL-008,SP20,GV009,31.25mpk,Female,2019/8/26,5,BALB/c,3,SP20_GV009_31.25mpk
E513,#N/A,Meiji,307.7512,ONC-2019-GL-008,SP20,GV009,31.25mpk,Female,2019/8/26,5,BALB/c,3,SP20_GV009_31.25mpk
E514,#N/A,Meiji,913.578007,ONC-2019-GL-008,SP20,GV009,31.25mpk,Female,2019/8/26,5,BALB/c,3,SP20_GV009_31.25mpk
E515,#N/A,Meiji,3481.181307,ONC-2019-GL-008,SP20,GV009,31.25mpk,Female,2019/8/26,5,BALB/c,3,SP20_GV009_31.25mpk
E525,#N/A,Meiji,3430.718712,ONC-2019-GL-008,SP20,GV009,62.5mpk,Female,2019/8/26,5,BALB/c,6,SP20_GV009_62.5mpk
14156,#N/A,Meiji,1653,ONC-2019-LZ-009,MMTV,GV007,125mpk,Female,2019/6/12,5,FVB,3,MMTV_GV007_125mpk
14157,#N/A,Meiji,194,ONC-2019-LZ-009,MMTV,GV007,125mpk,Female,2019/6/12,5,FVB,3,MMTV_GV007_125mpk
14158,#N/A,Meiji,1518,ONC-2019-LZ-009,MMTV,GV007,125mpk,Female,2019/6/12,5,FVB,3,MMTV_GV007_125mpk
14159,#N/A,Meiji,862,ONC-2019-LZ-009,MMTV,GV007,125mpk,Female,2019/6/12,5,FVB,3,MMTV_GV007_125mpk
14160,#N/A,Meiji,795,ONC-2019-LZ-009,MMTV,GV007,125mpk,Female,2019/6/12,5,FVB,3,MMTV_GV007_125mpk
14161,#N/A,Meiji,732,ONC-2019-LZ-009,MMTV,Vehicle,0mpk,Female,2019/6/12,5,FVB,1,MMTV_Vehicle_0mpk
14162,#N/A,Meiji,1035,ONC-2019-LZ-009,MMTV,Vehicle,0mpk,Female,2019/6/12,5,FVB,1,MMTV_Vehicle_0mpk
14163,#N/A,Meiji,1629,ONC-2019-LZ-009,MMTV,Vehicle,0mpk,Female,2019/6/12,5,FVB,1,MMTV_Vehicle_0mpk
14164,#N/A,Meiji,2694,ONC-2019-LZ-009,MMTV,Vehicle,0mpk,Female,2019/6/12,5,FVB,1,MMTV_Vehicle_0mpk
14165,#N/A,Meiji,3334,ONC-2019-LZ-009,MMTV,Vehicle,0mpk,Female,2019/6/12,5,FVB,1,MMTV_Vehicle_0mpk
14251,#N/A,Meiji,1033,ONC-2019-LZ-009,MMTV,GV009,125mpk,Female,2019/6/12,5,FVB,8,MMTV_GV009_125mpk
14252,#N/A,Meiji,575,ONC-2019-LZ-009,MMTV,GV009,125mpk,Female,2019/6/12,5,FVB,8,MMTV_GV009_125mpk
14253,#N/A,Meiji,723,ONC-2019-LZ-009,MMTV,GV009,125mpk,Female,2019/6/12,5,FVB,8,MMTV_GV009_125mpk
14254,#N/A,Meiji,428,ONC-2019-LZ-009,MMTV,GV009,125mpk,Female,2019/6/12,5,FVB,8,MMTV_GV009_125mpk
14255,#N/A,Meiji,515,ONC-2019-LZ-009,MMTV,GV009,125mpk,Female,2019/6/12,5,FVB,8,MMTV_GV009_125mpk
14266,#N/A,Meiji,1073,ONC-2019-LZ-009,MMTV,GV007,125mpk,Female,2019/6/12,5,FVB,4,MMTV_GV007_125mpk
14267,#N/A,Meiji,1157,ONC-2019-LZ-009,MMTV,GV007,125mpk,Female,2019/6/12,5,FVB,4,MMTV_GV007_125mpk
14268,#N/A,Meiji,1353,ONC-2019-LZ-009,MMTV,GV007,125mpk,Female,2019/6/12,5,FVB,4,MMTV_GV007_125mpk
14269,#N/A,Meiji,713,ONC-2019-LZ-009,MMTV,GV007,125mpk,Female,2019/6/12,5,FVB,4,MMTV_GV007_125mpk
14270,#N/A,Meiji,3499,ONC-2019-LZ-009,MMTV,GV007,125mpk,Female,2019/6/12,5,FVB,4,MMTV_GV007_125mpk
14336,#N/A,Meiji,459,ONC-2019-LZ-009,MMTV,GV009,125mpk,Female,2019/6/12,5,FVB,7,MMTV_GV009_125mpk
14337,#N/A,Meiji,1348,ONC-2019-LZ-009,MMTV,GV009,125mpk,Female,2019/6/12,5,FVB,7,MMTV_GV009_125mpk
14338,#N/A,Meiji,405,ONC-2019-LZ-009,MMTV,GV009,125mpk,Female,2019/6/12,5,FVB,7,MMTV_GV009_125mpk
14339,#N/A,Meiji,435,ONC-2019-LZ-009,MMTV,GV009,125mpk,Female,2019/6/12,5,FVB,7,MMTV_GV009_125mpk
14340,#N/A,Meiji,875,ONC-2019-LZ-009,MMTV,GV009,125mpk,Female,2019/6/12,5,FVB,7,MMTV_GV009_125mpk
14346,#N/A,Meiji,748,ONC-2019-LZ-009,MMTV,Vehicle,0mpk,Female,2019/6/12,5,FVB,2,MMTV_Vehicle_0mpk
14347,#N/A,Meiji,1175,ONC-2019-LZ-009,MMTV,Vehicle,0mpk,Female,2019/6/12,5,FVB,2,MMTV_Vehicle_0mpk
14348,#N/A,Meiji,372,ONC-2019-LZ-009,MMTV,Vehicle,0mpk,Female,2019/6/12,5,FVB,2,MMTV_Vehicle_0mpk
14349,#N/A,Meiji,691,ONC-2019-LZ-009,MMTV,Vehicle,0mpk,Female,2019/6/12,5,FVB,2,MMTV_Vehicle_0mpk
14350,#N/A,Meiji,222,ONC-2019-LZ-009,MMTV,Vehicle,0mpk,Female,2019/6/12,5,FVB,2,MMTV_Vehicle_0mpk
14131,#N/A,Meiji,430,ONC-2019-LZ-010,SP20,GV009,1000mpk,Female,2019/6/12,4,BALB/c,12,SP20_GV009_1000mpk
14132,#N/A,Meiji,1805,ONC-2019-LZ-010,SP20,GV009,1000mpk,Female,2019/6/12,4,BALB/c,12,SP20_GV009_1000mpk
14133,#N/A,Meiji,569,ONC-2019-LZ-010,SP20,GV009,1000mpk,Female,2019/6/12,4,BALB/c,12,SP20_GV009_1000mpk
14134,#N/A,Meiji,3773,ONC-2019-LZ-010,SP20,GV009,1000mpk,Female,2019/6/12,4,BALB/c,12,SP20_GV009_1000mpk
14135,#N/A,Meiji,2606,ONC-2019-LZ-010,SP20,GV009,1000mpk,Female,2019/6/12,4,BALB/c,12,SP20_GV009_1000mpk
14136,#N/A,Meiji,584,ONC-2019-LZ-010,SP20,GV009,1000mpk,Female,2019/6/12,4,BALB/c,11,SP20_GV009_1000mpk
14137,#N/A,Meiji,2760,ONC-2019-LZ-010,SP20,GV009,1000mpk,Female,2019/6/12,4,BALB/c,11,SP20_GV009_1000mpk
14138,#N/A,Meiji,2553,ONC-2019-LZ-010,SP20,GV009,1000mpk,Female,2019/6/12,4,BALB/c,11,SP20_GV009_1000mpk
14139,#N/A,Meiji,1772,ONC-2019-LZ-010,SP20,GV009,1000mpk,Female,2019/6/12,4,BALB/c,11,SP20_GV009_1000mpk
14140,#N/A,Meiji,1638,ONC-2019-LZ-010,SP20,GV009,1000mpk,Female,2019/6/12,4,BALB/c,11,SP20_GV009_1000mpk
14226,#N/A,Meiji,853,ONC-2019-LZ-010,SP20,GV009,125mpk,Female,2019/6/12,4,BALB/c,8,SP20_GV009_125mpk
14227,#N/A,Meiji,1695,ONC-2019-LZ-010,SP20,GV009,125mpk,Female,2019/6/12,4,BALB/c,8,SP20_GV009_125mpk
14228,#N/A,Meiji,191,ONC-2019-LZ-010,SP20,GV009,125mpk,Female,2019/6/12,4,BALB/c,8,SP20_GV009_125mpk
14229,#N/A,Meiji,151,ONC-2019-LZ-010,SP20,GV009,125mpk,Female,2019/6/12,4,BALB/c,8,SP20_GV009_125mpk
14230,#N/A,Meiji,1394,ONC-2019-LZ-010,SP20,GV009,125mpk,Female,2019/6/12,4,BALB/c,8,SP20_GV009_125mpk
14231,#N/A,Meiji,1361,ONC-2019-LZ-010,SP20,GV009,125mpk,Female,2019/6/12,4,BALB/c,7,SP20_GV009_125mpk
14232,#N/A,Meiji,1693,ONC-2019-LZ-010,SP20,GV009,125mpk,Female,2019/6/12,4,BALB/c,7,SP20_GV009_125mpk
14233,#N/A,Meiji,1618,ONC-2019-LZ-010,SP20,GV009,125mpk,Female,2019/6/12,4,BALB/c,7,SP20_GV009_125mpk
14234,#N/A,Meiji,291,ONC-2019-LZ-010,SP20,GV009,125mpk,Female,2019/6/12,4,BALB/c,7,SP20_GV009_125mpk
14235,#N/A,Meiji,523,ONC-2019-LZ-010,SP20,GV009,125mpk,Female,2019/6/12,4,BALB/c,7,SP20_GV009_125mpk
14236,#N/A,Meiji,2884,ONC-2019-LZ-010,SP20,GV007,125mpk,Female,2019/6/12,4,BALB/c,4,SP20_GV007_125mpk
14237,#N/A,Meiji,548,ONC-2019-LZ-010,SP20,GV007,125mpk,Female,2019/6/12,4,BALB/c,4,SP20_GV007_125mpk
14238,#N/A,Meiji,370,ONC-2019-LZ-010,SP20,GV007,125mpk,Female,2019/6/12,4,BALB/c,4,SP20_GV007_125mpk
14239,#N/A,Meiji,131,ONC-2019-LZ-010,SP20,GV007,125mpk,Female,2019/6/12,4,BALB/c,4,SP20_GV007_125mpk
14240,#N/A,Meiji,2648,ONC-2019-LZ-010,SP20,GV007,125mpk,Female,2019/6/12,4,BALB/c,4,SP20_GV007_125mpk
14241,#N/A,Meiji,642,ONC-2019-LZ-010,SP20,GV007,125mpk,Female,2019/6/12,4,BALB/c,3,SP20_GV007_125mpk
14242,#N/A,Meiji,29,ONC-2019-LZ-010,SP20,GV007,125mpk,Female,2019/6/12,4,BALB/c,3,SP20_GV007_125mpk
14243,#N/A,Meiji,334,ONC-2019-LZ-010,SP20,GV007,125mpk,Female,2019/6/12,4,BALB/c,3,SP20_GV007_125mpk
14244,#N/A,Meiji,277,ONC-2019-LZ-010,SP20,GV007,125mpk,Female,2019/6/12,4,BALB/c,3,SP20_GV007_125mpk
14245,#N/A,Meiji,952,ONC-2019-LZ-010,SP20,GV007,125mpk,Female,2019/6/12,4,BALB/c,3,SP20_GV007_125mpk
14356,#N/A,Meiji,623,ONC-2019-LZ-010,SP20,Vehicle,0mpk,Female,2019/6/12,4,BALB/c,2,SP20_Vehicle_0mpk
14357,#N/A,Meiji,401,ONC-2019-LZ-010,SP20,Vehicle,0mpk,Female,2019/6/12,4,BALB/c,2,SP20_Vehicle_0mpk
14358,#N/A,Meiji,978,ONC-2019-LZ-010,SP20,Vehicle,0mpk,Female,2019/6/12,4,BALB/c,2,SP20_Vehicle_0mpk
14359,#N/A,Meiji,266,ONC-2019-LZ-010,SP20,Vehicle,0mpk,Female,2019/6/12,4,BALB/c,2,SP20_Vehicle_0mpk
14360,#N/A,Meiji,60,ONC-2019-LZ-010,SP20,Vehicle,0mpk,Female,2019/6/12,4,BALB/c,2,SP20_Vehicle_0mpk
14361,#N/A,Meiji,0,ONC-2019-LZ-010,SP20,Vehicle,0mpk,Female,2019/6/12,4,BALB/c,1,SP20_Vehicle_0mpk
14362,#N/A,Meiji,2450,ONC-2019-LZ-010,SP20,Vehicle,0mpk,Female,2019/6/12,4,BALB/c,1,SP20_Vehicle_0mpk
14363,#N/A,Meiji,934,ONC-2019-LZ-010,SP20,Vehicle,0mpk,Female,2019/6/12,4,BALB/c,1,SP20_Vehicle_0mpk
14364,#N/A,Meiji,5988,ONC-2019-LZ-010,SP20,Vehicle,0mpk,Female,2019/6/12,4,BALB/c,1,SP20_Vehicle_0mpk
14365,#N/A,Meiji,1600,ONC-2019-LZ-010,SP20,Vehicle,0mpk,Female,2019/6/12,4,BALB/c,1,SP20_Vehicle_0mpk
15600,#N/A,Meiji,1.37,ONC-2019-LZ-023,Hepa1_6_4_2,Vehicle,0mpk,Female,2019/9/19,5,C57BL/6,2,Hepa1_6_4_2_Vehicle_0mpk
15601,#N/A,Meiji,0.55,ONC-2019-LZ-023,Hepa1_6_4_2,Vehicle,0mpk,Female,2019/9/19,5,C57BL/6,2,Hepa1_6_4_2_Vehicle_0mpk
15602,#N/A,Meiji,3.72,ONC-2019-LZ-023,Hepa1_6_4_2,Vehicle,0mpk,Female,2019/9/19,5,C57BL/6,2,Hepa1_6_4_2_Vehicle_0mpk
15603,#N/A,Meiji,3.95,ONC-2019-LZ-023,Hepa1_6_4_2,Vehicle,0mpk,Female,2019/9/19,5,C57BL/6,2,Hepa1_6_4_2_Vehicle_0mpk
15604,#N/A,Meiji,0.92,ONC-2019-LZ-023,Hepa1_6_4_2,Vehicle,0mpk,Female,2019/9/19,5,C57BL/6,2,Hepa1_6_4_2_Vehicle_0mpk
15605,#N/A,Meiji,2.88,ONC-2019-LZ-023,Hepa1_6_4_2,Vehicle,0mpk,Female,2019/9/19,5,C57BL/6,1,Hepa1_6_4_2_Vehicle_0mpk
15606,#N/A,Meiji,0,ONC-2019-LZ-023,Hepa1_6_4_2,Vehicle,0mpk,Female,2019/9/19,5,C57BL/6,1,Hepa1_6_4_2_Vehicle_0mpk
15607,#N/A,Meiji,3.08,ONC-2019-LZ-023,Hepa1_6_4_2,Vehicle,0mpk,Female,2019/9/19,5,C57BL/6,1,Hepa1_6_4_2_Vehicle_0mpk
15608,#N/A,Meiji,1.31,ONC-2019-LZ-023,Hepa1_6_4_2,Vehicle,0mpk,Female,2019/9/19,5,C57BL/6,1,Hepa1_6_4_2_Vehicle_0mpk
15609,#N/A,Meiji,0,ONC-2019-LZ-023,Hepa1_6_4_2,GV007,31.25mpk,Female,2019/9/19,5,C57BL/6,3,Hepa1_6_4_2_GV007_31.25mpk
15610,#N/A,Meiji,0.38,ONC-2019-LZ-023,Hepa1_6_4_2,GV009,31.25mpk,Female,2019/9/19,5,C57BL/6,9,Hepa1_6_4_2_GV009_31.25mpk
15611,#N/A,Meiji,2.73,ONC-2019-LZ-023,Hepa1_6_4_2,GV007,31.25mpk,Female,2019/9/19,5,C57BL/6,3,Hepa1_6_4_2_GV007_31.25mpk
15612,#N/A,Meiji,1.12,ONC-2019-LZ-023,Hepa1_6_4_2,GV007,31.25mpk,Female,2019/9/19,5,C57BL/6,3,Hepa1_6_4_2_GV007_31.25mpk
15613,#N/A,Meiji,2.04,ONC-2019-LZ-023,Hepa1_6_4_2,GV007,31.25mpk,Female,2019/9/19,5,C57BL/6,3,Hepa1_6_4_2_GV007_31.25mpk
15614,#N/A,Meiji,0.97,ONC-2019-LZ-023,Hepa1_6_4_2,GV007,31.25mpk,Female,2019/9/19,5,C57BL/6,3,Hepa1_6_4_2_GV007_31.25mpk
15616,#N/A,Meiji,0,ONC-2019-LZ-023,Hepa1_6_4_2,GV007,31.25mpk,Female,2019/9/19,5,C57BL/6,4,Hepa1_6_4_2_GV007_31.25mpk
15617,#N/A,Meiji,1.28,ONC-2019-LZ-023,Hepa1_6_4_2,GV007,31.25mpk,Female,2019/9/19,5,C57BL/6,4,Hepa1_6_4_2_GV007_31.25mpk
15618,#N/A,Meiji,1.1,ONC-2019-LZ-023,Hepa1_6_4_2,GV007,125mpk,Female,2019/9/19,5,C57BL/6,6,Hepa1_6_4_2_GV007_125mpk
15619,#N/A,Meiji,0.97,ONC-2019-LZ-023,Hepa1_6_4_2,GV007,125mpk,Female,2019/9/19,5,C57BL/6,6,Hepa1_6_4_2_GV007_125mpk
15620,#N/A,Meiji,1.11,ONC-2019-LZ-023,Hepa1_6_4_2,GV007,125mpk,Female,2019/9/19,5,C57BL/6,6,Hepa1_6_4_2_GV007_125mpk
15621,#N/A,Meiji,0.88,ONC-2019-LZ-023,Hepa1_6_4_2,GV007,125mpk,Female,2019/9/19,5,C57BL/6,6,Hepa1_6_4_2_GV007_125mpk
15623,#N/A,Meiji,1.28,ONC-2019-LZ-023,Hepa1_6_4_2,GV007,125mpk,Female,2019/9/19,5,C57BL/6,5,Hepa1_6_4_2_GV007_125mpk
15624,#N/A,Meiji,0.94,ONC-2019-LZ-023,Hepa1_6_4_2,GV007,125mpk,Female,2019/9/19,5,C57BL/6,5,Hepa1_6_4_2_GV007_125mpk
15625,#N/A,Meiji,0.54,ONC-2019-LZ-023,Hepa1_6_4_2,GV007,125mpk,Female,2019/9/19,5,C57BL/6,5,Hepa1_6_4_2_GV007_125mpk
15626,#N/A,Meiji,1.44,ONC-2019-LZ-023,Hepa1_6_4_2,GV007,125mpk,Female,2019/9/19,5,C57BL/6,5,Hepa1_6_4_2_GV007_125mpk
15627,#N/A,Meiji,0,ONC-2019-LZ-023,Hepa1_6_4_2,GV007,500mpk,Female,2019/9/19,5,C57BL/6,8,Hepa1_6_4_2_GV007_500mpk
15628,#N/A,Meiji,1.71,ONC-2019-LZ-023,Hepa1_6_4_2,GV007,500mpk,Female,2019/9/19,5,C57BL/6,8,Hepa1_6_4_2_GV007_500mpk
15629,#N/A,Meiji,0,ONC-2019-LZ-023,Hepa1_6_4_2,GV971,100mpk,Female,2019/9/19,5,C57BL/6,21,Hepa1_6_4_2_GV971_100mpk
15630,#N/A,Meiji,2.81,ONC-2019-LZ-023,Hepa1_6_4_2,GV007,500mpk,Female,2019/9/19,5,C57BL/6,8,Hepa1_6_4_2_GV007_500mpk
15631,#N/A,Meiji,0.68,ONC-2019-LZ-023,Hepa1_6_4_2,GV007,500mpk,Female,2019/9/19,5,C57BL/6,8,Hepa1_6_4_2_GV007_500mpk
15632,#N/A,Meiji,2.66,ONC-2019-LZ-023,Hepa1_6_4_2,GV007,500mpk,Female,2019/9/19,5,C57BL/6,7,Hepa1_6_4_2_GV007_500mpk
15633,#N/A,Meiji,1.12,ONC-2019-LZ-023,Hepa1_6_4_2,GV007,500mpk,Female,2019/9/19,5,C57BL/6,7,Hepa1_6_4_2_GV007_500mpk
15634,#N/A,Meiji,1.46,ONC-2019-LZ-023,Hepa1_6_4_2,GV007,500mpk,Female,2019/9/19,5,C57BL/6,7,Hepa1_6_4_2_GV007_500mpk
15635,#N/A,Meiji,0.42,ONC-2019-LZ-023,Hepa1_6_4_2,GV007,500mpk,Female,2019/9/19,5,C57BL/6,7,Hepa1_6_4_2_GV007_500mpk
15636,#N/A,Meiji,0.49,ONC-2019-LZ-023,Hepa1_6_4_2,GV009,31.25mpk,Female,2019/9/19,5,C57BL/6,10,Hepa1_6_4_2_GV009_31.25mpk
15637,#N/A,Meiji,1.86,ONC-2019-LZ-023,Hepa1_6_4_2,GV009,31.25mpk,Female,2019/9/19,5,C57BL/6,10,Hepa1_6_4_2_GV009_31.25mpk
15638,#N/A,Meiji,0.69,ONC-2019-LZ-023,Hepa1_6_4_2,GV009,31.25mpk,Female,2019/9/19,5,C57BL/6,10,Hepa1_6_4_2_GV009_31.25mpk
15639,#N/A,Meiji,1.45,ONC-2019-LZ-023,Hepa1_6_4_2,GV009,31.25mpk,Female,2019/9/19,5,C57BL/6,10,Hepa1_6_4_2_GV009_31.25mpk
15640,#N/A,Meiji,0,ONC-2019-LZ-023,Hepa1_6_4_2,GV009,31.25mpk,Female,2019/9/19,5,C57BL/6,10,Hepa1_6_4_2_GV009_31.25mpk
15641,#N/A,Meiji,0.96,ONC-2019-LZ-023,Hepa1_6_4_2,GV009,31.25mpk,Female,2019/9/19,5,C57BL/6,9,Hepa1_6_4_2_GV009_31.25mpk
15642,#N/A,Meiji,0.33,ONC-2019-LZ-023,Hepa1_6_4_2,GV009,31.25mpk,Female,2019/9/19,5,C57BL/6,9,Hepa1_6_4_2_GV009_31.25mpk
15643,#N/A,Meiji,0.38,ONC-2019-LZ-023,Hepa1_6_4_2,GV007,31.25mpk,Female,2019/9/19,5,C57BL/6,4,Hepa1_6_4_2_GV007_31.25mpk
15644,#N/A,Meiji,1.5,ONC-2019-LZ-023,Hepa1_6_4_2,GV009,31.25mpk,Female,2019/9/19,5,C57BL/6,9,Hepa1_6_4_2_GV009_31.25mpk
15645,#N/A,Meiji,1.12,ONC-2019-LZ-023,Hepa1_6_4_2,GV009,125mpk,Female,2019/9/19,5,C57BL/6,12,Hepa1_6_4_2_GV009_125mpk
15646,#N/A,Meiji,0.48,ONC-2019-LZ-023,Hepa1_6_4_2,GV009,125mpk,Female,2019/9/19,5,C57BL/6,12,Hepa1_6_4_2_GV009_125mpk
15647,#N/A,Meiji,0.65,ONC-2019-LZ-023,Hepa1_6_4_2,GV009,125mpk,Female,2019/9/19,5,C57BL/6,12,Hepa1_6_4_2_GV009_125mpk
15648,#N/A,Meiji,0.64,ONC-2019-LZ-023,Hepa1_6_4_2,GV009,125mpk,Female,2019/9/19,5,C57BL/6,12,Hepa1_6_4_2_GV009_125mpk
15649,#N/A,Meiji,0.46,ONC-2019-LZ-023,Hepa1_6_4_2,GV009,125mpk,Female,2019/9/19,5,C57BL/6,12,Hepa1_6_4_2_GV009_125mpk
15650,#N/A,Meiji,0.37,ONC-2019-LZ-023,Hepa1_6_4_2,GV009,125mpk,Female,2019/9/19,5,C57BL/6,11,Hepa1_6_4_2_GV009_125mpk
15651,#N/A,Meiji,0.4,ONC-2019-LZ-023,Hepa1_6_4_2,GV009,125mpk,Female,2019/9/19,5,C57BL/6,11,Hepa1_6_4_2_GV009_125mpk
15653,#N/A,Meiji,0,ONC-2019-LZ-023,Hepa1_6_4_2,GV009,125mpk,Female,2019/9/19,5,C57BL/6,11,Hepa1_6_4_2_GV009_125mpk
15654,#N/A,Meiji,2.34,ONC-2019-LZ-023,Hepa1_6_4_2,GV971,100mpk,Female,2019/9/19,5,C57BL/6,21,Hepa1_6_4_2_GV971_100mpk
15655,#N/A,Meiji,0,ONC-2019-LZ-023,Hepa1_6_4_2,GV009,500mpk,Female,2019/9/19,5,C57BL/6,14,Hepa1_6_4_2_GV009_500mpk
15656,#N/A,Meiji,0,ONC-2019-LZ-023,Hepa1_6_4_2,GV009,500mpk,Female,2019/9/19,5,C57BL/6,14,Hepa1_6_4_2_GV009_500mpk
15657,#N/A,Meiji,0.68,ONC-2019-LZ-023,Hepa1_6_4_2,GV009,500mpk,Female,2019/9/19,5,C57BL/6,14,Hepa1_6_4_2_GV009_500mpk
15658,#N/A,Meiji,0,ONC-2019-LZ-023,Hepa1_6_4_2,GV009,500mpk,Female,2019/9/19,5,C57BL/6,14,Hepa1_6_4_2_GV009_500mpk
15659,#N/A,Meiji,0,ONC-2019-LZ-023,Hepa1_6_4_2,GV009,500mpk,Female,2019/9/19,5,C57BL/6,13,Hepa1_6_4_2_GV009_500mpk
15660,#N/A,Meiji,0.38,ONC-2019-LZ-023,Hepa1_6_4_2,GV009,500mpk,Female,2019/9/19,5,C57BL/6,13,Hepa1_6_4_2_GV009_500mpk
15661,#N/A,Meiji,0.16,ONC-2019-LZ-023,Hepa1_6_4_2,GV009,500mpk,Female,2019/9/19,5,C57BL/6,13,Hepa1_6_4_2_GV009_500mpk
15662,#N/A,Meiji,1.15,ONC-2019-LZ-023,Hepa1_6_4_2,GV009,500mpk,Female,2019/9/19,5,C57BL/6,13,Hepa1_6_4_2_GV009_500mpk
15663,#N/A,Meiji,0.08,ONC-2019-LZ-023,Hepa1_6_4_2,JG6,18.75mpk,Female,2019/9/19,5,C57BL/6,16,Hepa1_6_4_2_JG6_18.75mpk
15664,#N/A,Meiji,0.02,ONC-2019-LZ-023,Hepa1_6_4_2,JG6,18.75mpk,Female,2019/9/19,5,C57BL/6,16,Hepa1_6_4_2_JG6_18.75mpk
15665,#N/A,Meiji,0,ONC-2019-LZ-023,Hepa1_6_4_2,JG6,18.75mpk,Female,2019/9/19,5,C57BL/6,16,Hepa1_6_4_2_JG6_18.75mpk
15666,#N/A,Meiji,0.11,ONC-2019-LZ-023,Hepa1_6_4_2,JG6,18.75mpk,Female,2019/9/19,5,C57BL/6,16,Hepa1_6_4_2_JG6_18.75mpk
15667,#N/A,Meiji,2.13,ONC-2019-LZ-023,Hepa1_6_4_2,JG6,18.75mpk,Female,2019/9/19,5,C57BL/6,16,Hepa1_6_4_2_JG6_18.75mpk
15668,#N/A,Meiji,0.22,ONC-2019-LZ-023,Hepa1_6_4_2,JG6,18.75mpk,Female,2019/9/19,5,C57BL/6,15,Hepa1_6_4_2_JG6_18.75mpk
15669,#N/A,Meiji,0.36,ONC-2019-LZ-023,Hepa1_6_4_2,JG6,18.75mpk,Female,2019/9/19,5,C57BL/6,15,Hepa1_6_4_2_JG6_18.75mpk
15670,#N/A,Meiji,0.73,ONC-2019-LZ-023,Hepa1_6_4_2,JG6,18.75mpk,Female,2019/9/19,5,C57BL/6,15,Hepa1_6_4_2_JG6_18.75mpk
15671,#N/A,Meiji,0,ONC-2019-LZ-023,Hepa1_6_4_2,JG6,18.75mpk,Female,2019/9/19,5,C57BL/6,15,Hepa1_6_4_2_JG6_18.75mpk
15672,#N/A,Meiji,0.63,ONC-2019-LZ-023,Hepa1_6_4_2,JG6,75mpk,Female,2019/9/19,5,C57BL/6,18,Hepa1_6_4_2_JG6_75mpk
15673,#N/A,Meiji,1.48,ONC-2019-LZ-023,Hepa1_6_4_2,JG6,75mpk,Female,2019/9/19,5,C57BL/6,18,Hepa1_6_4_2_JG6_75mpk
15674,#N/A,Meiji,0,ONC-2019-LZ-023,Hepa1_6_4_2,JG6,75mpk,Female,2019/9/19,5,C57BL/6,18,Hepa1_6_4_2_JG6_75mpk
15675,#N/A,Meiji,0.27,ONC-2019-LZ-023,Hepa1_6_4_2,JG6,75mpk,Female,2019/9/19,5,C57BL/6,18,Hepa1_6_4_2_JG6_75mpk
15676,#N/A,Meiji,1.49,ONC-2019-LZ-023,Hepa1_6_4_2,JG6,75mpk,Female,2019/9/19,5,C57BL/6,18,Hepa1_6_4_2_JG6_75mpk
15677,#N/A,Meiji,0.31,ONC-2019-LZ-023,Hepa1_6_4_2,JG6,75mpk,Female,2019/9/19,5,C57BL/6,17,Hepa1_6_4_2_JG6_75mpk
15678,#N/A,Meiji,0.4,ONC-2019-LZ-023,Hepa1_6_4_2,JG6,75mpk,Female,2019/9/19,5,C57BL/6,17,Hepa1_6_4_2_JG6_75mpk
15679,#N/A,Meiji,1.22,ONC-2019-LZ-023,Hepa1_6_4_2,JG6,75mpk,Female,2019/9/19,5,C57BL/6,17,Hepa1_6_4_2_JG6_75mpk
15680,#N/A,Meiji,0.37,ONC-2019-LZ-023,Hepa1_6_4_2,JG6,75mpk,Female,2019/9/19,5,C57BL/6,17,Hepa1_6_4_2_JG6_75mpk
15681,#N/A,Meiji,0,ONC-2019-LZ-023,Hepa1_6_4_2,JG6,300mpk,Female,2019/9/19,5,C57BL/6,19,Hepa1_6_4_2_JG6_300mpk
15682,#N/A,Meiji,0,ONC-2019-LZ-023,Hepa1_6_4_2,JG6,300mpk,Female,2019/9/19,5,C57BL/6,19,Hepa1_6_4_2_JG6_300mpk
15683,#N/A,Meiji,0.14,ONC-2019-LZ-023,Hepa1_6_4_2,JG6,300mpk,Female,2019/9/19,5,C57BL/6,19,Hepa1_6_4_2_JG6_300mpk
15684,#N/A,Meiji,0,ONC-2019-LZ-023,Hepa1_6_4_2,JG6,300mpk,Female,2019/9/19,5,C57BL/6,19,Hepa1_6_4_2_JG6_300mpk
15685,#N/A,Meiji,0.09,ONC-2019-LZ-023,Hepa1_6_4_2,JG6,300mpk,Female,2019/9/19,5,C57BL/6,20,Hepa1_6_4_2_JG6_300mpk
15686,#N/A,Meiji,0,ONC-2019-LZ-023,Hepa1_6_4_2,JG6,300mpk,Female,2019/9/19,5,C57BL/6,20,Hepa1_6_4_2_JG6_300mpk
15687,#N/A,Meiji,1.29,ONC-2019-LZ-023,Hepa1_6_4_2,GV007,31.25mpk,Female,2019/9/19,5,C57BL/6,4,Hepa1_6_4_2_GV007_31.25mpk
15688,#N/A,Meiji,0.22,ONC-2019-LZ-023,Hepa1_6_4_2,JG6,300mpk,Female,2019/9/19,5,C57BL/6,20,Hepa1_6_4_2_JG6_300mpk
15689,#N/A,Meiji,0.17,ONC-2019-LZ-023,Hepa1_6_4_2,JG6,300mpk,Female,2019/9/19,5,C57BL/6,20,Hepa1_6_4_2_JG6_300mpk
15690,#N/A,Meiji,0.7,ONC-2019-LZ-023,Hepa1_6_4_2,JG6,300mpk,Female,2019/9/19,5,C57BL/6,20,Hepa1_6_4_2_JG6_300mpk
15691,#N/A,Meiji,0,ONC-2019-LZ-023,Hepa1_6_4_2,GV971,100mpk,Female,2019/9/19,5,C57BL/6,22,Hepa1_6_4_2_GV971_100mpk
15692,#N/A,Meiji,0,ONC-2019-LZ-023,Hepa1_6_4_2,GV971,100mpk,Female,2019/9/19,5,C57BL/6,22,Hepa1_6_4_2_GV971_100mpk
15693,#N/A,Meiji,0.7,ONC-2019-LZ-023,Hepa1_6_4_2,GV971,100mpk,Female,2019/9/19,5,C57BL/6,22,Hepa1_6_4_2_GV971_100mpk
15694,#N/A,Meiji,0.48,ONC-2019-LZ-023,Hepa1_6_4_2,GV971,100mpk,Female,2019/9/19,5,C57BL/6,22,Hepa1_6_4_2_GV971_100mpk
15695,#N/A,Meiji,0,ONC-2019-LZ-023,Hepa1_6_4_2,GV971,100mpk,Female,2019/9/19,5,C57BL/6,22,Hepa1_6_4_2_GV971_100mpk
15696,#N/A,Meiji,0.59,ONC-2019-LZ-023,Hepa1_6_4_2,GV971,100mpk,Female,2019/9/19,5,C57BL/6,21,Hepa1_6_4_2_GV971_100mpk
15697,#N/A,Meiji,2.19,ONC-2019-LZ-023,Hepa1_6_4_2,GV007,500mpk,Female,2019/9/19,5,C57BL/6,8,Hepa1_6_4_2_GV007_500mpk
15698,#N/A,Meiji,0,ONC-2019-LZ-023,Hepa1_6_4_2,GV971,100mpk,Female,2019/9/19,5,C57BL/6,21,Hepa1_6_4_2_GV971_100mpk
15700,#N/A,Meiji,1.72,ONC-2019-LZ-023,Hepa1_6_4_2,GV009,125mpk,Female,2019/9/19,5,C57BL/6,11,Hepa1_6_4_2_GV009_125mpk
